mean_fit_time	std_fit_time	mean_score_time	std_score_time	param_alpha	param_l1_ratio	param_loss	param_penalty	params	split0_test_score	split1_test_score	split2_test_score	split3_test_score	split4_test_score	mean_test_score	std_test_score	rank_test_score	learner ID
4.23376579284668	0.08618924061705674	0.08129005432128907	0.002272901260713396	0.01	0	hinge	elasticnet	{'alpha': 0.01, 'l1_ratio': 0, 'loss': 'hinge', 'penalty': 'elasticnet'}	0.0	0.0	0.0	0.0	0.0	0.0	0.0	2	Learner_0
5.926087522506714	0.311875019479131	0.06333341598510742	0.024816151169038906	0.01	0	log	elasticnet	{'alpha': 0.01, 'l1_ratio': 0, 'loss': 'log', 'penalty': 'elasticnet'}	0.0	0.0	0.0	0.0	0.0	0.0	0.0	2	Learner_0
4.424718904495239	0.20937890500147457	0.09676966667175294	0.030735315639241416	0.01	0.05	hinge	elasticnet	{'alpha': 0.01, 'l1_ratio': 0.05, 'loss': 'hinge', 'penalty': 'elasticnet'}	0.0	0.0	0.0	0.0	0.0	0.0	0.0	2	Learner_0
12.197450208663941	0.49338145210596684	0.09160971641540527	0.02662989641939058	0.01	0.05	log	elasticnet	{'alpha': 0.01, 'l1_ratio': 0.05, 'loss': 'log', 'penalty': 'elasticnet'}	0.0	0.0	0.0	0.0	0.0	0.0	0.0	2	Learner_0
3.573618841171265	0.08609978918679077	0.07707476615905762	0.03010394511729691	0.01	0.25	hinge	elasticnet	{'alpha': 0.01, 'l1_ratio': 0.25, 'loss': 'hinge', 'penalty': 'elasticnet'}	0.0	0.0	0.0	0.0	0.0	0.0	0.0	2	Learner_0
19.417847204208375	0.19193806174356037	0.0732358455657959	0.02575906273353543	0.01	0.25	log	elasticnet	{'alpha': 0.01, 'l1_ratio': 0.25, 'loss': 'log', 'penalty': 'elasticnet'}	0.0	0.0	0.0	0.0	0.0	0.0	0.0	2	Learner_0
3.4025399684906006	0.3273799154211922	0.06832103729248047	0.026369616973426113	0.01	0.3	hinge	elasticnet	{'alpha': 0.01, 'l1_ratio': 0.3, 'loss': 'hinge', 'penalty': 'elasticnet'}	0.0	0.0	0.0	0.0	0.0	0.0	0.0	2	Learner_0
18.480746698379516	1.219671636337079	0.06220674514770508	0.01350720443323049	0.01	0.3	log	elasticnet	{'alpha': 0.01, 'l1_ratio': 0.3, 'loss': 'log', 'penalty': 'elasticnet'}	0.0	0.0	0.0	0.0	0.0	0.0	0.0	2	Learner_0
3.1102577209472657	0.1293428178448481	0.06296639442443848	0.004879489440321435	0.01	0.6	hinge	elasticnet	{'alpha': 0.01, 'l1_ratio': 0.6, 'loss': 'hinge', 'penalty': 'elasticnet'}	0.0	0.0	0.0	0.0	0.0	0.0	0.0	2	Learner_0
17.447809886932372	1.0997664866125239	0.04958667755126953	0.003058980911969748	0.01	0.6	log	elasticnet	{'alpha': 0.01, 'l1_ratio': 0.6, 'loss': 'log', 'penalty': 'elasticnet'}	0.0	0.0	0.0	0.0	0.0	0.0	0.0	2	Learner_0
3.1486292362213133	0.12358909017965922	0.05176177024841309	0.001376756317653446	0.01	0.8	hinge	elasticnet	{'alpha': 0.01, 'l1_ratio': 0.8, 'loss': 'hinge', 'penalty': 'elasticnet'}	0.0	0.0	0.0	0.0	0.0	0.0	0.0	2	Learner_0
17.490533447265626	0.2361299606320374	0.05331387519836426	0.005442738010772758	0.01	0.8	log	elasticnet	{'alpha': 0.01, 'l1_ratio': 0.8, 'loss': 'log', 'penalty': 'elasticnet'}	0.0	0.0	0.0	0.0	0.0	0.0	0.0	2	Learner_0
3.095035123825073	0.08517693793261961	0.05587158203125	0.0073006484297615986	0.01	0.95	hinge	elasticnet	{'alpha': 0.01, 'l1_ratio': 0.95, 'loss': 'hinge', 'penalty': 'elasticnet'}	0.0	0.0	0.0	0.0	0.0	0.0	0.0	2	Learner_0
17.500178050994872	0.19464735164390318	0.05860648155212402	0.011572442746069134	0.01	0.95	log	elasticnet	{'alpha': 0.01, 'l1_ratio': 0.95, 'loss': 'log', 'penalty': 'elasticnet'}	0.0	0.0	0.0	0.0	0.0	0.0	0.0	2	Learner_0
2.8735572338104247	0.058600521381600004	0.055347108840942384	0.006724266936329718	0.01	1	hinge	elasticnet	{'alpha': 0.01, 'l1_ratio': 1, 'loss': 'hinge', 'penalty': 'elasticnet'}	0.0	0.0	0.0	0.0	0.0	0.0	0.0	2	Learner_0
17.358362865447997	0.1888330944759732	0.05489788055419922	0.004248409192737508	0.01	1	log	elasticnet	{'alpha': 0.01, 'l1_ratio': 1, 'loss': 'log', 'penalty': 'elasticnet'}	0.0	0.0	0.0	0.0	0.0	0.0	0.0	2	Learner_0
5.541146898269654	0.10727125928436912	0.06477112770080566	0.01584395345047356	0.001	0	hinge	elasticnet	{'alpha': 0.001, 'l1_ratio': 0, 'loss': 'hinge', 'penalty': 'elasticnet'}	0.0	0.0	0.0	0.0	0.0	0.0	0.0	2	Learner_0
5.441824960708618	0.45878855918808603	0.052835512161254886	0.010158348524216133	0.001	0	log	elasticnet	{'alpha': 0.001, 'l1_ratio': 0, 'loss': 'log', 'penalty': 'elasticnet'}	0.0	0.0	0.0	0.0	0.0	0.0	0.0	2	Learner_0
4.64310941696167	0.2731814023337281	0.057547378540039065	0.004512454388052835	0.001	0.05	hinge	elasticnet	{'alpha': 0.001, 'l1_ratio': 0.05, 'loss': 'hinge', 'penalty': 'elasticnet'}	0.0	0.0	0.0	0.0	0.0	0.0	0.0	2	Learner_0
7.835386848449707	0.09251690661522176	0.06365389823913574	0.012266972291039135	0.001	0.05	log	elasticnet	{'alpha': 0.001, 'l1_ratio': 0.05, 'loss': 'log', 'penalty': 'elasticnet'}	0.0	0.0	0.0	0.0	0.0	0.0	0.0	2	Learner_0
2.9701717853546143	0.08133232369299936	0.06606850624084473	0.009431236669730825	0.001	0.25	hinge	elasticnet	{'alpha': 0.001, 'l1_ratio': 0.25, 'loss': 'hinge', 'penalty': 'elasticnet'}	0.0	0.0	0.0	0.0	0.0	0.0	0.0	2	Learner_0
9.034754276275635	0.6353053686549778	0.0564610481262207	0.009066962418408828	0.001	0.25	log	elasticnet	{'alpha': 0.001, 'l1_ratio': 0.25, 'loss': 'log', 'penalty': 'elasticnet'}	0.0	0.0	0.0	0.0	0.0	0.0	0.0	2	Learner_0
2.9043487071990968	0.2421019879687489	0.04807100296020508	0.004466958771503054	0.001	0.3	hinge	elasticnet	{'alpha': 0.001, 'l1_ratio': 0.3, 'loss': 'hinge', 'penalty': 'elasticnet'}	0.0	0.0	0.0	0.0	0.0	0.0	0.0	2	Learner_0
9.596462202072143	0.3861142423821401	0.05463905334472656	0.005038545814136107	0.001	0.3	log	elasticnet	{'alpha': 0.001, 'l1_ratio': 0.3, 'loss': 'log', 'penalty': 'elasticnet'}	0.0	0.0	0.0	0.0	0.0	0.0	0.0	2	Learner_0
2.9690471649169923	0.06560729046806708	0.06316986083984374	0.009712997830320038	0.001	0.6	hinge	elasticnet	{'alpha': 0.001, 'l1_ratio': 0.6, 'loss': 'hinge', 'penalty': 'elasticnet'}	0.0	0.0	0.0	0.0	0.0	0.0	0.0	2	Learner_0
8.309593200683594	0.5857698865379948	0.0556584358215332	0.01589801135905243	0.001	0.6	log	elasticnet	{'alpha': 0.001, 'l1_ratio': 0.6, 'loss': 'log', 'penalty': 'elasticnet'}	0.0	0.0	0.0	0.0	0.0	0.0	0.0	2	Learner_0
2.980006551742554	0.05222887998572736	0.051033735275268555	0.0016564513784073302	0.001	0.8	hinge	elasticnet	{'alpha': 0.001, 'l1_ratio': 0.8, 'loss': 'hinge', 'penalty': 'elasticnet'}	0.0	0.0	0.0	0.0	0.0	0.0	0.0	2	Learner_0
8.763599586486816	0.1102257574701085	0.053167533874511716	0.004898556739731231	0.001	0.8	log	elasticnet	{'alpha': 0.001, 'l1_ratio': 0.8, 'loss': 'log', 'penalty': 'elasticnet'}	0.0	0.0	0.0	0.0	0.0	0.0	0.0	2	Learner_0
2.977230739593506	0.07719719879164906	0.05348591804504395	0.007280147643441359	0.001	0.95	hinge	elasticnet	{'alpha': 0.001, 'l1_ratio': 0.95, 'loss': 'hinge', 'penalty': 'elasticnet'}	0.0	0.0	0.0	0.0	0.0	0.0	0.0	2	Learner_0
8.357102108001708	0.5537990405635401	0.047505855560302734	0.0030542685454965227	0.001	0.95	log	elasticnet	{'alpha': 0.001, 'l1_ratio': 0.95, 'loss': 'log', 'penalty': 'elasticnet'}	0.0	0.0	0.0	0.0	0.0	0.0	0.0	2	Learner_0
2.949569511413574	0.06174680924186255	0.04905810356140137	0.002476217982259386	0.001	1	hinge	elasticnet	{'alpha': 0.001, 'l1_ratio': 1, 'loss': 'hinge', 'penalty': 'elasticnet'}	0.0	0.0	0.0	0.0	0.0	0.0	0.0	2	Learner_0
8.274210596084595	0.45373187895490513	0.0483548641204834	0.002237196277207024	0.001	1	log	elasticnet	{'alpha': 0.001, 'l1_ratio': 1, 'loss': 'log', 'penalty': 'elasticnet'}	0.0	0.0	0.0	0.0	0.0	0.0	0.0	2	Learner_0
8.497240591049195	0.534013654631314	0.05051918029785156	0.007097626044764815	0.0001	0	hinge	elasticnet	{'alpha': 0.0001, 'l1_ratio': 0, 'loss': 'hinge', 'penalty': 'elasticnet'}	0.059701492537313425	0.045112781954887216	0.1958041958041958	0.07462686567164178	0.07407407407407408	0.08986388200842246	0.054068966114040405	1	Learner_0
7.792052745819092	0.39772588818904253	0.06589078903198242	0.009453724057757016	0.0001	0	log	elasticnet	{'alpha': 0.0001, 'l1_ratio': 0, 'loss': 'log', 'penalty': 'elasticnet'}	0.0	0.0	0.0	0.0	0.0	0.0	0.0	2	Learner_0
7.152947664260864	0.46328063666514213	0.057099342346191406	0.006422297744858703	0.0001	0.05	hinge	elasticnet	{'alpha': 0.0001, 'l1_ratio': 0.05, 'loss': 'hinge', 'penalty': 'elasticnet'}	0.0	0.0	0.0	0.0	0.0	0.0	0.0	2	Learner_0
7.466396999359131	0.03954793138228363	0.051188325881958006	0.00289395209676773	0.0001	0.05	log	elasticnet	{'alpha': 0.0001, 'l1_ratio': 0.05, 'loss': 'log', 'penalty': 'elasticnet'}	0.0	0.0	0.0	0.0	0.0	0.0	0.0	2	Learner_0
3.491877794265747	0.17643727958876185	0.05096864700317383	0.010777046283587034	0.0001	0.25	hinge	elasticnet	{'alpha': 0.0001, 'l1_ratio': 0.25, 'loss': 'hinge', 'penalty': 'elasticnet'}	0.0	0.0	0.0	0.0	0.0	0.0	0.0	2	Learner_0
7.317235088348388	0.07808290808405108	0.051195526123046876	0.004043766583626303	0.0001	0.25	log	elasticnet	{'alpha': 0.0001, 'l1_ratio': 0.25, 'loss': 'log', 'penalty': 'elasticnet'}	0.0	0.0	0.0	0.0	0.0	0.0	0.0	2	Learner_0
3.5088290214538573	0.28635096806121174	0.05374321937561035	0.009859234586559264	0.0001	0.3	hinge	elasticnet	{'alpha': 0.0001, 'l1_ratio': 0.3, 'loss': 'hinge', 'penalty': 'elasticnet'}	0.0	0.0	0.0	0.0	0.0	0.0	0.0	2	Learner_0
7.329749536514282	0.5328059516225084	0.057496070861816406	0.00916498302382075	0.0001	0.3	log	elasticnet	{'alpha': 0.0001, 'l1_ratio': 0.3, 'loss': 'log', 'penalty': 'elasticnet'}	0.0	0.0	0.0	0.0	0.0	0.0	0.0	2	Learner_0
3.3307417392730714	0.24170648405850986	0.05485811233520508	0.007206967541234786	0.0001	0.6	hinge	elasticnet	{'alpha': 0.0001, 'l1_ratio': 0.6, 'loss': 'hinge', 'penalty': 'elasticnet'}	0.0	0.0	0.0	0.0	0.0	0.0	0.0	2	Learner_0
7.643428993225098	0.06480639344384954	0.05572452545166016	0.006203017201649328	0.0001	0.6	log	elasticnet	{'alpha': 0.0001, 'l1_ratio': 0.6, 'loss': 'log', 'penalty': 'elasticnet'}	0.0	0.0	0.0	0.0	0.0	0.0	0.0	2	Learner_0
2.966764307022095	0.2105464231339942	0.0481170654296875	0.004621346348341278	0.0001	0.8	hinge	elasticnet	{'alpha': 0.0001, 'l1_ratio': 0.8, 'loss': 'hinge', 'penalty': 'elasticnet'}	0.0	0.0	0.0	0.0	0.0	0.0	0.0	2	Learner_0
7.963958883285523	0.1484023684481638	0.05676479339599609	0.005473960531414632	0.0001	0.8	log	elasticnet	{'alpha': 0.0001, 'l1_ratio': 0.8, 'loss': 'log', 'penalty': 'elasticnet'}	0.0	0.0	0.0	0.0	0.0	0.0	0.0	2	Learner_0
3.3499801635742186	0.17022363874808696	0.06646966934204102	0.0022703020680128567	0.0001	0.95	hinge	elasticnet	{'alpha': 0.0001, 'l1_ratio': 0.95, 'loss': 'hinge', 'penalty': 'elasticnet'}	0.0	0.0	0.0	0.0	0.0	0.0	0.0	2	Learner_0
8.177734613418579	0.053650024572123076	0.054198169708251955	0.004690767349974118	0.0001	0.95	log	elasticnet	{'alpha': 0.0001, 'l1_ratio': 0.95, 'loss': 'log', 'penalty': 'elasticnet'}	0.0	0.0	0.0	0.0	0.0	0.0	0.0	2	Learner_0
3.310095930099487	0.30735256696427693	0.05394644737243652	0.005629628291989506	0.0001	1	hinge	elasticnet	{'alpha': 0.0001, 'l1_ratio': 1, 'loss': 'hinge', 'penalty': 'elasticnet'}	0.0	0.0	0.0	0.0	0.0	0.0	0.0	2	Learner_0
8.123853778839111	0.1621532736025916	0.09919276237487792	0.009843542103073461	0.0001	1	log	elasticnet	{'alpha': 0.0001, 'l1_ratio': 1, 'loss': 'log', 'penalty': 'elasticnet'}	0.0	0.0	0.0	0.0	0.0	0.0	0.0	2	Learner_0
6.685117101669311	0.0812779215847547	0.08038544654846191	0.029490799877824908	0.0005	0	hinge	elasticnet	{'alpha': 0.0005, 'l1_ratio': 0, 'loss': 'hinge', 'penalty': 'elasticnet'}	0.0	0.0	0.0	0.0	0.0	0.0	0.0	2	Learner_0
6.49525933265686	0.17986925834958548	0.1172072410583496	0.029881050773428595	0.0005	0	log	elasticnet	{'alpha': 0.0005, 'l1_ratio': 0, 'loss': 'log', 'penalty': 'elasticnet'}	0.0	0.0	0.0	0.0	0.0	0.0	0.0	2	Learner_0
4.851469373703003	0.20001975872298275	0.05668649673461914	0.009699767109485382	0.0005	0.05	hinge	elasticnet	{'alpha': 0.0005, 'l1_ratio': 0.05, 'loss': 'hinge', 'penalty': 'elasticnet'}	0.0	0.0	0.0	0.0	0.0	0.0	0.0	2	Learner_0
7.95709719657898	0.46636277704191176	0.05294981002807617	0.00849660368465456	0.0005	0.05	log	elasticnet	{'alpha': 0.0005, 'l1_ratio': 0.05, 'loss': 'log', 'penalty': 'elasticnet'}	0.0	0.0	0.0	0.0	0.0	0.0	0.0	2	Learner_0
3.415291404724121	0.18567174809326067	0.07640156745910645	0.026346001571532086	0.0005	0.25	hinge	elasticnet	{'alpha': 0.0005, 'l1_ratio': 0.25, 'loss': 'hinge', 'penalty': 'elasticnet'}	0.0	0.0	0.0	0.0	0.0	0.0	0.0	2	Learner_0
8.173896789550781	0.6105212292895335	0.05517258644104004	0.009675191255316176	0.0005	0.25	log	elasticnet	{'alpha': 0.0005, 'l1_ratio': 0.25, 'loss': 'log', 'penalty': 'elasticnet'}	0.0	0.0	0.0	0.0	0.0	0.0	0.0	2	Learner_0
3.5434273719787597	0.08194167103393098	0.06148085594177246	0.00898347652235868	0.0005	0.3	hinge	elasticnet	{'alpha': 0.0005, 'l1_ratio': 0.3, 'loss': 'hinge', 'penalty': 'elasticnet'}	0.0	0.0	0.0	0.0	0.0	0.0	0.0	2	Learner_0
8.466776275634766	0.1878171143707124	0.04831504821777344	0.0029561472262093747	0.0005	0.3	log	elasticnet	{'alpha': 0.0005, 'l1_ratio': 0.3, 'loss': 'log', 'penalty': 'elasticnet'}	0.0	0.0	0.0	0.0	0.0	0.0	0.0	2	Learner_0
3.3557011127471923	0.07186206584975509	0.07072563171386718	0.008011402183591795	0.0005	0.6	hinge	elasticnet	{'alpha': 0.0005, 'l1_ratio': 0.6, 'loss': 'hinge', 'penalty': 'elasticnet'}	0.0	0.0	0.0	0.0	0.0	0.0	0.0	2	Learner_0
8.287367486953736	0.07156826295454125	0.046367740631103514	0.0025999187670777803	0.0005	0.6	log	elasticnet	{'alpha': 0.0005, 'l1_ratio': 0.6, 'loss': 'log', 'penalty': 'elasticnet'}	0.0	0.0	0.0	0.0	0.0	0.0	0.0	2	Learner_0
3.0859521865844726	0.2671508691429423	0.05449857711791992	0.008140537816685401	0.0005	0.8	hinge	elasticnet	{'alpha': 0.0005, 'l1_ratio': 0.8, 'loss': 'hinge', 'penalty': 'elasticnet'}	0.0	0.0	0.0	0.0	0.0	0.0	0.0	2	Learner_0
7.80200514793396	0.09458872834430938	0.04517507553100586	0.0024467911974966816	0.0005	0.8	log	elasticnet	{'alpha': 0.0005, 'l1_ratio': 0.8, 'loss': 'log', 'penalty': 'elasticnet'}	0.0	0.0	0.0	0.0	0.0	0.0	0.0	2	Learner_0
3.1572129249572756	0.2685885709213022	0.05391359329223633	0.008903132584570919	0.0005	0.95	hinge	elasticnet	{'alpha': 0.0005, 'l1_ratio': 0.95, 'loss': 'hinge', 'penalty': 'elasticnet'}	0.0	0.0	0.0	0.0	0.0	0.0	0.0	2	Learner_0
7.297473669052124	0.1232299069313315	0.044486045837402344	0.004696405610384613	0.0005	0.95	log	elasticnet	{'alpha': 0.0005, 'l1_ratio': 0.95, 'loss': 'log', 'penalty': 'elasticnet'}	0.0	0.0	0.0	0.0	0.0	0.0	0.0	2	Learner_0
2.8125221729278564	0.114539087784142	0.04365558624267578	0.0013859431377264296	0.0005	1	hinge	elasticnet	{'alpha': 0.0005, 'l1_ratio': 1, 'loss': 'hinge', 'penalty': 'elasticnet'}	0.0	0.0	0.0	0.0	0.0	0.0	0.0	2	Learner_0
6.706243848800659	0.16755035477639593	0.04208173751831055	0.000607525788546631	0.0005	1	log	elasticnet	{'alpha': 0.0005, 'l1_ratio': 1, 'loss': 'log', 'penalty': 'elasticnet'}	0.0	0.0	0.0	0.0	0.0	0.0	0.0	2	Learner_0
