contextual_features	neural_features_dbow	neural_features_dm	relational_features_token	relational_features_char	topic_features	word_features	keyword_features	char_features	pos_features	relational_features_bigram
dim_491 : 2.17	125_0 : 3.34	236_1 : 1.98	case--5--coronavirus : 0.85	p--2--h : 1.01	topic_4 : 0.59	vaccine : 1.37	immunoassay : 0.08	ccin : 1.68	nnp : 0.56	v2--2--sa : 1.09
dim_397 : 1.44	40_0 : 2.6	394_1 : 1.84	case--4--covid19 : 0.67	p--2--s : 0.98	topic_6 : 0.45	case : 1.15	offlabel : 0.08	vacc : 1.68	vbd : 0.43	ts--2--pa : 0.92
dim_478 : 1.44	180_0 : 2.59	192_1 : 1.69	patient--5--coronavirus : 0.63	u--2--h : 0.92	topic_14 : 0.27	drugs : 1.05	humanity : 0.06	acci : 1.64	prp : 0.35	an--5--ti : 0.92
dim_265 : 1.38	36_0 : 2.48	207_1 : 1.69	patients--5--mortality : 0.63	b--7--y : 0.77	topic_1 : 0.18	patient : 0.97	microbiota : 0.06	 vac : 1.63	nn : 0.29	nc--7--he : 0.92
dim_214 : 1.33	71_0 : 2.32	318_1 : 1.66	patients--4--mortality : 0.63	h--3--d : 0.72	topic_8 : 0.15	vaccines : 0.91	immunogenicity : 0.05	cci : 1.63	prp vbp dt : 0.25	le--7--ly : 0.87
dim_570 : 1.31	21_0 : 2.26	35_1 : 1.62	severe--1--syndrome : 0.61	r--2--i : 0.7	topic_5 : 0.1	drug : 0.87	ligands : 0.05	vac : 1.63	prp vbp : 0.22	it--7--ed : 0.82
dim_672 : 1.29	381_0 : 2.15	146_1 : 1.6	covid19--4--patients : 0.6	w--8--8 : 0.7	topic_16 : 0.04	ct : 0.84	recombination : 0.05	dru : 1.28	dt nn : 0.21	si--7--g  : 0.81
dim_232 : 1.22	354_0 : 2.13	382_1 : 1.58	disease--5--patient : 0.6	w--1--k : 0.7	topic_21 : 0.04	antiviral : 0.82	crystal : 0.04	 dru : 1.26	dt : 0.2	 s--5--es : 0.79
dim_579 : 1.14	359_0 : 2.12	27_1 : 1.48	patients--5--associated : 0.6	h--6--y : 0.67	topic_2 : 0.01	trials : 0.81	ddimers : 0.04	rug : 1.26	wp : 0.2	ve--6--ov : 0.78
dim_518 : 1.13	167_0 : 2.06	78_1 : 1.47	patients--3--associated : 0.6	h--6--s : 0.66	topic_0 : 0.0	treatment : 0.8	immunoassays : 0.04	cine : 1.19	in : 0.19	iv--7--ra : 0.77
dim_327 : 1.1	495_0 : 2.01	251_1 : 1.46	case--5--disease : 0.58	h--2--g : 0.66	topic_3 : 0.0	immune : 0.78	nanoparticles : 0.04	cin : 0.92	jj nns : 0.19	ie--7--pe : 0.77
dim_279 : 1.06	355_0 : 1.95	363_1 : 1.45	patients--5--95 : 0.58	t--1--m : 0.66	topic_7 : 0.0	therapeutic : 0.76	recipient : 0.04	 va : 0.89	jjr : 0.19	ra--7--n  : 0.76
dim_313 : 1.06	11_0 : 1.93	359_1 : 1.44	covid19--5--mortality : 0.58	s--2--  : 0.64	topic_9 : 0.0	mortality : 0.72	virology : 0.04	cas : 0.89	nn wp : 0.19	us--7--ta : 0.75
dim_359 : 1.06	126_0 : 1.93	398_1 : 1.44	severe--5--clinical : 0.57	c--3--o : 0.63	topic_10 : 0.0	report : 0.71	attractive : 0.03	es : 0.88	nn wp vbd : 0.19	ve--7--ni : 0.75
dim_2 : 1.04	154_0 : 1.89	214_1 : 1.42	disease--4--clinical : 0.57	m--2--y : 0.6	topic_11 : 0.0	development : 0.7	biopsies : 0.03	va : 0.88	vbd jj : 0.19	an--7--ev : 0.74
dim_603 : 1.04	410_0 : 1.89	503_1 : 1.42	case--2--covid19 : 0.56	d--4--i : 0.59	topic_12 : 0.0	cells : 0.68	calmetteguerin : 0.03	eut : 0.87	nnp nnp : 0.18	ca--7--pr : 0.72
dim_284 : 1.02	439_0 : 1.89	465_1 : 1.38	severe--2--2 : 0.55	t--2--l : 0.59	topic_13 : 0.0	review : 0.62	deteriorated : 0.03	 v : 0.86	dt nn vbd : 0.17	nc--7--t  : 0.7
dim_320 : 1.01	67_0 : 1.88	340_1 : 1.37	case--4--respiratory : 0.55	l--1--m : 0.59	topic_15 : 0.0	ace2 : 0.62	introduce : 0.03	ine : 0.86	jj : 0.17	nc--7--ne : 0.7
dim_406 : 1.0	382_0 : 1.87	362_1 : 1.32	case--5--respiratory : 0.54	4--9--z : 0.58	topic_17 : 0.0	icu : 0.62	mitochondrial : 0.03	 cas : 0.84	jj jj nns : 0.17	ni--7--us : 0.7
dim_497 : 1.0	480_0 : 1.86	495_1 : 1.32	death--5--covid19 : 0.54	3--8--4 : 0.58	topic_18 : 0.0	health : 0.6	nsaids : 0.03	 dr : 0.84	cc nnp : 0.16	n --7-- e : 0.7
dim_604 : 1.0	75_0 : 1.83	404_1 : 1.31	severe--5--case : 0.54	m--5--y : 0.57	topic_19 : 0.0	patients : 0.59	passive : 0.03	erap : 0.84	in dt nnp : 0.16	li--7--vi : 0.69
dim_641 : 0.99	404_0 : 1.83	414_1 : 1.3	case--5--infection : 0.54	v--3--  : 0.57	topic_20 : 0.0	covid19 patients : 0.56	perfusion : 0.03	cel : 0.83	nn in : 0.16	ve--6--id : 0.68
dim_735 : 0.99	146_0 : 1.81	498_1 : 1.3	patients--5--report : 0.54	v--2--i : 0.57	x	detection : 0.55	plant : 0.03	dr : 0.83	nnp cd : 0.16	nc--7--us : 0.68
dim_693 : 0.98	294_0 : 1.8	79_1 : 1.29	covid19--4--patient : 0.53	e--3--u : 0.56	x	positive : 0.5	promise : 0.03	 cel : 0.82	nns in nnp : 0.16	is--7--li : 0.68
dim_258 : 0.97	163_0 : 1.79	460_1 : 1.28	patients--4--associated : 0.53	x--7--z : 0.56	x	severity : 0.5	sclerosis : 0.03	hera : 0.82	prp vbd : 0.16	9 --1--id : 0.67
