mean_fit_time	std_fit_time	mean_score_time	std_score_time	param_alpha	param_l1_ratio	param_loss	param_penalty	params	split0_test_score	split1_test_score	split2_test_score	split3_test_score	split4_test_score	mean_test_score	std_test_score	rank_test_score	learner ID
0.687015151977539	0.2053947256803238	0.005445241928100586	0.0011378343682093843	0.01	0	hinge	elasticnet	{'alpha': 0.01, 'l1_ratio': 0, 'loss': 'hinge', 'penalty': 'elasticnet'}	0.8502994011976047	0.9069767441860465	0.8786127167630058	0.9090909090909091	0.8670520231213873	0.8824063588717908	0.0227893533596953	49	Learner_0
0.5628177165985108	0.12605818352192102	0.005962848663330078	0.0009730000496096423	0.01	0	log	elasticnet	{'alpha': 0.01, 'l1_ratio': 0, 'loss': 'log', 'penalty': 'elasticnet'}	0.8125000000000001	0.8928571428571429	0.8823529411764706	0.8901734104046243	0.8554216867469879	0.8666610362370453	0.030149774277449876	51	Learner_0
0.7570337772369384	0.2370007889322098	0.006664466857910156	0.0010037507512144412	0.01	0.05	hinge	elasticnet	{'alpha': 0.01, 'l1_ratio': 0.05, 'loss': 'hinge', 'penalty': 'elasticnet'}	0.8363636363636363	0.8941176470588236	0.8823529411764706	0.8926553672316384	0.8554216867469879	0.8721822557155114	0.022661168088626615	50	Learner_0
0.5867500305175781	0.12280823772080411	0.006456756591796875	0.0009952472424780475	0.01	0.05	log	elasticnet	{'alpha': 0.01, 'l1_ratio': 0.05, 'loss': 'log', 'penalty': 'elasticnet'}	0.7516778523489932	0.8152866242038217	0.8152866242038217	0.8271604938271604	0.8481012658227849	0.8115025720813165	0.032225052642202066	52	Learner_0
0.677025842666626	0.11794381551894563	0.0073642730712890625	0.0003138683296213915	0.01	0.25	hinge	elasticnet	{'alpha': 0.01, 'l1_ratio': 0.25, 'loss': 'hinge', 'penalty': 'elasticnet'}	0.4745762711864407	0.23529411764705882	0.4576271186440678	0.3893805309734513	0.21782178217821782	0.3549399641258473	0.10877515774769422	53	Learner_0
0.5157865047454834	0.11793065484360578	0.006926155090332032	0.0013306536144885959	0.01	0.25	log	elasticnet	{'alpha': 0.01, 'l1_ratio': 0.25, 'loss': 'log', 'penalty': 'elasticnet'}	0.0	0.0	0.0	0.0	0.0	0.0	0.0	55	Learner_0
0.6047673702239991	0.0870041292133675	0.00630803108215332	0.0010291450950689917	0.01	0.3	hinge	elasticnet	{'alpha': 0.01, 'l1_ratio': 0.3, 'loss': 'hinge', 'penalty': 'elasticnet'}	0.0	0.0	0.0	0.08421052631578947	0.18181818181818182	0.053205741626794256	0.07210410428230249	54	Learner_0
0.5987791061401367	0.11033794754237015	0.007083511352539063	0.0007119630140085661	0.01	0.3	log	elasticnet	{'alpha': 0.01, 'l1_ratio': 0.3, 'loss': 'log', 'penalty': 'elasticnet'}	0.0	0.0	0.0	0.0	0.0	0.0	0.0	55	Learner_0
1.4087227821350097	0.33202731349156495	0.007485532760620117	0.002227847402730271	0.01	0.6	hinge	elasticnet	{'alpha': 0.01, 'l1_ratio': 0.6, 'loss': 'hinge', 'penalty': 'elasticnet'}	0.0	0.0	0.0	0.0	0.0	0.0	0.0	55	Learner_0
0.5247030258178711	0.09783387549273347	0.006419944763183594	0.000817979467496932	0.01	0.6	log	elasticnet	{'alpha': 0.01, 'l1_ratio': 0.6, 'loss': 'log', 'penalty': 'elasticnet'}	0.0	0.0	0.0	0.0	0.0	0.0	0.0	55	Learner_0
1.1521430969238282	0.24611018979442134	0.007397985458374024	0.001959280020277841	0.01	0.8	hinge	elasticnet	{'alpha': 0.01, 'l1_ratio': 0.8, 'loss': 'hinge', 'penalty': 'elasticnet'}	0.0	0.0	0.0	0.0	0.0	0.0	0.0	55	Learner_0
0.5628749847412109	0.10756096251293189	0.006779956817626953	0.0010688527298723187	0.01	0.8	log	elasticnet	{'alpha': 0.01, 'l1_ratio': 0.8, 'loss': 'log', 'penalty': 'elasticnet'}	0.0	0.0	0.0	0.0	0.0	0.0	0.0	55	Learner_0
1.1439597606658936	0.23658472594680163	0.006754302978515625	0.0009920876470865616	0.01	0.95	hinge	elasticnet	{'alpha': 0.01, 'l1_ratio': 0.95, 'loss': 'hinge', 'penalty': 'elasticnet'}	0.0	0.0	0.0	0.0	0.0	0.0	0.0	55	Learner_0
0.5240395069122314	0.09911400883570452	0.006586790084838867	0.0006798033925343181	0.01	0.95	log	elasticnet	{'alpha': 0.01, 'l1_ratio': 0.95, 'loss': 'log', 'penalty': 'elasticnet'}	0.0	0.0	0.0	0.0	0.0	0.0	0.0	55	Learner_0
1.1364978790283202	0.2171119547896822	0.006656217575073242	0.0008796860936435598	0.01	1	hinge	elasticnet	{'alpha': 0.01, 'l1_ratio': 1, 'loss': 'hinge', 'penalty': 'elasticnet'}	0.0	0.0	0.0	0.0	0.0	0.0	0.0	55	Learner_0
0.5588667869567872	0.10472510310521806	0.006861734390258789	0.0008172771112663061	0.01	1	log	elasticnet	{'alpha': 0.01, 'l1_ratio': 1, 'loss': 'log', 'penalty': 'elasticnet'}	0.0	0.0	0.0	0.0	0.0	0.0	0.0	55	Learner_0
1.753524112701416	0.441527294779557	0.006447839736938477	0.0009090395670058358	0.001	0	hinge	elasticnet	{'alpha': 0.001, 'l1_ratio': 0, 'loss': 'hinge', 'penalty': 'elasticnet'}	0.8863636363636364	0.9204545454545455	0.9213483146067416	0.9281767955801106	0.8876404494382022	0.9087967482886473	0.017999254298484202	2	Learner_0
0.8544835567474365	0.21360812483719377	0.0061931610107421875	0.0009337328023076269	0.001	0	log	elasticnet	{'alpha': 0.001, 'l1_ratio': 0, 'loss': 'log', 'penalty': 'elasticnet'}	0.8850574712643678	0.9257142857142857	0.8977272727272727	0.9281767955801106	0.9	0.9073351650572075	0.0168200922776795	5	Learner_0
1.3593644618988037	0.12900878851706804	0.006458663940429687	0.0009290616753273904	0.001	0.05	hinge	elasticnet	{'alpha': 0.001, 'l1_ratio': 0.05, 'loss': 'hinge', 'penalty': 'elasticnet'}	0.8850574712643678	0.9204545454545455	0.9090909090909091	0.9281767955801106	0.8926553672316384	0.9070870177243142	0.016254590498736902	7	Learner_0
0.9610565662384033	0.1701877764099108	0.006913995742797852	0.0007957411949473271	0.001	0.05	log	elasticnet	{'alpha': 0.001, 'l1_ratio': 0.05, 'loss': 'log', 'penalty': 'elasticnet'}	0.8837209302325582	0.9142857142857143	0.8926553672316384	0.9162011173184357	0.8938547486033519	0.9001435755343398	0.012830982994859026	33	Learner_0
0.8387962341308594	0.29970775631732527	0.006129121780395508	0.0009574700231112667	0.001	0.25	hinge	elasticnet	{'alpha': 0.001, 'l1_ratio': 0.25, 'loss': 'hinge', 'penalty': 'elasticnet'}	0.8914285714285715	0.9204545454545455	0.9039548022598871	0.9281767955801106	0.8888888888888888	0.9065807207224008	0.015545786899205875	9	Learner_0
0.7434595108032227	0.1983082274358428	0.00679469108581543	0.0011820578582804398	0.001	0.25	log	elasticnet	{'alpha': 0.001, 'l1_ratio': 0.25, 'loss': 'log', 'penalty': 'elasticnet'}	0.8901734104046242	0.903954802259887	0.898876404494382	0.9111111111111112	0.8888888888888888	0.8986009234317788	0.008373664608511466	39	Learner_0
0.8283885955810547	0.1871035452551329	0.007209014892578125	0.0010315140784505053	0.001	0.3	hinge	elasticnet	{'alpha': 0.001, 'l1_ratio': 0.3, 'loss': 'hinge', 'penalty': 'elasticnet'}	0.896551724137931	0.9142857142857143	0.9039548022598871	0.9222222222222223	0.8888888888888888	0.9051806703589286	0.011955751116234153	19	Learner_0
0.6505742549896241	0.12497713823655067	0.007027959823608399	0.0019915560084959112	0.001	0.3	log	elasticnet	{'alpha': 0.001, 'l1_ratio': 0.3, 'loss': 'log', 'penalty': 'elasticnet'}	0.8901734104046242	0.903954802259887	0.898876404494382	0.9111111111111112	0.88268156424581	0.8973594585031629	0.010019855297995792	43	Learner_0
0.5976162433624268	0.12284725599233907	0.006978130340576172	0.0010341638043020764	0.001	0.6	hinge	elasticnet	{'alpha': 0.001, 'l1_ratio': 0.6, 'loss': 'hinge', 'penalty': 'elasticnet'}	0.8850574712643678	0.9101123595505618	0.8938547486033518	0.9230769230769231	0.8938547486033519	0.9011912502197112	0.013612613293702716	29	Learner_0
0.8142746448516845	0.17150145746691617	0.006853532791137695	0.0009455907528459443	0.001	0.6	log	elasticnet	{'alpha': 0.001, 'l1_ratio': 0.6, 'loss': 'log', 'penalty': 'elasticnet'}	0.8901734104046242	0.903954802259887	0.9080459770114944	0.9050279329608938	0.8863636363636364	0.8987131518001071	0.008716544059371204	37	Learner_0
0.6491940975189209	0.09994904169852743	0.00660090446472168	0.000851496611620732	0.001	0.8	hinge	elasticnet	{'alpha': 0.001, 'l1_ratio': 0.8, 'loss': 'hinge', 'penalty': 'elasticnet'}	0.8914285714285715	0.9162011173184358	0.8938547486033518	0.9171270718232044	0.8888888888888888	0.9015000796124906	0.01248400488617688	27	Learner_0
0.8853377342224121	0.1944735166451431	0.006800985336303711	0.0011523002878285544	0.001	0.8	log	elasticnet	{'alpha': 0.001, 'l1_ratio': 0.8, 'loss': 'log', 'penalty': 'elasticnet'}	0.8654970760233919	0.8977272727272728	0.8977272727272727	0.8999999999999999	0.875	0.8871903242955874	0.014179868710160274	47	Learner_0
0.7342045307159424	0.17807959042063734	0.0068340301513671875	0.001072028805034963	0.001	0.95	hinge	elasticnet	{'alpha': 0.001, 'l1_ratio': 0.95, 'loss': 'hinge', 'penalty': 'elasticnet'}	0.8786127167630058	0.9162011173184358	0.8938547486033518	0.9171270718232044	0.8888888888888888	0.8989369086793774	0.015289203804867566	36	Learner_0
1.0388346195220948	0.1702669882869967	0.006567907333374023	0.0010297403414527388	0.001	0.95	log	elasticnet	{'alpha': 0.001, 'l1_ratio': 0.95, 'loss': 'log', 'penalty': 'elasticnet'}	0.8705882352941177	0.8977272727272728	0.898876404494382	0.8999999999999999	0.8685714285714287	0.8871526682174402	0.014380299660407532	48	Learner_0
0.7704458236694336	0.0776888984357302	0.007025861740112304	0.0009160047468573883	0.001	1	hinge	elasticnet	{'alpha': 0.001, 'l1_ratio': 1, 'loss': 'hinge', 'penalty': 'elasticnet'}	0.8786127167630058	0.9101123595505618	0.8938547486033518	0.9171270718232044	0.8876404494382022	0.8974694692356652	0.014223339722075637	42	Learner_0
1.132420015335083	0.20448901647487702	0.006729984283447265	0.0007487172123419714	0.001	1	log	elasticnet	{'alpha': 0.001, 'l1_ratio': 1, 'loss': 'log', 'penalty': 'elasticnet'}	0.8654970760233919	0.9028571428571429	0.9039548022598871	0.9050279329608938	0.8636363636363636	0.8881946635475358	0.019313310461042957	46	Learner_0
1.356643056869507	0.3347471466126944	0.00648341178894043	0.0009745089818859125	0.0001	0	hinge	elasticnet	{'alpha': 0.0001, 'l1_ratio': 0, 'loss': 'hinge', 'penalty': 'elasticnet'}	0.88	0.9162011173184358	0.9213483146067416	0.9039548022598871	0.8715083798882682	0.8986025228146666	0.019676762457287254	38	Learner_0
1.241956615447998	0.19546607380582254	0.00629878044128418	0.0007948098919932801	0.0001	0	log	elasticnet	{'alpha': 0.0001, 'l1_ratio': 0, 'loss': 'log', 'penalty': 'elasticnet'}	0.8876404494382022	0.9257142857142857	0.9273743016759776	0.9120879120879121	0.8950276243093923	0.9095689146451539	0.015977214233748066	1	Learner_0
1.5095637321472168	0.29617480220526754	0.0063231468200683595	0.0010894459414641725	0.0001	0.05	hinge	elasticnet	{'alpha': 0.0001, 'l1_ratio': 0.05, 'loss': 'hinge', 'penalty': 'elasticnet'}	0.8850574712643678	0.9281767955801106	0.9222222222222223	0.9101123595505618	0.88	0.9051137697234525	0.019403838519373953	20	Learner_0
1.098153305053711	0.135156467649288	0.006378459930419922	0.0009577405241132452	0.0001	0.05	log	elasticnet	{'alpha': 0.0001, 'l1_ratio': 0.05, 'loss': 'log', 'penalty': 'elasticnet'}	0.8914285714285715	0.9257142857142857	0.9152542372881357	0.8999999999999999	0.8938547486033519	0.9052503686068689	0.013170557277365302	17	Learner_0
1.4124547958374023	0.19178917897767797	0.006432294845581055	0.0010619610043487116	0.0001	0.25	hinge	elasticnet	{'alpha': 0.0001, 'l1_ratio': 0.25, 'loss': 'hinge', 'penalty': 'elasticnet'}	0.8901734104046242	0.9265536723163842	0.9162011173184357	0.9060773480662984	0.8863636363636364	0.9050738368938758	0.015220387955248585	21	Learner_0
1.290234375	0.17282184221790128	0.0063201904296875	0.0008247038282308	0.0001	0.25	log	elasticnet	{'alpha': 0.0001, 'l1_ratio': 0.25, 'loss': 'log', 'penalty': 'elasticnet'}	0.8926553672316384	0.9325842696629215	0.9213483146067416	0.8950276243093923	0.8876404494382022	0.9058512050497793	0.017763607763863	14	Learner_0
1.584121322631836	0.27407461147384116	0.0062315940856933595	0.0007646805803799524	0.0001	0.3	hinge	elasticnet	{'alpha': 0.0001, 'l1_ratio': 0.3, 'loss': 'hinge', 'penalty': 'elasticnet'}	0.8901734104046242	0.9325842696629215	0.9152542372881357	0.9171270718232044	0.88	0.9070277978357772	0.019169638102578344	8	Learner_0
1.0680796146392821	0.19983813704532727	0.006455516815185547	0.0010158550792999316	0.0001	0.3	log	elasticnet	{'alpha': 0.0001, 'l1_ratio': 0.3, 'loss': 'log', 'penalty': 'elasticnet'}	0.8977272727272728	0.9318181818181819	0.9213483146067416	0.9010989010989011	0.8876404494382022	0.90792662393786	0.016205688868252577	4	Learner_0
1.3810083866119385	0.21701897464271847	0.006562137603759765	0.0010146241918557817	0.0001	0.6	hinge	elasticnet	{'alpha': 0.0001, 'l1_ratio': 0.6, 'loss': 'hinge', 'penalty': 'elasticnet'}	0.8850574712643678	0.9171270718232044	0.9171270718232044	0.9120879120879121	0.88	0.9022799053997378	0.01630999766386201	25	Learner_0
1.242462158203125	0.24587389137824459	0.006658506393432617	0.001083589831620982	0.0001	0.6	log	elasticnet	{'alpha': 0.0001, 'l1_ratio': 0.6, 'loss': 'log', 'penalty': 'elasticnet'}	0.8926553672316384	0.9265536723163842	0.9273743016759776	0.9010989010989011	0.883977900552486	0.9063320285750773	0.017696529949052905	10	Learner_0
1.1772006034851075	0.25760379605200834	0.006328153610229492	0.000826071203785807	0.0001	0.8	hinge	elasticnet	{'alpha': 0.0001, 'l1_ratio': 0.8, 'loss': 'hinge', 'penalty': 'elasticnet'}	0.8850574712643678	0.9111111111111111	0.9171270718232044	0.907103825136612	0.8764044943820225	0.8993607947434636	0.015781266390980802	35	Learner_0
1.403789758682251	0.3276366083803796	0.006693410873413086	0.0010702636773527862	0.0001	0.8	log	elasticnet	{'alpha': 0.0001, 'l1_ratio': 0.8, 'loss': 'log', 'penalty': 'elasticnet'}	0.8863636363636364	0.9265536723163842	0.9222222222222223	0.9060773480662984	0.8888888888888888	0.9060211535714859	0.0165166254736746	12	Learner_0
1.247249698638916	0.2741059219569185	0.006652641296386719	0.0008981899738118351	0.0001	0.95	hinge	elasticnet	{'alpha': 0.0001, 'l1_ratio': 0.95, 'loss': 'hinge', 'penalty': 'elasticnet'}	0.8850574712643678	0.9171270718232044	0.9333333333333335	0.908108108108108	0.8603351955307262	0.900792236011948	0.02554849039199328	31	Learner_0
1.4438744068145752	0.26344604168209884	0.006673049926757812	0.0011111919691065924	0.0001	0.95	log	elasticnet	{'alpha': 0.0001, 'l1_ratio': 0.95, 'loss': 'log', 'penalty': 'elasticnet'}	0.8926553672316384	0.9265536723163842	0.9273743016759776	0.9010989010989011	0.8888888888888888	0.907314226242358	0.016526151290376455	6	Learner_0
1.3334654331207276	0.24179799124800302	0.0068248271942138675	0.000972358338142443	0.0001	1	hinge	elasticnet	{'alpha': 0.0001, 'l1_ratio': 1, 'loss': 'hinge', 'penalty': 'elasticnet'}	0.8837209302325582	0.9101123595505618	0.9340659340659341	0.9010989010989011	0.8715083798882682	0.9001013009672446	0.021636471444042005	34	Learner_0
1.3872311592102051	0.2157490786183871	0.006450796127319336	0.0009320190054324448	0.0001	1	log	elasticnet	{'alpha': 0.0001, 'l1_ratio': 1, 'loss': 'log', 'penalty': 'elasticnet'}	0.8813559322033899	0.9265536723163842	0.9222222222222223	0.9010989010989011	0.8791208791208792	0.9020703213923553	0.019810300638588064	26	Learner_0
1.750699758529663	0.34731812389662625	0.0064890384674072266	0.0009312108533606167	0.0005	0	hinge	elasticnet	{'alpha': 0.0005, 'l1_ratio': 0, 'loss': 'hinge', 'penalty': 'elasticnet'}	0.8863636363636364	0.9204545454545455	0.9333333333333335	0.9111111111111112	0.8777777777777779	0.905808080808081	0.02080415771588758	15	Learner_0
1.0576783657073974	0.243168605647807	0.006405305862426758	0.000923069031544972	0.0005	0	log	elasticnet	{'alpha': 0.0005, 'l1_ratio': 0, 'loss': 'log', 'penalty': 'elasticnet'}	0.8863636363636364	0.9257142857142857	0.9090909090909091	0.9222222222222223	0.8988764044943819	0.908453491577087	0.01461233423688972	3	Learner_0
1.8796739101409912	0.20743602129200467	0.0066030025482177734	0.001339299317935987	0.0005	0.05	hinge	elasticnet	{'alpha': 0.0005, 'l1_ratio': 0.05, 'loss': 'hinge', 'penalty': 'elasticnet'}	0.8863636363636364	0.9204545454545455	0.9213483146067416	0.9101123595505618	0.8876404494382022	0.9051838610827374	0.015367144215289317	18	Learner_0
0.9157968044281006	0.1893034725732948	0.006630134582519531	0.0008974573980943027	0.0005	0.05	log	elasticnet	{'alpha': 0.0005, 'l1_ratio': 0.05, 'loss': 'log', 'penalty': 'elasticnet'}	0.8850574712643678	0.9325842696629215	0.9028571428571429	0.9162011173184357	0.8938547486033519	0.9061109499412441	0.016773185928493584	11	Learner_0
1.030618715286255	0.23318699975645474	0.0061203956604003905	0.0009210620960243196	0.0005	0.25	hinge	elasticnet	{'alpha': 0.0005, 'l1_ratio': 0.25, 'loss': 'hinge', 'penalty': 'elasticnet'}	0.8863636363636364	0.9142857142857143	0.9162011173184357	0.9111111111111112	0.8729281767955802	0.9001779511748955	0.017370609182602116	32	Learner_0
0.8819262981414795	0.10835790862173339	0.006905031204223633	0.0007597954970128878	0.0005	0.25	log	elasticnet	{'alpha': 0.0005, 'l1_ratio': 0.25, 'loss': 'log', 'penalty': 'elasticnet'}	0.8850574712643678	0.9325842696629215	0.9050279329608938	0.9111111111111112	0.8852459016393444	0.9038053373277279	0.017770937803114343	22	Learner_0
1.1426782608032227	0.28499306697257965	0.006545305252075195	0.0009367626474742917	0.0005	0.3	hinge	elasticnet	{'alpha': 0.0005, 'l1_ratio': 0.3, 'loss': 'hinge', 'penalty': 'elasticnet'}	0.8914285714285715	0.9142857142857143	0.9162011173184357	0.9171270718232044	0.8729281767955802	0.9023941303303011	0.017536180447464047	24	Learner_0
0.7308378219604492	0.1587080899288055	0.0068037986755371095	0.0007842908572764214	0.0005	0.3	log	elasticnet	{'alpha': 0.0005, 'l1_ratio': 0.3, 'loss': 'log', 'penalty': 'elasticnet'}	0.8901734104046242	0.9273743016759777	0.9050279329608938	0.9111111111111112	0.88268156424581	0.9032736640796835	0.015754332672284432	23	Learner_0
0.831450080871582	0.1501724921498555	0.006615781784057617	0.00107855447391413	0.0005	0.6	hinge	elasticnet	{'alpha': 0.0005, 'l1_ratio': 0.6, 'loss': 'hinge', 'penalty': 'elasticnet'}	0.896551724137931	0.9204545454545455	0.9101123595505618	0.9281767955801106	0.8729281767955802	0.9056447203037458	0.0194937935563601	16	Learner_0
0.8617438316345215	0.18991325851189214	0.006712865829467773	0.001097845018167128	0.0005	0.6	log	elasticnet	{'alpha': 0.0005, 'l1_ratio': 0.6, 'loss': 'log', 'penalty': 'elasticnet'}	0.8850574712643678	0.9101123595505618	0.898876404494382	0.9060773480662984	0.8888888888888888	0.8978024944528997	0.009623380321383884	41	Learner_0
0.7932644844055176	0.13496501952206882	0.006641387939453125	0.000808632214853535	0.0005	0.8	hinge	elasticnet	{'alpha': 0.0005, 'l1_ratio': 0.8, 'loss': 'hinge', 'penalty': 'elasticnet'}	0.8914285714285715	0.9152542372881356	0.9162011173184357	0.9230769230769231	0.883977900552486	0.9059877499329103	0.015353329596361027	13	Learner_0
0.8631770133972168	0.22888791310897036	0.006787014007568359	0.0011685403095925584	0.0005	0.8	log	elasticnet	{'alpha': 0.0005, 'l1_ratio': 0.8, 'loss': 'log', 'penalty': 'elasticnet'}	0.8850574712643678	0.9101123595505618	0.9039548022598871	0.9060773480662984	0.8876404494382022	0.8985684861158635	0.010204174941817077	40	Learner_0
0.7090511322021484	0.1551803724500291	0.006191730499267578	0.0009341479196643594	0.0005	0.95	hinge	elasticnet	{'alpha': 0.0005, 'l1_ratio': 0.95, 'loss': 'hinge', 'penalty': 'elasticnet'}	0.8914285714285715	0.9152542372881356	0.9039548022598871	0.9111111111111112	0.88268156424581	0.900886057266703	0.012175887019915507	30	Learner_0
1.0646483421325683	0.20739066481750681	0.007174348831176758	0.0012550052136266413	0.0005	0.95	log	elasticnet	{'alpha': 0.0005, 'l1_ratio': 0.95, 'loss': 'log', 'penalty': 'elasticnet'}	0.8786127167630058	0.9162011173184358	0.9090909090909091	0.9060773480662984	0.8764044943820225	0.8972773171241343	0.016487290556053125	44	Learner_0
0.8030028820037842	0.19549881260332835	0.006785249710083008	0.0008566004107598625	0.0005	1	hinge	elasticnet	{'alpha': 0.0005, 'l1_ratio': 1, 'loss': 'hinge', 'penalty': 'elasticnet'}	0.8914285714285715	0.9152542372881356	0.9039548022598871	0.9171270718232044	0.8791208791208792	0.9013771123841355	0.014433251118456288	28	Learner_0
0.8751420974731445	0.13352830174417624	0.005164670944213867	0.0011052884592927502	0.0005	1	log	elasticnet	{'alpha': 0.0005, 'l1_ratio': 1, 'loss': 'log', 'penalty': 'elasticnet'}	0.8786127167630058	0.9162011173184358	0.9039548022598871	0.9060773480662984	0.8715083798882682	0.8952708728591791	0.017160512265546584	45	Learner_0
0.3223841190338135	0.07592855433451762	0.004979181289672852	0.0006031068610877917	0.01	0	hinge	elasticnet	{'alpha': 0.01, 'l1_ratio': 0, 'loss': 'hinge', 'penalty': 'elasticnet'}	0.125	0.02197802197802198	0.02173913043478261	0.10416666666666666	0.06451612903225806	0.06747998962234586	0.042014053826591874	51	Learner_1
0.24971108436584472	0.07705152878796029	0.004819393157958984	0.0011976047026887957	0.01	0	log	elasticnet	{'alpha': 0.01, 'l1_ratio': 0, 'loss': 'log', 'penalty': 'elasticnet'}	0.578125	0.578125	0.6106870229007634	0.6762589928057554	0.4210526315789474	0.5728497294570933	0.08393229700691442	49	Learner_1
0.4157872200012207	0.09307644162419683	0.005593252182006836	0.0010752733044366715	0.01	0.05	hinge	elasticnet	{'alpha': 0.01, 'l1_ratio': 0.05, 'loss': 'hinge', 'penalty': 'elasticnet'}	0.0	0.0	0.06382978723404255	0.0	0.02197802197802198	0.017161561842412906	0.024838193026284115	52	Learner_1
0.4156933307647705	0.07110991486271806	0.006816196441650391	0.0009258812853879345	0.01	0.05	log	elasticnet	{'alpha': 0.01, 'l1_ratio': 0.05, 'loss': 'log', 'penalty': 'elasticnet'}	0.2857142857142857	0.19999999999999998	0.3893805309734513	0.3893805309734513	0.2692307692307693	0.3067412233783915	0.07335034473782459	50	Learner_1
0.9786059856414795	0.21076246897501583	0.007006025314331055	0.0006557946065411375	0.01	0.25	hinge	elasticnet	{'alpha': 0.01, 'l1_ratio': 0.25, 'loss': 'hinge', 'penalty': 'elasticnet'}	0.0	0.0	0.0	0.0	0.0	0.0	0.0	53	Learner_1
0.37439303398132323	0.10133449217997119	0.006554412841796875	0.0012509388704365929	0.01	0.25	log	elasticnet	{'alpha': 0.01, 'l1_ratio': 0.25, 'loss': 'log', 'penalty': 'elasticnet'}	0.0	0.0	0.0	0.0	0.0	0.0	0.0	53	Learner_1
1.0170684337615967	0.19461608989794255	0.006958484649658203	0.0013005406168412296	0.01	0.3	hinge	elasticnet	{'alpha': 0.01, 'l1_ratio': 0.3, 'loss': 'hinge', 'penalty': 'elasticnet'}	0.0	0.0	0.0	0.0	0.0	0.0	0.0	53	Learner_1
0.343568229675293	0.07608141809597115	0.00648045539855957	0.0010030966265972608	0.01	0.3	log	elasticnet	{'alpha': 0.01, 'l1_ratio': 0.3, 'loss': 'log', 'penalty': 'elasticnet'}	0.0	0.0	0.0	0.0	0.0	0.0	0.0	53	Learner_1
0.8911533355712891	0.1326752513886762	0.006933784484863282	0.0013038878082153695	0.01	0.6	hinge	elasticnet	{'alpha': 0.01, 'l1_ratio': 0.6, 'loss': 'hinge', 'penalty': 'elasticnet'}	0.0	0.0	0.0	0.0	0.0	0.0	0.0	53	Learner_1
0.43729825019836427	0.09187626903175647	0.0071219921112060545	0.0011329358812382266	0.01	0.6	log	elasticnet	{'alpha': 0.01, 'l1_ratio': 0.6, 'loss': 'log', 'penalty': 'elasticnet'}	0.0	0.0	0.0	0.0	0.0	0.0	0.0	53	Learner_1
0.8523837089538574	0.17325424962448358	0.0069042682647705075	0.0012801185091526422	0.01	0.8	hinge	elasticnet	{'alpha': 0.01, 'l1_ratio': 0.8, 'loss': 'hinge', 'penalty': 'elasticnet'}	0.0	0.0	0.0	0.0	0.0	0.0	0.0	53	Learner_1
0.42763800621032716	0.09683419248110461	0.007048273086547851	0.0010270393923857764	0.01	0.8	log	elasticnet	{'alpha': 0.01, 'l1_ratio': 0.8, 'loss': 'log', 'penalty': 'elasticnet'}	0.0	0.0	0.0	0.0	0.0	0.0	0.0	53	Learner_1
0.8729187488555908	0.20545832108460038	0.0071147441864013675	0.0015331715613225707	0.01	0.95	hinge	elasticnet	{'alpha': 0.01, 'l1_ratio': 0.95, 'loss': 'hinge', 'penalty': 'elasticnet'}	0.0	0.0	0.0	0.0	0.0	0.0	0.0	53	Learner_1
0.3875136375427246	0.09449500274272314	0.006348705291748047	0.0008479554654545647	0.01	0.95	log	elasticnet	{'alpha': 0.01, 'l1_ratio': 0.95, 'loss': 'log', 'penalty': 'elasticnet'}	0.0	0.0	0.0	0.0	0.0	0.0	0.0	53	Learner_1
0.8712832927703857	0.20928971492237589	0.007012224197387696	0.0013491771949646787	0.01	1	hinge	elasticnet	{'alpha': 0.01, 'l1_ratio': 1, 'loss': 'hinge', 'penalty': 'elasticnet'}	0.0	0.0	0.0	0.0	0.0	0.0	0.0	53	Learner_1
0.3830420017242432	0.10193534975617241	0.006516265869140625	0.001108352092935145	0.01	1	log	elasticnet	{'alpha': 0.01, 'l1_ratio': 1, 'loss': 'log', 'penalty': 'elasticnet'}	0.0	0.0	0.0	0.0	0.0	0.0	0.0	53	Learner_1
0.6178724765777588	0.16642371441112397	0.006999874114990234	0.0011499783646045372	0.001	0	hinge	elasticnet	{'alpha': 0.001, 'l1_ratio': 0, 'loss': 'hinge', 'penalty': 'elasticnet'}	0.8837209302325582	0.9069767441860465	0.8977272727272727	0.9222222222222223	0.8914285714285715	0.9004151481593343	0.013306262957456603	26	Learner_1
0.4580211639404297	0.1473358502733971	0.0068875312805175785	0.0010613347654761835	0.001	0	log	elasticnet	{'alpha': 0.001, 'l1_ratio': 0, 'loss': 'log', 'penalty': 'elasticnet'}	0.8554216867469879	0.9132947976878613	0.9039548022598871	0.9152542372881357	0.8670520231213873	0.8909955094208518	0.02486955890902028	44	Learner_1
0.6522695541381835	0.15374123039817367	0.007577276229858399	0.001629104995953039	0.001	0.05	hinge	elasticnet	{'alpha': 0.001, 'l1_ratio': 0.05, 'loss': 'hinge', 'penalty': 'elasticnet'}	0.8771929824561403	0.9132947976878613	0.8977272727272727	0.9162011173184357	0.8914285714285715	0.8991689483236562	0.014384500962774712	31	Learner_1
0.4789228916168213	0.11512198096337709	0.006575250625610351	0.0010121095933373573	0.001	0.05	log	elasticnet	{'alpha': 0.001, 'l1_ratio': 0.05, 'loss': 'log', 'penalty': 'elasticnet'}	0.8571428571428571	0.9132947976878613	0.9039548022598871	0.9213483146067416	0.8670520231213873	0.8925585589637469	0.025665429253434974	43	Learner_1
0.5525139331817627	0.15498869551720518	0.007052278518676758	0.0010417222362808412	0.001	0.25	hinge	elasticnet	{'alpha': 0.001, 'l1_ratio': 0.25, 'loss': 'hinge', 'penalty': 'elasticnet'}	0.88	0.9132947976878613	0.898876404494382	0.9162011173184357	0.8988764044943819	0.9014497447990122	0.012893750282489989	21	Learner_1
0.5890745639801025	0.0642291605458269	0.006886911392211914	0.0009521612013097343	0.001	0.25	log	elasticnet	{'alpha': 0.001, 'l1_ratio': 0.25, 'loss': 'log', 'penalty': 'elasticnet'}	0.8658536585365852	0.9132947976878613	0.8953488372093024	0.9213483146067416	0.872093023255814	0.8935877262592609	0.021878396701408193	41	Learner_1
0.5580807685852051	0.1436070586066819	0.006993484497070312	0.0009470899423566307	0.001	0.3	hinge	elasticnet	{'alpha': 0.001, 'l1_ratio': 0.3, 'loss': 'hinge', 'penalty': 'elasticnet'}	0.8953488372093023	0.9132947976878613	0.8926553672316384	0.9222222222222223	0.9	0.904704244870205	0.011273918155356725	7	Learner_1
0.5300629615783692	0.14526516313465782	0.006659221649169922	0.0011674021673058733	0.001	0.3	log	elasticnet	{'alpha': 0.001, 'l1_ratio': 0.3, 'loss': 'log', 'penalty': 'elasticnet'}	0.8658536585365852	0.9132947976878613	0.8953488372093024	0.9213483146067416	0.872093023255814	0.8935877262592609	0.021878396701408193	41	Learner_1
0.6273515224456787	0.17176560910372074	0.006744003295898438	0.0009781937297889164	0.001	0.6	hinge	elasticnet	{'alpha': 0.001, 'l1_ratio': 0.6, 'loss': 'hinge', 'penalty': 'elasticnet'}	0.8850574712643678	0.9080459770114943	0.898876404494382	0.9281767955801106	0.9	0.9040313296700709	0.014155939337001265	9	Learner_1
0.7158538818359375	0.1257635149413973	0.007239913940429688	0.0011390612397431763	0.001	0.6	log	elasticnet	{'alpha': 0.001, 'l1_ratio': 0.6, 'loss': 'log', 'penalty': 'elasticnet'}	0.8466257668711656	0.9132947976878613	0.888888888888889	0.9213483146067416	0.8705882352941177	0.8881492006697549	0.02745036398159305	45	Learner_1
0.6299067497253418	0.1502059888935965	0.006978559494018555	0.0011728851350056625	0.001	0.8	hinge	elasticnet	{'alpha': 0.001, 'l1_ratio': 0.8, 'loss': 'hinge', 'penalty': 'elasticnet'}	0.8901734104046242	0.9080459770114943	0.8926553672316384	0.9281767955801106	0.9050279329608939	0.9048158966377523	0.013553529846815165	6	Learner_1
0.8150107383728027	0.1684562289872121	0.00739140510559082	0.000831004616308329	0.001	0.8	log	elasticnet	{'alpha': 0.001, 'l1_ratio': 0.8, 'loss': 'log', 'penalty': 'elasticnet'}	0.8313253012048194	0.8953488372093023	0.8786127167630058	0.9213483146067416	0.8771929824561403	0.8807656304480018	0.029398534588152322	47	Learner_1
0.6829958438873291	0.1477940472436968	0.007214975357055664	0.0016324721089013591	0.001	0.95	hinge	elasticnet	{'alpha': 0.001, 'l1_ratio': 0.95, 'loss': 'hinge', 'penalty': 'elasticnet'}	0.8914285714285715	0.9028571428571429	0.8926553672316384	0.9281767955801106	0.8950276243093923	0.9020291002813712	0.013664892044768579	19	Learner_1
1.0606822490692138	0.20508467160644736	0.007008981704711914	0.0010744008398800224	0.001	0.95	log	elasticnet	{'alpha': 0.001, 'l1_ratio': 0.95, 'loss': 'log', 'penalty': 'elasticnet'}	0.8313253012048194	0.8953488372093023	0.8837209302325583	0.9111111111111112	0.8837209302325582	0.8810454219980699	0.026813953266417143	46	Learner_1
0.6158352375030518	0.16557984545995502	0.006744194030761719	0.001012822771041532	0.001	1	hinge	elasticnet	{'alpha': 0.001, 'l1_ratio': 1, 'loss': 'hinge', 'penalty': 'elasticnet'}	0.8636363636363636	0.9028571428571429	0.8926553672316384	0.9281767955801106	0.8950276243093923	0.8964706587229296	0.020692008241428424	38	Learner_1
1.1315177440643311	0.24551763298919416	0.007205677032470703	0.001111995411108577	0.001	1	log	elasticnet	{'alpha': 0.001, 'l1_ratio': 1, 'loss': 'log', 'penalty': 'elasticnet'}	0.8333333333333333	0.9005847953216374	0.888888888888889	0.8950276243093923	0.8837209302325582	0.880311114417162	0.02416491164961079	48	Learner_1
0.5730644702911377	0.22030169509265055	0.006446695327758789	0.0011391787769541844	0.0001	0	hinge	elasticnet	{'alpha': 0.0001, 'l1_ratio': 0, 'loss': 'hinge', 'penalty': 'elasticnet'}	0.8786127167630058	0.9265536723163842	0.9152542372881357	0.9050279329608938	0.8876404494382022	0.9026178017533244	0.01754411196292597	14	Learner_1
0.7396248340606689	0.2141188907839603	0.006885099411010742	0.0009412336653744535	0.0001	0	log	elasticnet	{'alpha': 0.0001, 'l1_ratio': 0, 'loss': 'log', 'penalty': 'elasticnet'}	0.8876404494382022	0.9265536723163842	0.9050279329608938	0.9111111111111112	0.8804347826086957	0.9021535896870574	0.016529978175582945	17	Learner_1
0.838323974609375	0.28571922020271184	0.007082366943359375	0.0011008634104934746	0.0001	0.05	hinge	elasticnet	{'alpha': 0.0001, 'l1_ratio': 0.05, 'loss': 'hinge', 'penalty': 'elasticnet'}	0.8786127167630058	0.9186046511627907	0.9101123595505618	0.907103825136612	0.8888888888888888	0.9006644883003718	0.014680069093956905	25	Learner_1
0.6347633361816406	0.21019266050256638	0.0066568851470947266	0.0012055356068100577	0.0001	0.05	log	elasticnet	{'alpha': 0.0001, 'l1_ratio': 0.05, 'loss': 'log', 'penalty': 'elasticnet'}	0.8926553672316384	0.9325842696629215	0.9101123595505618	0.9111111111111112	0.8804347826086957	0.9053795780329856	0.017773538186165748	4	Learner_1
0.7493333339691162	0.12599064167277205	0.007088518142700196	0.0010418543667942194	0.0001	0.25	hinge	elasticnet	{'alpha': 0.0001, 'l1_ratio': 0.25, 'loss': 'hinge', 'penalty': 'elasticnet'}	0.8977272727272728	0.9195402298850575	0.9162011173184357	0.9050279329608938	0.8950276243093923	0.9067048354402104	0.009743640121115803	2	Learner_1
0.6743024826049805	0.21349115028526028	0.007062864303588867	0.0013736776413671146	0.0001	0.25	log	elasticnet	{'alpha': 0.0001, 'l1_ratio': 0.25, 'loss': 'log', 'penalty': 'elasticnet'}	0.8977272727272728	0.9204545454545455	0.9111111111111112	0.9111111111111112	0.8864864864864865	0.9053781053781055	0.011903463860952925	5	Learner_1
0.8614385604858399	0.15863631688171503	0.007051992416381836	0.0010559586203878458	0.0001	0.3	hinge	elasticnet	{'alpha': 0.0001, 'l1_ratio': 0.3, 'loss': 'hinge', 'penalty': 'elasticnet'}	0.8850574712643678	0.9204545454545455	0.9142857142857143	0.907103825136612	0.8804347826086957	0.9014672677499871	0.01592637383279772	20	Learner_1
0.6260169982910156	0.19484047764799545	0.006897592544555664	0.0008271883533391071	0.0001	0.3	log	elasticnet	{'alpha': 0.0001, 'l1_ratio': 0.3, 'loss': 'log', 'penalty': 'elasticnet'}	0.8926553672316384	0.9265536723163842	0.9111111111111112	0.9060773480662984	0.8864864864864865	0.9045767970423837	0.014123114283149073	8	Learner_1
0.7759376049041748	0.2167641665272156	0.007046270370483399	0.0013077400497116813	0.0001	0.6	hinge	elasticnet	{'alpha': 0.0001, 'l1_ratio': 0.6, 'loss': 'hinge', 'penalty': 'elasticnet'}	0.896551724137931	0.9213483146067416	0.9162011173184357	0.8950276243093923	0.8852459016393444	0.9028749364023689	0.013646970265895477	12	Learner_1
0.718870735168457	0.21162055924043538	0.006545352935791016	0.001089466759667778	0.0001	0.6	log	elasticnet	{'alpha': 0.0001, 'l1_ratio': 0.6, 'loss': 'log', 'penalty': 'elasticnet'}	0.8938547486033519	0.9080459770114943	0.9050279329608938	0.9060773480662984	0.8804347826086957	0.8986881578501468	0.0103818034330652	34	Learner_1
0.8953115940093994	0.23280451980497635	0.006883573532104492	0.000999567251651211	0.0001	0.8	hinge	elasticnet	{'alpha': 0.0001, 'l1_ratio': 0.8, 'loss': 'hinge', 'penalty': 'elasticnet'}	0.8901734104046242	0.9204545454545455	0.9101123595505618	0.8950276243093923	0.891304347826087	0.9014144575090421	0.011895760127218864	22	Learner_1
0.8470433235168457	0.18473876167248043	0.0073944091796875	0.0017100373804141034	0.0001	0.8	log	elasticnet	{'alpha': 0.0001, 'l1_ratio': 0.8, 'loss': 'log', 'penalty': 'elasticnet'}	0.8876404494382022	0.9204545454545455	0.9101123595505618	0.9120879120879121	0.8756756756756757	0.9011941884413796	0.01675748595603724	23	Learner_1
0.8791822910308837	0.2972051894666565	0.007102346420288086	0.0011002014740609193	0.0001	0.95	hinge	elasticnet	{'alpha': 0.0001, 'l1_ratio': 0.95, 'loss': 'hinge', 'penalty': 'elasticnet'}	0.8850574712643678	0.9257142857142857	0.9162011173184357	0.8950276243093923	0.8829787234042554	0.9009958444021473	0.01706733549074239	24	Learner_1
0.8190415859222412	0.23504897771829059	0.006996011734008789	0.000726270902635009	0.0001	0.95	log	elasticnet	{'alpha': 0.0001, 'l1_ratio': 0.95, 'loss': 'log', 'penalty': 'elasticnet'}	0.8926553672316384	0.9204545454545455	0.898876404494382	0.9120879120879121	0.8864864864864865	0.9021121431509929	0.01249016773136354	18	Learner_1
0.813231372833252	0.1627908434058441	0.007274341583251953	0.0009332012552465459	0.0001	1	hinge	elasticnet	{'alpha': 0.0001, 'l1_ratio': 1, 'loss': 'hinge', 'penalty': 'elasticnet'}	0.8914285714285715	0.9204545454545455	0.9162011173184357	0.8950276243093923	0.8877005347593583	0.9021624786540606	0.01346813881307174	16	Learner_1
0.955614423751831	0.19675253530863945	0.007367372512817383	0.0008265575955636604	0.0001	1	log	elasticnet	{'alpha': 0.0001, 'l1_ratio': 1, 'loss': 'log', 'penalty': 'elasticnet'}	0.8876404494382022	0.9152542372881356	0.898876404494382	0.9120879120879121	0.8804347826086957	0.8988587571834655	0.013484182485974133	33	Learner_1
0.5064826488494873	0.19033590793182617	0.00686955451965332	0.0012126591824318795	0.0005	0	hinge	elasticnet	{'alpha': 0.0005, 'l1_ratio': 0, 'loss': 'hinge', 'penalty': 'elasticnet'}	0.88	0.9090909090909092	0.9101123595505618	0.9111111111111112	0.8901098901098902	0.9000848539724945	0.012697554934377563	29	Learner_1
0.5488255977630615	0.1605097259098648	0.0073719978332519535	0.0008364477118225991	0.0005	0	log	elasticnet	{'alpha': 0.0005, 'l1_ratio': 0, 'loss': 'log', 'penalty': 'elasticnet'}	0.8786127167630058	0.9132947976878613	0.898876404494382	0.9162011173184357	0.875	0.8963970072527369	0.017076290085158343	39	Learner_1
0.5444746494293213	0.1572321361338709	0.006830692291259766	0.0009757530314646475	0.0005	0.05	hinge	elasticnet	{'alpha': 0.0005, 'l1_ratio': 0.05, 'loss': 'hinge', 'penalty': 'elasticnet'}	0.8914285714285715	0.9142857142857143	0.8977272727272727	0.9060773480662984	0.891304347826087	0.9001646508667888	0.008889648883654592	28	Learner_1
0.5655259132385254	0.14456165640090235	0.007091331481933594	0.0011261928595331116	0.0005	0.05	log	elasticnet	{'alpha': 0.0005, 'l1_ratio': 0.05, 'loss': 'log', 'penalty': 'elasticnet'}	0.8786127167630058	0.9132947976878613	0.9039548022598871	0.9162011173184357	0.8813559322033899	0.8986838732465159	0.01581913087972604	35	Learner_1
0.6741775035858154	0.14250705923235663	0.006859731674194336	0.0010725534079316194	0.0005	0.25	hinge	elasticnet	{'alpha': 0.0005, 'l1_ratio': 0.25, 'loss': 'hinge', 'penalty': 'elasticnet'}	0.8926553672316384	0.9132947976878613	0.9101123595505618	0.9120879120879121	0.8901098901098902	0.9036520653335727	0.010101475912194322	10	Learner_1
0.6048294544219971	0.14611434770628537	0.006932878494262695	0.0010976098226805932	0.0005	0.25	log	elasticnet	{'alpha': 0.0005, 'l1_ratio': 0.25, 'loss': 'log', 'penalty': 'elasticnet'}	0.8771929824561403	0.9132947976878613	0.9039548022598871	0.9162011173184357	0.88268156424581	0.8986650527936269	0.015912549480461006	36	Learner_1
0.6039896965026855	0.2024144771526287	0.006661844253540039	0.0014296370011009061	0.0005	0.3	hinge	elasticnet	{'alpha': 0.0005, 'l1_ratio': 0.3, 'loss': 'hinge', 'penalty': 'elasticnet'}	0.8850574712643678	0.9028571428571429	0.9111111111111112	0.9120879120879121	0.8901098901098902	0.9002447054860848	0.01094103933686113	27	Learner_1
0.584553337097168	0.1382606342343684	0.00680394172668457	0.000983039329866531	0.0005	0.3	log	elasticnet	{'alpha': 0.0005, 'l1_ratio': 0.3, 'loss': 'log', 'penalty': 'elasticnet'}	0.8786127167630058	0.9132947976878613	0.9039548022598871	0.9162011173184357	0.88268156424581	0.8989489996549999	0.01553505327604096	32	Learner_1
0.5657358646392823	0.09203447770958309	0.006976604461669922	0.0009749646847750892	0.0005	0.6	hinge	elasticnet	{'alpha': 0.0005, 'l1_ratio': 0.6, 'loss': 'hinge', 'penalty': 'elasticnet'}	0.88	0.9028571428571429	0.9111111111111112	0.9171270718232044	0.9050279329608939	0.9032246517504706	0.012635227421514543	11	Learner_1
0.6772869110107422	0.14352556724741544	0.007169675827026367	0.0013386415618052711	0.0005	0.6	log	elasticnet	{'alpha': 0.0005, 'l1_ratio': 0.6, 'loss': 'log', 'penalty': 'elasticnet'}	0.8837209302325582	0.9132947976878613	0.8977272727272727	0.9222222222222223	0.8938547486033519	0.9021639942946533	0.013821012741445355	15	Learner_1
0.6905360221862793	0.17975865163275254	0.0070591926574707035	0.0012988083442581305	0.0005	0.8	hinge	elasticnet	{'alpha': 0.0005, 'l1_ratio': 0.8, 'loss': 'hinge', 'penalty': 'elasticnet'}	0.8926553672316384	0.9080459770114943	0.9050279329608938	0.9281767955801106	0.9050279329608939	0.9077868011490062	0.011489143090610271	1	Learner_1
0.7410653591156006	0.18692562268504506	0.0067064762115478516	0.0011267073301511618	0.0005	0.8	log	elasticnet	{'alpha': 0.0005, 'l1_ratio': 0.8, 'loss': 'log', 'penalty': 'elasticnet'}	0.8863636363636364	0.9080459770114943	0.8926553672316384	0.9281767955801106	0.88268156424581	0.8995846680865378	0.016719026962944764	30	Learner_1
0.6487877845764161	0.0955981337944066	0.00711512565612793	0.0008568218019586419	0.0005	0.95	hinge	elasticnet	{'alpha': 0.0005, 'l1_ratio': 0.95, 'loss': 'hinge', 'penalty': 'elasticnet'}	0.8876404494382022	0.9142857142857143	0.9050279329608938	0.9230769230769231	0.9	0.9060062039523468	0.012118516259957256	3	Learner_1
0.9424973011016846	0.22776891129448276	0.006974220275878906	0.0009854648664423436	0.0005	0.95	log	elasticnet	{'alpha': 0.0005, 'l1_ratio': 0.95, 'loss': 'log', 'penalty': 'elasticnet'}	0.88	0.9080459770114943	0.8926553672316384	0.9281767955801106	0.88268156424581	0.8983119408138107	0.017879002677031727	37	Learner_1
0.5548982620239258	0.21142892656878484	0.006447315216064453	0.0009096206796616039	0.0005	1	hinge	elasticnet	{'alpha': 0.0005, 'l1_ratio': 1, 'loss': 'hinge', 'penalty': 'elasticnet'}	0.8813559322033899	0.9080459770114943	0.9050279329608938	0.9230769230769231	0.8961748633879781	0.9027363257281358	0.01376486669953542	13	Learner_1
0.8717396259307861	0.14127304393650736	0.005141019821166992	0.0009458387466504277	0.0005	1	log	elasticnet	{'alpha': 0.0005, 'l1_ratio': 1, 'loss': 'log', 'penalty': 'elasticnet'}	0.8685714285714287	0.9080459770114943	0.8863636363636362	0.9281767955801106	0.88268156424581	0.8947678803544961	0.020954369031514385	40	Learner_1
0.725620698928833	0.17938564943284083	0.005529975891113282	0.0009754150604660468	0.01	0	hinge	elasticnet	{'alpha': 0.01, 'l1_ratio': 0, 'loss': 'hinge', 'penalty': 'elasticnet'}	0.8098159509202454	0.9069767441860465	0.872093023255814	0.8850574712643677	0.8654970760233919	0.8678880531299731	0.032306291300275555	49	Learner_2
0.5957661151885987	0.1377000061632043	0.006084442138671875	0.0008973079655553401	0.01	0	log	elasticnet	{'alpha': 0.01, 'l1_ratio': 0, 'loss': 'log', 'penalty': 'elasticnet'}	0.8050314465408805	0.8862275449101796	0.8606060606060606	0.8705882352941177	0.8292682926829269	0.8503443160068331	0.02932637272234029	50	Learner_2
0.8814922332763672	0.17986382225741188	0.006568622589111328	0.0010587901191697851	0.01	0.05	hinge	elasticnet	{'alpha': 0.01, 'l1_ratio': 0.05, 'loss': 'hinge', 'penalty': 'elasticnet'}	0.8074534161490683	0.8862275449101796	0.8658536585365854	0.8571428571428572	0.834355828220859	0.8502066609919098	0.02709070789620952	51	Learner_2
0.6013172149658204	0.09840764487399635	0.006846714019775391	0.0012819450926826194	0.01	0.05	log	elasticnet	{'alpha': 0.01, 'l1_ratio': 0.05, 'loss': 'log', 'penalty': 'elasticnet'}	0.7599999999999999	0.8129032258064517	0.8205128205128206	0.8101265822784811	0.8157894736842105	0.8038664204563928	0.02220080247983232	52	Learner_2
0.5986288070678711	0.15351433813562504	0.00642862319946289	0.0007922906251543612	0.01	0.25	hinge	elasticnet	{'alpha': 0.01, 'l1_ratio': 0.25, 'loss': 'hinge', 'penalty': 'elasticnet'}	0.04347826086956522	0.0	0.06382978723404255	0.0	0.0	0.021461609620721557	0.027061402288218055	53	Learner_2
0.5419203281402588	0.11175292889712059	0.006752681732177734	0.0009860659400916594	0.01	0.25	log	elasticnet	{'alpha': 0.01, 'l1_ratio': 0.25, 'loss': 'log', 'penalty': 'elasticnet'}	0.0	0.0	0.0	0.0	0.0	0.0	0.0	54	Learner_2
0.8107993602752686	0.24315874694864936	0.006826162338256836	0.0009287231993550493	0.01	0.3	hinge	elasticnet	{'alpha': 0.01, 'l1_ratio': 0.3, 'loss': 'hinge', 'penalty': 'elasticnet'}	0.0	0.0	0.0	0.0	0.0	0.0	0.0	54	Learner_2
0.5433125019073486	0.11647465452186075	0.006663465499877929	0.0009638013730441867	0.01	0.3	log	elasticnet	{'alpha': 0.01, 'l1_ratio': 0.3, 'loss': 'log', 'penalty': 'elasticnet'}	0.0	0.0	0.0	0.0	0.0	0.0	0.0	54	Learner_2
1.2907395362854004	0.2231790562086685	0.006675195693969726	0.0009409266766598726	0.01	0.6	hinge	elasticnet	{'alpha': 0.01, 'l1_ratio': 0.6, 'loss': 'hinge', 'penalty': 'elasticnet'}	0.0	0.0	0.0	0.0	0.0	0.0	0.0	54	Learner_2
0.5022326469421386	0.08155318963535416	0.006244230270385742	0.0010093911409810297	0.01	0.6	log	elasticnet	{'alpha': 0.01, 'l1_ratio': 0.6, 'loss': 'log', 'penalty': 'elasticnet'}	0.0	0.0	0.0	0.0	0.0	0.0	0.0	54	Learner_2
1.1598876476287843	0.2195385405765059	0.006856155395507812	0.0007429620465376539	0.01	0.8	hinge	elasticnet	{'alpha': 0.01, 'l1_ratio': 0.8, 'loss': 'hinge', 'penalty': 'elasticnet'}	0.0	0.0	0.0	0.0	0.0	0.0	0.0	54	Learner_2
0.5704774856567383	0.0978438371252863	0.006541776657104492	0.0007957461782063421	0.01	0.8	log	elasticnet	{'alpha': 0.01, 'l1_ratio': 0.8, 'loss': 'log', 'penalty': 'elasticnet'}	0.0	0.0	0.0	0.0	0.0	0.0	0.0	54	Learner_2
1.1361964702606202	0.21843585295908688	0.006712675094604492	0.0010000800651722127	0.01	0.95	hinge	elasticnet	{'alpha': 0.01, 'l1_ratio': 0.95, 'loss': 'hinge', 'penalty': 'elasticnet'}	0.0	0.0	0.0	0.0	0.0	0.0	0.0	54	Learner_2
0.548588228225708	0.11566798489573057	0.006770944595336914	0.0012632297295780636	0.01	0.95	log	elasticnet	{'alpha': 0.01, 'l1_ratio': 0.95, 'loss': 'log', 'penalty': 'elasticnet'}	0.0	0.0	0.0	0.0	0.0	0.0	0.0	54	Learner_2
1.1458096981048584	0.2446051603043795	0.006771087646484375	0.0011738045321213345	0.01	1	hinge	elasticnet	{'alpha': 0.01, 'l1_ratio': 1, 'loss': 'hinge', 'penalty': 'elasticnet'}	0.0	0.0	0.0	0.0	0.0	0.0	0.0	54	Learner_2
0.5215728282928467	0.10503392569617212	0.0068242549896240234	0.0011715361377945034	0.01	1	log	elasticnet	{'alpha': 0.01, 'l1_ratio': 1, 'loss': 'log', 'penalty': 'elasticnet'}	0.0	0.0	0.0	0.0	0.0	0.0	0.0	54	Learner_2
1.791567325592041	0.09025098688283445	0.006823968887329101	0.0006696146199419064	0.001	0	hinge	elasticnet	{'alpha': 0.001, 'l1_ratio': 0, 'loss': 'hinge', 'penalty': 'elasticnet'}	0.8813559322033899	0.9257142857142857	0.9213483146067416	0.9171270718232044	0.8901098901098902	0.9071310988915023	0.01789672761273774	1	Learner_2
0.797006368637085	0.1546297720378219	0.005615949630737305	0.0005539092600061538	0.001	0	log	elasticnet	{'alpha': 0.001, 'l1_ratio': 0, 'loss': 'log', 'penalty': 'elasticnet'}	0.8654970760233919	0.9195402298850575	0.8977272727272727	0.9340659340659341	0.8988764044943819	0.9031413834392076	0.023194165288868945	13	Learner_2
1.5137382984161376	0.23436532889080952	0.006409406661987305	0.0008819392316339197	0.001	0.05	hinge	elasticnet	{'alpha': 0.001, 'l1_ratio': 0.05, 'loss': 'hinge', 'penalty': 'elasticnet'}	0.8670520231213873	0.9257142857142857	0.9090909090909091	0.9222222222222223	0.8888888888888888	0.9025936658075387	0.021968553604186147	14	Learner_2
0.9922990322113037	0.23824205208112853	0.006830072402954102	0.0007779828555397587	0.001	0.05	log	elasticnet	{'alpha': 0.001, 'l1_ratio': 0.05, 'loss': 'log', 'penalty': 'elasticnet'}	0.8654970760233919	0.9213483146067416	0.8977272727272727	0.9171270718232044	0.8926553672316384	0.8988710204824499	0.019961336802550418	26	Learner_2
1.1546805858612061	0.07364603097939845	0.006863975524902343	0.0012468582209722108	0.001	0.25	hinge	elasticnet	{'alpha': 0.001, 'l1_ratio': 0.25, 'loss': 'hinge', 'penalty': 'elasticnet'}	0.8837209302325582	0.9204545454545455	0.898876404494382	0.9281767955801106	0.8926553672316384	0.904776808598647	0.016843069475784074	5	Learner_2
0.6791450023651123	0.14745210665469605	0.006491947174072266	0.0009914147410352828	0.001	0.25	log	elasticnet	{'alpha': 0.001, 'l1_ratio': 0.25, 'loss': 'log', 'penalty': 'elasticnet'}	0.8837209302325582	0.903954802259887	0.9039548022598871	0.9111111111111112	0.88268156424581	0.8970846420218507	0.011637675719098944	35	Learner_2
1.045030403137207	0.30129531040443286	0.006835842132568359	0.0011152124860689303	0.001	0.3	hinge	elasticnet	{'alpha': 0.001, 'l1_ratio': 0.3, 'loss': 'hinge', 'penalty': 'elasticnet'}	0.8837209302325582	0.9152542372881356	0.9039548022598871	0.9281767955801106	0.8988764044943819	0.9059966339710146	0.015024889415651232	2	Learner_2
0.8481833457946777	0.17504093725593553	0.006571435928344726	0.0008781005997507897	0.001	0.3	log	elasticnet	{'alpha': 0.001, 'l1_ratio': 0.3, 'loss': 'log', 'penalty': 'elasticnet'}	0.8837209302325582	0.903954802259887	0.9039548022598871	0.9111111111111112	0.88268156424581	0.8970846420218507	0.011637675719098944	35	Learner_2
0.7104678153991699	0.20716586707971754	0.006661701202392578	0.000815062113353947	0.001	0.6	hinge	elasticnet	{'alpha': 0.001, 'l1_ratio': 0.6, 'loss': 'hinge', 'penalty': 'elasticnet'}	0.8850574712643678	0.9101123595505618	0.8938547486033518	0.9111111111111112	0.8938547486033519	0.8987980878265489	0.010171539076374357	27	Learner_2
0.852855110168457	0.16615404771323244	0.007075166702270508	0.001430233837842068	0.001	0.6	log	elasticnet	{'alpha': 0.001, 'l1_ratio': 0.6, 'loss': 'log', 'penalty': 'elasticnet'}	0.8771929824561403	0.903954802259887	0.896551724137931	0.9050279329608938	0.8813559322033899	0.8928166748036486	0.011511487185092949	41	Learner_2
0.5555996894836426	0.11483422722304223	0.006018400192260742	0.0009285214425112368	0.001	0.8	hinge	elasticnet	{'alpha': 0.001, 'l1_ratio': 0.8, 'loss': 'hinge', 'penalty': 'elasticnet'}	0.8786127167630058	0.9101123595505618	0.8938547486033518	0.9180327868852459	0.8876404494382022	0.8976506122480735	0.014476060193029605	30	Learner_2
1.0651976108551025	0.12198068762815927	0.0074824333190917965	0.0008045756695619469	0.001	0.8	log	elasticnet	{'alpha': 0.001, 'l1_ratio': 0.8, 'loss': 'log', 'penalty': 'elasticnet'}	0.8520710059171598	0.8977272727272728	0.9028571428571429	0.9050279329608938	0.8685714285714287	0.8852509566067797	0.021146540308900712	46	Learner_2
0.5830501556396485	0.129795281152417	0.0061681270599365234	0.0008625545696165104	0.001	0.95	hinge	elasticnet	{'alpha': 0.001, 'l1_ratio': 0.95, 'loss': 'hinge', 'penalty': 'elasticnet'}	0.8786127167630058	0.9101123595505618	0.8938547486033518	0.9111111111111112	0.8813559322033899	0.8950093736462842	0.013740204596608395	39	Learner_2
1.0920490741729736	0.18116012149485872	0.007000541687011719	0.0015386170987903827	0.001	0.95	log	elasticnet	{'alpha': 0.001, 'l1_ratio': 0.95, 'loss': 'log', 'penalty': 'elasticnet'}	0.8705882352941177	0.8977272727272728	0.8977272727272727	0.8999999999999999	0.8685714285714287	0.8869228418640184	0.014199135601155714	45	Learner_2
0.7249750614166259	0.15995119418130394	0.006771373748779297	0.0008648424786851966	0.001	1	hinge	elasticnet	{'alpha': 0.001, 'l1_ratio': 1, 'loss': 'hinge', 'penalty': 'elasticnet'}	0.8786127167630058	0.9050279329608939	0.898876404494382	0.9171270718232044	0.88268156424581	0.8964651380574592	0.014246031183624403	38	Learner_2
1.224306344985962	0.1952177100226616	0.006717061996459961	0.0007245894291948857	0.001	1	log	elasticnet	{'alpha': 0.001, 'l1_ratio': 1, 'loss': 'log', 'penalty': 'elasticnet'}	0.8639053254437871	0.8977272727272728	0.9028571428571429	0.9050279329608938	0.8685714285714287	0.887617820512105	0.017678220800912442	44	Learner_2
1.2674973964691163	0.2626056023025312	0.006446743011474609	0.0009672134356487111	0.0001	0	hinge	elasticnet	{'alpha': 0.0001, 'l1_ratio': 0, 'loss': 'hinge', 'penalty': 'elasticnet'}	0.868131868131868	0.9101123595505618	0.9180327868852459	0.9050279329608938	0.8901098901098902	0.898282967527692	0.017614610005538427	28	Learner_2
1.1384201526641846	0.26668268766168574	0.0063995361328125	0.0008283976218275307	0.0001	0	log	elasticnet	{'alpha': 0.0001, 'l1_ratio': 0, 'loss': 'log', 'penalty': 'elasticnet'}	0.8813559322033899	0.9195402298850575	0.9273743016759776	0.9111111111111112	0.8791208791208792	0.903700490799283	0.019847924618173137	9	Learner_2
1.1651566982269288	0.1965146879154498	0.006240940093994141	0.0009432576949059919	0.0001	0.05	hinge	elasticnet	{'alpha': 0.0001, 'l1_ratio': 0.05, 'loss': 'hinge', 'penalty': 'elasticnet'}	0.8651685393258427	0.8977272727272728	0.9162011173184357	0.9111111111111112	0.89247311827957	0.8965362317524465	0.01789410199205472	37	Learner_2
1.0629501819610596	0.22626971812403804	0.006278038024902344	0.0008072692122547381	0.0001	0.05	log	elasticnet	{'alpha': 0.0001, 'l1_ratio': 0.05, 'loss': 'log', 'penalty': 'elasticnet'}	0.875	0.9195402298850575	0.9273743016759776	0.9050279329608938	0.883977900552486	0.9021840730148829	0.020071421883373835	16	Learner_2
1.3763826847076417	0.3525059791794148	0.0063015460968017575	0.0009152102740916672	0.0001	0.25	hinge	elasticnet	{'alpha': 0.0001, 'l1_ratio': 0.25, 'loss': 'hinge', 'penalty': 'elasticnet'}	0.8522727272727274	0.9050279329608939	0.9130434782608696	0.9050279329608938	0.8888888888888888	0.8928521920688548	0.021755854871112115	40	Learner_2
0.9482537746429444	0.2159594636073084	0.0059830665588378905	0.0007964438264853602	0.0001	0.25	log	elasticnet	{'alpha': 0.0001, 'l1_ratio': 0.25, 'loss': 'log', 'penalty': 'elasticnet'}	0.8813559322033899	0.9111111111111111	0.9222222222222223	0.9050279329608938	0.883977900552486	0.9007390198100206	0.01577429709235333	20	Learner_2
1.256587839126587	0.258169330080927	0.006418609619140625	0.0009940141338217348	0.0001	0.3	hinge	elasticnet	{'alpha': 0.0001, 'l1_ratio': 0.3, 'loss': 'hinge', 'penalty': 'elasticnet'}	0.8670520231213873	0.9101123595505618	0.9180327868852459	0.9171270718232044	0.875	0.8974648482760799	0.02190530537035656	34	Learner_2
1.2064305782318114	0.3443634642235428	0.006525659561157226	0.0009632219016531913	0.0001	0.3	log	elasticnet	{'alpha': 0.0001, 'l1_ratio': 0.3, 'loss': 'log', 'penalty': 'elasticnet'}	0.8813559322033899	0.9318181818181819	0.9162011173184357	0.9101123595505618	0.88268156424581	0.9044338310272758	0.019628387123474325	6	Learner_2
1.1015904903411866	0.1864157739182779	0.006084966659545899	0.0008937591445807591	0.0001	0.6	hinge	elasticnet	{'alpha': 0.0001, 'l1_ratio': 0.6, 'loss': 'hinge', 'penalty': 'elasticnet'}	0.8587570621468928	0.9152542372881356	0.8888888888888888	0.9050279329608938	0.8813559322033899	0.8898568106976402	0.01957339212230607	42	Learner_2
1.2490026473999023	0.26854982875101835	0.006936025619506836	0.0007893799637317969	0.0001	0.6	log	elasticnet	{'alpha': 0.0001, 'l1_ratio': 0.6, 'loss': 'log', 'penalty': 'elasticnet'}	0.875	0.9318181818181819	0.9101123595505618	0.9010989010989011	0.8977272727272728	0.9031513430389835	0.01841941675531195	12	Learner_2
1.0609851837158204	0.3172770342749733	0.0064564704895019535	0.0012530008760278323	0.0001	0.8	hinge	elasticnet	{'alpha': 0.0001, 'l1_ratio': 0.8, 'loss': 'hinge', 'penalty': 'elasticnet'}	0.853932584269663	0.9060773480662984	0.9039548022598871	0.8999999999999999	0.8439306358381503	0.8815790740867998	0.02691431757456057	48	Learner_2
1.243151807785034	0.17194778760938187	0.0065937995910644535	0.0010194626178978258	0.0001	0.8	log	elasticnet	{'alpha': 0.0001, 'l1_ratio': 0.8, 'loss': 'log', 'penalty': 'elasticnet'}	0.875	0.9213483146067416	0.9111111111111112	0.9010989010989011	0.8876404494382022	0.8992397552509912	0.016463799925865844	25	Learner_2
1.1286753177642823	0.2812476654259281	0.006895112991333008	0.0010454153475170105	0.0001	0.95	hinge	elasticnet	{'alpha': 0.0001, 'l1_ratio': 0.95, 'loss': 'hinge', 'penalty': 'elasticnet'}	0.8587570621468928	0.9	0.8926553672316384	0.8999999999999999	0.8700564971751412	0.8842937853107345	0.016841086754441802	47	Learner_2
1.4803819179534912	0.19914476589724533	0.0066757678985595705	0.0011285582807086818	0.0001	0.95	log	elasticnet	{'alpha': 0.0001, 'l1_ratio': 0.95, 'loss': 'log', 'penalty': 'elasticnet'}	0.8700564971751412	0.9265536723163842	0.9111111111111112	0.9060773480662984	0.88268156424581	0.8992960385829489	0.02029557702130766	24	Learner_2
0.9864248275756836	0.2358997138260417	0.006438064575195313	0.0007964387733646144	0.0001	1	hinge	elasticnet	{'alpha': 0.0001, 'l1_ratio': 1, 'loss': 'hinge', 'penalty': 'elasticnet'}	0.8700564971751412	0.8961748633879781	0.9050279329608938	0.9230769230769231	0.8505747126436781	0.888982185848923	0.025709793491963485	43	Learner_2
1.565791082382202	0.24769724194846363	0.0069333076477050785	0.0007914358740879577	0.0001	1	log	elasticnet	{'alpha': 0.0001, 'l1_ratio': 1, 'loss': 'log', 'penalty': 'elasticnet'}	0.88	0.9265536723163842	0.9111111111111112	0.9060773480662984	0.88268156424581	0.9012847391479207	0.017647458211931328	18	Learner_2
1.7167509555816651	0.32331277445803885	0.0061820030212402345	0.0010618585319006188	0.0005	0	hinge	elasticnet	{'alpha': 0.0005, 'l1_ratio': 0, 'loss': 'hinge', 'penalty': 'elasticnet'}	0.8813559322033899	0.9090909090909092	0.9273743016759776	0.9171270718232044	0.868131868131868	0.9006160165850698	0.02230074133381059	22	Learner_2
1.0575691699981689	0.16125352330857742	0.006589078903198242	0.0007219443011432695	0.0005	0	log	elasticnet	{'alpha': 0.0005, 'l1_ratio': 0, 'loss': 'log', 'penalty': 'elasticnet'}	0.8735632183908046	0.9213483146067416	0.9039548022598871	0.9213483146067416	0.8988764044943819	0.9038182108717112	0.01763186746445142	8	Learner_2
1.9167095184326173	0.2910003770432712	0.006424713134765625	0.000954219833754177	0.0005	0.05	hinge	elasticnet	{'alpha': 0.0005, 'l1_ratio': 0.05, 'loss': 'hinge', 'penalty': 'elasticnet'}	0.8764044943820225	0.9142857142857143	0.9392265193370165	0.9171270718232044	0.8777777777777779	0.9049643155211472	0.024345393585160673	3	Learner_2
0.8874946117401123	0.16459894189839044	0.006368827819824219	0.0009825033735762652	0.0005	0.05	log	elasticnet	{'alpha': 0.0005, 'l1_ratio': 0.05, 'loss': 'log', 'penalty': 'elasticnet'}	0.8654970760233919	0.9213483146067416	0.9101123595505618	0.9213483146067416	0.8988764044943819	0.9034364938563637	0.02071920687887636	11	Learner_2
1.3671162128448486	0.35810470184556015	0.006458282470703125	0.0009338874551492645	0.0005	0.25	hinge	elasticnet	{'alpha': 0.0005, 'l1_ratio': 0.25, 'loss': 'hinge', 'penalty': 'elasticnet'}	0.8786127167630058	0.9195402298850575	0.9213483146067416	0.9171270718232044	0.8876404494382022	0.9048537565032422	0.01801825365084934	4	Learner_2
0.7993804931640625	0.12952513571805985	0.006208038330078125	0.0008993417507295693	0.0005	0.25	log	elasticnet	{'alpha': 0.0005, 'l1_ratio': 0.25, 'loss': 'log', 'penalty': 'elasticnet'}	0.8901734104046242	0.9204545454545455	0.9039548022598871	0.9111111111111112	0.8926553672316384	0.9036698472923612	0.011319472413695953	10	Learner_2
1.2268508434295655	0.24349575588416938	0.006536865234375	0.0009717480533447458	0.0005	0.3	hinge	elasticnet	{'alpha': 0.0005, 'l1_ratio': 0.3, 'loss': 'hinge', 'penalty': 'elasticnet'}	0.8735632183908046	0.9132947976878613	0.9152542372881357	0.9171270718232044	0.883977900552486	0.9006434451484985	0.018200664681839507	21	Learner_2
0.8185053825378418	0.1256868256780087	0.006783819198608399	0.0011348530683547688	0.0005	0.3	log	elasticnet	{'alpha': 0.0005, 'l1_ratio': 0.3, 'loss': 'log', 'penalty': 'elasticnet'}	0.8837209302325582	0.9101123595505618	0.9039548022598871	0.9060773480662984	0.883977900552486	0.8975686681323582	0.011375353586239003	32	Learner_2
0.9817893028259277	0.25413785932257227	0.006896400451660156	0.0011648082861597648	0.0005	0.6	hinge	elasticnet	{'alpha': 0.0005, 'l1_ratio': 0.6, 'loss': 'hinge', 'penalty': 'elasticnet'}	0.8850574712643678	0.9204545454545455	0.9039548022598871	0.9111111111111112	0.8988764044943819	0.9038908669168586	0.011885563392975916	7	Learner_2
0.7799720764160156	0.157271363163031	0.006766796112060547	0.0009224458146159934	0.0005	0.6	log	elasticnet	{'alpha': 0.0005, 'l1_ratio': 0.6, 'loss': 'log', 'penalty': 'elasticnet'}	0.8901734104046242	0.9162011173184358	0.9090909090909091	0.9060773480662984	0.88268156424581	0.9008448698252154	0.012449707184701092	19	Learner_2
0.9591215133666993	0.1718002623313458	0.007065391540527344	0.0008934312651977494	0.0005	0.8	hinge	elasticnet	{'alpha': 0.0005, 'l1_ratio': 0.8, 'loss': 'hinge', 'penalty': 'elasticnet'}	0.8914285714285715	0.9152542372881356	0.9050279329608938	0.9171270718232044	0.88268156424581	0.902303875549323	0.01340273737959866	15	Learner_2
0.9948579788208007	0.20050302428433225	0.006953144073486328	0.0010250189710267039	0.0005	0.8	log	elasticnet	{'alpha': 0.0005, 'l1_ratio': 0.8, 'loss': 'log', 'penalty': 'elasticnet'}	0.8850574712643678	0.9050279329608939	0.9090909090909091	0.9060773480662984	0.88268156424581	0.8975870451256558	0.011304463926577404	31	Learner_2
0.7964706420898438	0.16010934267151156	0.006697988510131836	0.0015730131418130024	0.0005	0.95	hinge	elasticnet	{'alpha': 0.0005, 'l1_ratio': 0.95, 'loss': 'hinge', 'penalty': 'elasticnet'}	0.8786127167630058	0.9152542372881356	0.9039548022598871	0.9171270718232044	0.88268156424581	0.8995260784760086	0.016111423888481524	23	Learner_2
0.9668878555297852	0.19069562955803443	0.006841278076171875	0.0010155595650485328	0.0005	0.95	log	elasticnet	{'alpha': 0.0005, 'l1_ratio': 0.95, 'loss': 'log', 'penalty': 'elasticnet'}	0.8850574712643678	0.9222222222222223	0.9039548022598871	0.9010989010989011	0.8764044943820225	0.8977475782454801	0.015908081195517162	29	Learner_2
0.8043298721313477	0.21826850050213603	0.006983232498168945	0.001072312843243075	0.0005	1	hinge	elasticnet	{'alpha': 0.0005, 'l1_ratio': 1, 'loss': 'hinge', 'penalty': 'elasticnet'}	0.8850574712643678	0.9152542372881356	0.9039548022598871	0.9222222222222223	0.88268156424581	0.9018340594560845	0.015802201670630057	17	Learner_2
0.8764486312866211	0.1723085781543911	0.004826498031616211	0.000636524141045203	0.0005	1	log	elasticnet	{'alpha': 0.0005, 'l1_ratio': 1, 'loss': 'log', 'penalty': 'elasticnet'}	0.8786127167630058	0.9111111111111111	0.9039548022598871	0.9111111111111112	0.88268156424581	0.8974942610981851	0.014060615243813475	33	Learner_2
