document_graph	neural_features_dbow	neural_features_dm	topic_features	word_features	keyword_features	relational_features_char	relational_features_token	char_features
dim_157 : 0.57	213_0 : 1.03	393_1 : 0.96	topic_5 : 0.49	vaccine : 0.27	etiology : 0.08	 --2--e : 0.51	severe--1--syndrome : 0.36	at : 0.41
dim_134 : 0.46	211_0 : 0.94	233_1 : 0.94	topic_15 : 0.24	trials : 0.25	cavity : 0.07	r--3--n : 0.51	acute--2--2 : 0.35	an : 0.39
dim_189 : 0.45	83_0 : 0.87	471_1 : 0.93	topic_11 : 0.17	mortality : 0.24	challenged : 0.07	h--6--1 : 0.5	covid19--5--spread : 0.34	em : 0.36
dim_358 : 0.43	344_0 : 0.87	255_1 : 0.92	topic_1 : 0.16	clinical : 0.22	fulfill : 0.07	m--5--u : 0.49	covid19--5--coronavirus : 0.31	sur : 0.35
dim_78 : 0.41	115_0 : 0.86	364_1 : 0.91	topic_3 : 0.16	pandemic : 0.22	morbidities : 0.07	m--5--g : 0.47	95--5--patients : 0.31	va : 0.33
dim_181 : 0.4	112_0 : 0.84	379_1 : 0.85	topic_18 : 0.16	hydroxychloroquine : 0.2	raising : 0.07	n--5--f : 0.47	95--5--covid19 : 0.29	er : 0.32
dim_183 : 0.4	241_0 : 0.82	158_1 : 0.84	topic_8 : 0.13	measures : 0.2	akiko : 0.06	p--6--y : 0.47	pandemic--5--patients : 0.28	ont : 0.32
dim_225 : 0.4	332_0 : 0.81	260_1 : 0.81	topic_10 : 0.13	patients : 0.2	alizon : 0.06	b--6--2 : 0.47	2019--4--methods : 0.28	re : 0.32
dim_265 : 0.38	307_0 : 0.79	402_1 : 0.79	topic_0 : 0.1	severe : 0.2	interview : 0.06	r--4--n : 0.46	patients--3--risk : 0.27	 vac : 0.29
dim_433 : 0.38	360_0 : 0.79	60_1 : 0.78	topic_19 : 0.08	ct : 0.2	iwasaki : 0.06	t--5--y : 0.45	severe--2--2 : 0.25	ccin : 0.29
dim_56 : 0.37	458_0 : 0.79	491_1 : 0.78	topic_9 : 0.07	health : 0.19	krause : 0.06	n--6--y : 0.45	acute--5--may : 0.25	vacc : 0.29
dim_267 : 0.37	210_0 : 0.77	441_1 : 0.74	topic_4 : 0.05	sarscov2 : 0.19	preparing : 0.06	h--5--c : 0.44	pandemic--5--sarscov2 : 0.25	acci : 0.28
dim_280 : 0.37	455_0 : 0.77	204_1 : 0.73	topic_13 : 0.05	prevention : 0.18	samuel : 0.06	p--2--i : 0.43	disease--4--management : 0.25	cci : 0.28
dim_362 : 0.37	73_0 : 0.75	21_1 : 0.71	topic_6 : 0.04	treatment : 0.17	unrolling : 0.06	c--4--t : 0.42	pandemic--5--may : 0.24	cont : 0.28
dim_171 : 0.36	125_0 : 0.75	89_1 : 0.71	topic_14 : 0.04	case : 0.17	5fold : 0.05	e--2--r : 0.42	acute--3--disease : 0.24	demi : 0.28
dim_186 : 0.36	471_0 : 0.73	439_1 : 0.71	topic_2 : 0.03	detection : 0.16	acidbased : 0.05	m--3--t : 0.41	covid19--4--number : 0.24	emic : 0.28
dim_291 : 0.35	495_0 : 0.71	313_1 : 0.7	topic_7 : 0.03	syndrome : 0.16	adage : 0.05	b--6--y : 0.4	clinical--5--2 : 0.24	ng : 0.28
dim_302 : 0.35	270_0 : 0.7	437_1 : 0.7	topic_12 : 0.02	covid19 patients : 0.16	anesthesiology : 0.05	h--5--l : 0.4	covid19--5--model : 0.24	on : 0.28
dim_366 : 0.35	405_0 : 0.7	458_1 : 0.7	topic_17 : 0.02	associated : 0.15	appendicitis : 0.05	c--2--r : 0.4	viral--5--covid19 : 0.24	vac : 0.28
dim_135 : 0.33	408_0 : 0.7	57_1 : 0.68	topic_20 : 0.02	covid19 : 0.15	australian : 0.05	i--4--t : 0.4	patients--5--world : 0.24	 dia : 0.26
dim_154 : 0.33	5_0 : 0.69	203_1 : 0.68	topic_21 : 0.02	diagnosis : 0.15	cardiology : 0.05	p--6--v : 0.4	data--5--health : 0.24	emi : 0.26
dim_239 : 0.33	159_0 : 0.69	326_1 : 0.67	topic_16 : 0.01	management : 0.15	continent : 0.05	a--6--y : 0.39	analysis--5--spread : 0.24	ers : 0.26
dim_249 : 0.33	175_0 : 0.69	186_1 : 0.66	x	pulmonary : 0.15	derided : 0.05	c--5--t : 0.39	results--5--disease : 0.23	ndem : 0.26
dim_373 : 0.33	208_0 : 0.67	112_1 : 0.65	x	respiratory : 0.15	engaging : 0.05	i--5--g : 0.38	covid19--5--2020 : 0.23	 sur : 0.25
dim_113 : 0.32	28_0 : 0.66	131_1 : 0.65	x	trial : 0.15	familiar : 0.05	m--5--o : 0.38	covid19--5--syndrome : 0.23	ande : 0.25
