mean_fit_time	std_fit_time	mean_score_time	std_score_time	param_alpha	param_l1_ratio	param_loss	param_penalty	params	split0_test_score	split1_test_score	split2_test_score	split3_test_score	split4_test_score	mean_test_score	std_test_score	rank_test_score	learner ID
6.937346076965332	0.13194757730402182	0.0586331844329834	0.005704366030865126	0.01	0	hinge	elasticnet	{'alpha': 0.01, 'l1_ratio': 0, 'loss': 'hinge', 'penalty': 'elasticnet'}	0.0	0.0	0.0	0.0	0.0	0.0	0.0	29	Learner_0
7.8675495147705075	0.25984091464201664	0.055658912658691405	0.004763185741510169	0.01	0	log	elasticnet	{'alpha': 0.01, 'l1_ratio': 0, 'loss': 'log', 'penalty': 'elasticnet'}	0.0	0.0	0.0	0.0	0.0	0.0	0.0	29	Learner_0
8.207565927505494	0.09014178256465433	0.07113914489746094	0.015344713133574625	0.01	0.05	hinge	elasticnet	{'alpha': 0.01, 'l1_ratio': 0.05, 'loss': 'hinge', 'penalty': 'elasticnet'}	0.0	0.0	0.0	0.0	0.0	0.0	0.0	29	Learner_0
10.467295789718628	0.2546370052210359	0.08844480514526368	0.026139766521426154	0.01	0.05	log	elasticnet	{'alpha': 0.01, 'l1_ratio': 0.05, 'loss': 'log', 'penalty': 'elasticnet'}	0.0	0.0	0.0	0.0	0.0	0.0	0.0	29	Learner_0
5.924283027648926	0.29093670541748134	0.07782497406005859	0.03313647599199319	0.01	0.25	hinge	elasticnet	{'alpha': 0.01, 'l1_ratio': 0.25, 'loss': 'hinge', 'penalty': 'elasticnet'}	0.0	0.0	0.0	0.0	0.0	0.0	0.0	29	Learner_0
9.956420850753783	0.3037200811042573	0.06783881187438964	0.023205414323861657	0.01	0.25	log	elasticnet	{'alpha': 0.01, 'l1_ratio': 0.25, 'loss': 'log', 'penalty': 'elasticnet'}	0.0	0.0	0.0	0.0	0.0	0.0	0.0	29	Learner_0
5.575151157379151	0.42431912552517614	0.07049150466918945	0.023384581447406187	0.01	0.3	hinge	elasticnet	{'alpha': 0.01, 'l1_ratio': 0.3, 'loss': 'hinge', 'penalty': 'elasticnet'}	0.0	0.0	0.0	0.0	0.0	0.0	0.0	29	Learner_0
8.829838275909424	0.11053997433628852	0.05417976379394531	0.0030674479880124163	0.01	0.3	log	elasticnet	{'alpha': 0.01, 'l1_ratio': 0.3, 'loss': 'log', 'penalty': 'elasticnet'}	0.0	0.0	0.0	0.0	0.0	0.0	0.0	29	Learner_0
5.623881864547729	0.10798055644650278	0.05461878776550293	0.006485463015060759	0.01	0.6	hinge	elasticnet	{'alpha': 0.01, 'l1_ratio': 0.6, 'loss': 'hinge', 'penalty': 'elasticnet'}	0.0	0.0	0.0	0.0	0.0	0.0	0.0	29	Learner_0
8.532697820663453	0.48334810308471776	0.057257223129272464	0.007355254312891683	0.01	0.6	log	elasticnet	{'alpha': 0.01, 'l1_ratio': 0.6, 'loss': 'log', 'penalty': 'elasticnet'}	0.0	0.0	0.0	0.0	0.0	0.0	0.0	29	Learner_0
5.278230857849121	0.3127435247319561	0.053742504119873045	0.007253220622692583	0.01	0.8	hinge	elasticnet	{'alpha': 0.01, 'l1_ratio': 0.8, 'loss': 'hinge', 'penalty': 'elasticnet'}	0.0	0.0	0.0	0.0	0.0	0.0	0.0	29	Learner_0
8.475568103790284	0.4572646422352047	0.051505327224731445	0.0015933460663326811	0.01	0.8	log	elasticnet	{'alpha': 0.01, 'l1_ratio': 0.8, 'loss': 'log', 'penalty': 'elasticnet'}	0.0	0.0	0.0	0.0	0.0	0.0	0.0	29	Learner_0
5.3452166557312015	0.09442780030272484	0.062212800979614256	0.012418471014028522	0.01	0.95	hinge	elasticnet	{'alpha': 0.01, 'l1_ratio': 0.95, 'loss': 'hinge', 'penalty': 'elasticnet'}	0.0	0.0	0.0	0.0	0.0	0.0	0.0	29	Learner_0
8.481049633026123	0.3752465695595721	0.04992375373840332	0.0014751318569089231	0.01	0.95	log	elasticnet	{'alpha': 0.01, 'l1_ratio': 0.95, 'loss': 'log', 'penalty': 'elasticnet'}	0.0	0.0	0.0	0.0	0.0	0.0	0.0	29	Learner_0
5.488457727432251	0.10979619481449389	0.05480480194091797	0.003263160377993848	0.01	1	hinge	elasticnet	{'alpha': 0.01, 'l1_ratio': 1, 'loss': 'hinge', 'penalty': 'elasticnet'}	0.0	0.0	0.0	0.0	0.0	0.0	0.0	29	Learner_0
8.599974775314331	0.45809975867855574	0.05496048927307129	0.006122696870378428	0.01	1	log	elasticnet	{'alpha': 0.01, 'l1_ratio': 1, 'loss': 'log', 'penalty': 'elasticnet'}	0.0	0.0	0.0	0.0	0.0	0.0	0.0	29	Learner_0
9.243778657913207	0.5304519822456165	0.05906357765197754	0.007548372936078691	0.001	0	hinge	elasticnet	{'alpha': 0.001, 'l1_ratio': 0, 'loss': 'hinge', 'penalty': 'elasticnet'}	0.27999999999999997	0.23562810503903472	0.26880222841225626	0.3122476446837147	0.26944444444444443	0.27322448451589	0.02456032345599169	21	Learner_0
8.117966604232787	0.47497559923749466	0.05474057197570801	0.0036230928532251594	0.001	0	log	elasticnet	{'alpha': 0.001, 'l1_ratio': 0, 'loss': 'log', 'penalty': 'elasticnet'}	0.2322946175637394	0.2732919254658385	0.251924422673198	0.24475524475524477	0.27191166321601107	0.25483557473480634	0.015813995631309207	22	Learner_0
7.682112741470337	0.30310236861101997	0.055753326416015624	0.0063095034476896746	0.001	0.05	hinge	elasticnet	{'alpha': 0.001, 'l1_ratio': 0.05, 'loss': 'hinge', 'penalty': 'elasticnet'}	0.0048348106365834	0.0032258064516129032	0.0032232070910556	0.012830793905372893	0.008038585209003215	0.006430640658725603	0.0036511015626247297	27	Learner_0
8.50063533782959	0.4080942264103935	0.05701398849487305	0.01888632911929406	0.001	0.05	log	elasticnet	{'alpha': 0.001, 'l1_ratio': 0.05, 'loss': 'log', 'penalty': 'elasticnet'}	0.05647058823529411	0.06108065779169931	0.0655226209048362	0.08043310131477184	0.0579937304075235	0.06430013973082499	0.008639498235667011	23	Learner_0
4.975642538070678	0.3081794011479439	0.05832881927490234	0.006066122717437663	0.001	0.25	hinge	elasticnet	{'alpha': 0.001, 'l1_ratio': 0.25, 'loss': 'hinge', 'penalty': 'elasticnet'}	0.0	0.0	0.0	0.0	0.0	0.0	0.0	29	Learner_0
7.274035453796387	0.6383218673798253	0.05079593658447266	0.005911999138575996	0.001	0.25	log	elasticnet	{'alpha': 0.001, 'l1_ratio': 0.25, 'loss': 'log', 'penalty': 'elasticnet'}	0.0	0.0	0.0	0.0	0.0	0.0	0.0	29	Learner_0
4.5776103973388675	0.06679016945783034	0.060770702362060544	0.007954376203848198	0.001	0.3	hinge	elasticnet	{'alpha': 0.001, 'l1_ratio': 0.3, 'loss': 'hinge', 'penalty': 'elasticnet'}	0.0	0.0	0.0	0.0	0.0	0.0	0.0	29	Learner_0
6.9615977764129635	0.3793530720798243	0.06454424858093262	0.01548659025671462	0.001	0.3	log	elasticnet	{'alpha': 0.001, 'l1_ratio': 0.3, 'loss': 'log', 'penalty': 'elasticnet'}	0.0	0.0	0.0	0.0	0.0	0.0	0.0	29	Learner_0
4.8743620872497555	0.23463387921632275	0.0532501220703125	0.005418770148773517	0.001	0.6	hinge	elasticnet	{'alpha': 0.001, 'l1_ratio': 0.6, 'loss': 'hinge', 'penalty': 'elasticnet'}	0.0	0.0	0.0	0.0	0.0	0.0	0.0	29	Learner_0
6.073732137680054	0.03803984339037327	0.06977791786193847	0.018236572694907787	0.001	0.6	log	elasticnet	{'alpha': 0.001, 'l1_ratio': 0.6, 'loss': 'log', 'penalty': 'elasticnet'}	0.0	0.0	0.0	0.0	0.0	0.0	0.0	29	Learner_0
4.797888994216919	0.27550541009141427	0.05269293785095215	0.01025918525771793	0.001	0.8	hinge	elasticnet	{'alpha': 0.001, 'l1_ratio': 0.8, 'loss': 'hinge', 'penalty': 'elasticnet'}	0.0	0.0	0.0	0.0	0.0	0.0	0.0	29	Learner_0
6.534802579879761	0.2683827638092183	0.051236963272094725	0.004327833214973645	0.001	0.8	log	elasticnet	{'alpha': 0.001, 'l1_ratio': 0.8, 'loss': 'log', 'penalty': 'elasticnet'}	0.0	0.0	0.0	0.0	0.0	0.0	0.0	29	Learner_0
5.32652530670166	0.06045104036434536	0.05703277587890625	0.0019113902092464349	0.001	0.95	hinge	elasticnet	{'alpha': 0.001, 'l1_ratio': 0.95, 'loss': 'hinge', 'penalty': 'elasticnet'}	0.0	0.0	0.0	0.0	0.0	0.0	0.0	29	Learner_0
6.957899045944214	0.022223240092861637	0.05957064628601074	0.006564859027110063	0.001	0.95	log	elasticnet	{'alpha': 0.001, 'l1_ratio': 0.95, 'loss': 'log', 'penalty': 'elasticnet'}	0.0	0.0	0.0	0.0	0.0	0.0	0.0	29	Learner_0
5.646590662002564	0.2713803455659198	0.05538935661315918	0.006745586704181843	0.001	1	hinge	elasticnet	{'alpha': 0.001, 'l1_ratio': 1, 'loss': 'hinge', 'penalty': 'elasticnet'}	0.0	0.0	0.0	0.0	0.0	0.0	0.0	29	Learner_0
7.326071500778198	0.12876059306188675	0.06947426795959473	0.021553735729384328	0.001	1	log	elasticnet	{'alpha': 0.001, 'l1_ratio': 1, 'loss': 'log', 'penalty': 'elasticnet'}	0.0	0.0	0.0	0.0	0.0	0.0	0.0	29	Learner_0
17.206395959854127	1.1416858003763504	0.05700101852416992	0.0048835577377447864	0.0001	0	hinge	elasticnet	{'alpha': 0.0001, 'l1_ratio': 0, 'loss': 'hinge', 'penalty': 'elasticnet'}	0.7617278216442173	0.7734194739270881	0.7421619092185306	0.7423340961098398	0.7494167055529631	0.7538120012905278	0.012115269475408912	1	Learner_0
11.753478574752808	0.5464732817165538	0.056885385513305665	0.006717287089026297	0.0001	0	log	elasticnet	{'alpha': 0.0001, 'l1_ratio': 0, 'loss': 'log', 'penalty': 'elasticnet'}	0.6935323383084578	0.7166504381694255	0.6824224519940916	0.7011764705882354	0.6869695456814779	0.6961502489483375	0.012042523322653906	9	Learner_0
18.193074178695678	0.9478490153399387	0.05317087173461914	0.0060446520364213965	0.0001	0.05	hinge	elasticnet	{'alpha': 0.0001, 'l1_ratio': 0.05, 'loss': 'hinge', 'penalty': 'elasticnet'}	0.7530631479736098	0.7765567765567766	0.7430426716141002	0.7234848484848484	0.7553093259464451	0.7502913541151559	0.017285065464955486	2	Learner_0
11.314832925796509	0.7294503543655393	0.05088996887207031	0.0014552263235022163	0.0001	0.05	log	elasticnet	{'alpha': 0.0001, 'l1_ratio': 0.05, 'loss': 'log', 'penalty': 'elasticnet'}	0.6851945426983325	0.7276227141482194	0.6743256743256744	0.639344262295082	0.6958661417322834	0.6844706670399183	0.028746454708144676	11	Learner_0
12.238834667205811	0.6589047564840737	0.0558356761932373	0.007136975759711502	0.0001	0.25	hinge	elasticnet	{'alpha': 0.0001, 'l1_ratio': 0.25, 'loss': 'hinge', 'penalty': 'elasticnet'}	0.7441860465116279	0.7663725034835114	0.7350993377483444	0.7187499999999999	0.7356870229007635	0.7400189821288494	0.015538409736794816	5	Learner_0
9.687845373153687	0.1151050320655048	0.05826964378356934	0.004271746246238638	0.0001	0.25	log	elasticnet	{'alpha': 0.0001, 'l1_ratio': 0.25, 'loss': 'log', 'penalty': 'elasticnet'}	0.6687179487179488	0.6927710843373495	0.6659888154550077	0.6213796735123749	0.680161943319838	0.6658038930685037	0.024147133211785552	15	Learner_0
10.968176746368409	0.7300111750181361	0.050493288040161136	0.0015997083717696704	0.0001	0.3	hinge	elasticnet	{'alpha': 0.0001, 'l1_ratio': 0.3, 'loss': 'hinge', 'penalty': 'elasticnet'}	0.743988684582744	0.7761467889908258	0.7389255419415646	0.7098943323727186	0.7442515251055841	0.7426413745986874	0.02103899621808054	3	Learner_0
9.74513611793518	0.5167099425854246	0.05785079002380371	0.008533310119045881	0.0001	0.3	log	elasticnet	{'alpha': 0.0001, 'l1_ratio': 0.3, 'loss': 'log', 'penalty': 'elasticnet'}	0.6663249615581752	0.7172749391727494	0.6763965777554103	0.6220347917764892	0.6707629288274449	0.6705588398180538	0.03029529250205826	13	Learner_0
7.444488906860352	0.30092308629986836	0.054241180419921875	0.0036727860774222066	0.0001	0.6	hinge	elasticnet	{'alpha': 0.0001, 'l1_ratio': 0.6, 'loss': 'hinge', 'penalty': 'elasticnet'}	0.7345385347288297	0.7683772538141471	0.7298713673177705	0.7108778625954199	0.7381974248927039	0.7363724886697742	0.01856469395775951	8	Learner_0
9.15438928604126	0.4380012585991187	0.052403593063354494	0.0032509765626656186	0.0001	0.6	log	elasticnet	{'alpha': 0.0001, 'l1_ratio': 0.6, 'loss': 'log', 'penalty': 'elasticnet'}	0.6492420282279142	0.6888552697932426	0.6629156010230179	0.6272869837950862	0.67687595712098	0.6610351679920482	0.021477629175160575	16	Learner_0
6.31180853843689	0.45304752975555096	0.057430362701416014	0.005495727454633508	0.0001	0.8	hinge	elasticnet	{'alpha': 0.0001, 'l1_ratio': 0.8, 'loss': 'hinge', 'penalty': 'elasticnet'}	0.7425602267359471	0.7700091996320146	0.7318224740321058	0.7045235803657361	0.736237434179033	0.7370305829889674	0.020988686567508654	7	Learner_0
8.942718076705933	0.6364431909057995	0.05082173347473144	0.004453266745795606	0.0001	0.8	log	elasticnet	{'alpha': 0.0001, 'l1_ratio': 0.8, 'loss': 'log', 'penalty': 'elasticnet'}	0.6673490276356193	0.6985550572994519	0.6642820643842616	0.6354654186167447	0.6748091603053435	0.6680921456482842	0.0202616856780466	14	Learner_0
6.3021636486053465	0.2546063449979198	0.054152393341064455	0.007417426514545854	0.0001	0.95	hinge	elasticnet	{'alpha': 0.0001, 'l1_ratio': 0.95, 'loss': 'hinge', 'penalty': 'elasticnet'}	0.7374940447832301	0.7734303912647863	0.7309160305343512	0.7194379391100704	0.7419505366308913	0.7406457884646659	0.01806049335096991	4	Learner_0
10.42343716621399	0.5180367246384663	0.05274505615234375	0.0033127264496499204	0.0001	0.95	log	elasticnet	{'alpha': 0.0001, 'l1_ratio': 0.95, 'loss': 'log', 'penalty': 'elasticnet'}	0.6804853387259858	0.7192982456140351	0.6730575176589304	0.6485655737704918	0.6834170854271355	0.6809647522393157	0.022750523571357397	12	Learner_0
6.065149259567261	0.3595940678946128	0.050031614303588864	0.0023772522692453997	0.0001	1	hinge	elasticnet	{'alpha': 0.0001, 'l1_ratio': 1, 'loss': 'hinge', 'penalty': 'elasticnet'}	0.7214217098943323	0.7683095347766006	0.7407063197026023	0.710563713879678	0.7455731593662628	0.7373148875238951	0.02004289106328101	6	Learner_0
10.896963596343994	0.5221939476725334	0.05237092971801758	0.002538646129745141	0.0001	1	log	elasticnet	{'alpha': 0.0001, 'l1_ratio': 1, 'loss': 'log', 'penalty': 'elasticnet'}	0.6944444444444445	0.7255092143549952	0.6773226773226773	0.64977192093259	0.6911984087518647	0.6876493331613143	0.024631192650180652	10	Learner_0
11.794027328491211	0.8120089545675592	0.05033884048461914	0.0015232782150354622	0.0005	0	hinge	elasticnet	{'alpha': 0.0005, 'l1_ratio': 0, 'loss': 'hinge', 'penalty': 'elasticnet'}	0.607471575527883	0.637270341207349	0.5846994535519126	0.5793478260869565	0.6223404255319149	0.6062259243812032	0.021958168067807902	17	Learner_0
8.36541018486023	0.6015722030349085	0.05079331398010254	0.005194655697295763	0.0005	0	log	elasticnet	{'alpha': 0.0005, 'l1_ratio': 0, 'loss': 'log', 'penalty': 'elasticnet'}	0.5052754982415005	0.47885646217986894	0.44606946983546614	0.4861683343143025	0.49588719153936545	0.4824513912221007	0.020257561432467798	19	Learner_0
10.401704454421997	0.713175496490251	0.05405879020690918	0.012833695359203699	0.0005	0.05	hinge	elasticnet	{'alpha': 0.0005, 'l1_ratio': 0.05, 'loss': 'hinge', 'penalty': 'elasticnet'}	0.5389908256880734	0.5464917284654878	0.5385054192812322	0.5278255880665519	0.5473204104903079	0.5398267943983306	0.007029216991330321	18	Learner_0
8.15472240447998	0.09400349278810187	0.04926314353942871	0.001298344518755345	0.0005	0.05	log	elasticnet	{'alpha': 0.0005, 'l1_ratio': 0.05, 'loss': 'log', 'penalty': 'elasticnet'}	0.3568627450980392	0.40782828282828276	0.4032663316582914	0.3916083916083916	0.3738680465717982	0.3866867595529606	0.01897292766225961	20	Learner_0
5.5456263542175295	0.06962631369779505	0.048913764953613284	0.0024190465787003556	0.0005	0.25	hinge	elasticnet	{'alpha': 0.0005, 'l1_ratio': 0.25, 'loss': 'hinge', 'penalty': 'elasticnet'}	0.020783373301358914	0.0048348106365834	0.0032232070910556	0.03645007923930269	0.02392344497607656	0.01784298304887543	0.012448231515276515	26	Learner_0
7.211736345291138	0.09395891845545369	0.05599322319030762	0.004152200361597438	0.0005	0.25	log	elasticnet	{'alpha': 0.0005, 'l1_ratio': 0.25, 'loss': 'log', 'penalty': 'elasticnet'}	0.05192761605035405	0.057993730407523515	0.06401249024199843	0.06858924395947	0.07309486780715398	0.0631235896933	0.0075067328455461855	24	Learner_0
5.1481239795684814	0.2514693161956545	0.047285270690917966	0.006443673423144417	0.0005	0.3	hinge	elasticnet	{'alpha': 0.0005, 'l1_ratio': 0.3, 'loss': 'hinge', 'penalty': 'elasticnet'}	0.0	0.0	0.0	0.0	0.0016129032258064516	0.0003225806451612903	0.0006451612903225806	28	Learner_0
7.236159086227417	0.3991523950017973	0.04867196083068848	0.002841656228913111	0.0005	0.3	log	elasticnet	{'alpha': 0.0005, 'l1_ratio': 0.3, 'loss': 'log', 'penalty': 'elasticnet'}	0.016025641025641024	0.019200000000000002	0.0176	0.03177124702144559	0.027070063694267517	0.022333390348270827	0.0060583831795445525	25	Learner_0
4.157588958740234	0.16341325639304993	0.047976350784301756	0.002348422116313321	0.0005	0.6	hinge	elasticnet	{'alpha': 0.0005, 'l1_ratio': 0.6, 'loss': 'hinge', 'penalty': 'elasticnet'}	0.0	0.0	0.0	0.0	0.0	0.0	0.0	29	Learner_0
7.891118907928467	0.7594436426162042	0.05107073783874512	0.005667987523354349	0.0005	0.6	log	elasticnet	{'alpha': 0.0005, 'l1_ratio': 0.6, 'loss': 'log', 'penalty': 'elasticnet'}	0.0	0.0	0.0	0.0	0.0	0.0	0.0	29	Learner_0
4.193165826797485	0.05426176218438502	0.054684686660766604	0.015087093863376993	0.0005	0.8	hinge	elasticnet	{'alpha': 0.0005, 'l1_ratio': 0.8, 'loss': 'hinge', 'penalty': 'elasticnet'}	0.0	0.0	0.0	0.0	0.0	0.0	0.0	29	Learner_0
8.143492078781128	0.3368822922229907	0.045707082748413085	0.0031618052996740444	0.0005	0.8	log	elasticnet	{'alpha': 0.0005, 'l1_ratio': 0.8, 'loss': 'log', 'penalty': 'elasticnet'}	0.0	0.0	0.0	0.0	0.0	0.0	0.0	29	Learner_0
4.370425891876221	0.15726323150317936	0.051261377334594724	0.007614965659385786	0.0005	0.95	hinge	elasticnet	{'alpha': 0.0005, 'l1_ratio': 0.95, 'loss': 'hinge', 'penalty': 'elasticnet'}	0.0	0.0	0.0	0.0	0.0	0.0	0.0	29	Learner_0
9.346586608886719	0.5958738906666478	0.04616522789001465	0.005827500097674994	0.0005	0.95	log	elasticnet	{'alpha': 0.0005, 'l1_ratio': 0.95, 'loss': 'log', 'penalty': 'elasticnet'}	0.0	0.0	0.0	0.0	0.0	0.0	0.0	29	Learner_0
4.472278594970703	0.1653723055871093	0.049202919006347656	0.007089383422934087	0.0005	1	hinge	elasticnet	{'alpha': 0.0005, 'l1_ratio': 1, 'loss': 'hinge', 'penalty': 'elasticnet'}	0.0	0.0	0.0	0.0	0.0	0.0	0.0	29	Learner_0
9.542732763290406	0.40658558020276186	0.0459531307220459	0.0027969256254604417	0.0005	1	log	elasticnet	{'alpha': 0.0005, 'l1_ratio': 1, 'loss': 'log', 'penalty': 'elasticnet'}	0.0	0.0	0.0	0.0	0.0	0.0	0.0	29	Learner_0
