mean_fit_time	std_fit_time	mean_score_time	std_score_time	param_alpha	param_l1_ratio	param_loss	param_penalty	params	split0_test_score	split1_test_score	split2_test_score	split3_test_score	split4_test_score	mean_test_score	std_test_score	rank_test_score	learner ID
5.691213655471802	0.20739301047621142	0.07110352516174316	0.015679007503582445	0.01	0	hinge	elasticnet	{'alpha': 0.01, 'l1_ratio': 0, 'loss': 'hinge', 'penalty': 'elasticnet'}	0.0	0.0	0.0	0.0	0.0	0.0	0.0	26	Learner_0
6.543265438079834	0.3807913840262982	0.0659327507019043	0.02302600348584605	0.01	0	log	elasticnet	{'alpha': 0.01, 'l1_ratio': 0, 'loss': 'log', 'penalty': 'elasticnet'}	0.0	0.0	0.0	0.0	0.0	0.0	0.0	26	Learner_0
6.472236299514771	0.5222080758265459	0.06565632820129394	0.009462464642806217	0.01	0.05	hinge	elasticnet	{'alpha': 0.01, 'l1_ratio': 0.05, 'loss': 'hinge', 'penalty': 'elasticnet'}	0.0	0.0	0.0	0.0	0.0	0.0	0.0	26	Learner_0
10.183869695663452	0.40884130661940615	0.08095021247863769	0.0131888201891792	0.01	0.05	log	elasticnet	{'alpha': 0.01, 'l1_ratio': 0.05, 'loss': 'log', 'penalty': 'elasticnet'}	0.0	0.0	0.0	0.0	0.0	0.0	0.0	26	Learner_0
4.9928099632263185	0.23441901670645404	0.06777510643005372	0.02811528217549325	0.01	0.25	hinge	elasticnet	{'alpha': 0.01, 'l1_ratio': 0.25, 'loss': 'hinge', 'penalty': 'elasticnet'}	0.0	0.0	0.0	0.0	0.0	0.0	0.0	26	Learner_0
10.335239267349243	0.3657083114586618	0.06427826881408691	0.015134516103930854	0.01	0.25	log	elasticnet	{'alpha': 0.01, 'l1_ratio': 0.25, 'loss': 'log', 'penalty': 'elasticnet'}	0.0	0.0	0.0	0.0	0.0	0.0	0.0	26	Learner_0
4.375784587860108	0.5720847190090687	0.0509150505065918	0.005180394687567505	0.01	0.3	hinge	elasticnet	{'alpha': 0.01, 'l1_ratio': 0.3, 'loss': 'hinge', 'penalty': 'elasticnet'}	0.0	0.0	0.0	0.0	0.0	0.0	0.0	26	Learner_0
9.468341302871703	0.6678912327667107	0.06401748657226562	0.010349408785791993	0.01	0.3	log	elasticnet	{'alpha': 0.01, 'l1_ratio': 0.3, 'loss': 'log', 'penalty': 'elasticnet'}	0.0	0.0	0.0	0.0	0.0	0.0	0.0	26	Learner_0
3.941517448425293	0.23409390450374293	0.05531387329101563	0.007236602312885213	0.01	0.6	hinge	elasticnet	{'alpha': 0.01, 'l1_ratio': 0.6, 'loss': 'hinge', 'penalty': 'elasticnet'}	0.0	0.0	0.0	0.0	0.0	0.0	0.0	26	Learner_0
10.302652978897095	0.535567369025828	0.06284704208374023	0.0072372099824900725	0.01	0.6	log	elasticnet	{'alpha': 0.01, 'l1_ratio': 0.6, 'loss': 'log', 'penalty': 'elasticnet'}	0.0	0.0	0.0	0.0	0.0	0.0	0.0	26	Learner_0
4.161131429672241	0.27716800113388024	0.05710635185241699	0.005953815393848096	0.01	0.8	hinge	elasticnet	{'alpha': 0.01, 'l1_ratio': 0.8, 'loss': 'hinge', 'penalty': 'elasticnet'}	0.0	0.0	0.0	0.0	0.0	0.0	0.0	26	Learner_0
10.3845223903656	0.14566573208246497	0.05218768119812012	0.002277998812659557	0.01	0.8	log	elasticnet	{'alpha': 0.01, 'l1_ratio': 0.8, 'loss': 'log', 'penalty': 'elasticnet'}	0.0	0.0	0.0	0.0	0.0	0.0	0.0	26	Learner_0
5.046187019348144	0.329663445911687	0.06428260803222656	0.010546471994578243	0.01	0.95	hinge	elasticnet	{'alpha': 0.01, 'l1_ratio': 0.95, 'loss': 'hinge', 'penalty': 'elasticnet'}	0.0	0.0	0.0	0.0	0.0	0.0	0.0	26	Learner_0
10.61642665863037	0.905256309880838	0.048929357528686525	0.0016986956415052676	0.01	0.95	log	elasticnet	{'alpha': 0.01, 'l1_ratio': 0.95, 'loss': 'log', 'penalty': 'elasticnet'}	0.0	0.0	0.0	0.0	0.0	0.0	0.0	26	Learner_0
5.0060954093933105	0.332017406437813	0.06193876266479492	0.006114406251654024	0.01	1	hinge	elasticnet	{'alpha': 0.01, 'l1_ratio': 1, 'loss': 'hinge', 'penalty': 'elasticnet'}	0.0	0.0	0.0	0.0	0.0	0.0	0.0	26	Learner_0
10.059607934951782	0.7091707646763253	0.053290605545043945	0.0038996091707216877	0.01	1	log	elasticnet	{'alpha': 0.01, 'l1_ratio': 1, 'loss': 'log', 'penalty': 'elasticnet'}	0.0	0.0	0.0	0.0	0.0	0.0	0.0	26	Learner_0
8.94531831741333	0.8529536386331835	0.06489510536193847	0.006312139042642222	0.001	0	hinge	elasticnet	{'alpha': 0.001, 'l1_ratio': 0, 'loss': 'hinge', 'penalty': 'elasticnet'}	0.13807531380753138	0.14984391259105098	0.13626834381551362	0.17827868852459017	0.18794688457609807	0.15808262866295686	0.02118389354591486	20	Learner_0
8.170502281188964	0.13566888207564892	0.0639277458190918	0.0062788080240589635	0.001	0	log	elasticnet	{'alpha': 0.001, 'l1_ratio': 0, 'loss': 'log', 'penalty': 'elasticnet'}	0.011185682326621923	0.00449438202247191	0.013422818791946308	0.0067415730337078645	0.0067415730337078645	0.008517205841691173	0.0032764206197126305	23	Learner_0
6.792965745925903	0.12249754258053198	0.06135926246643066	0.01298480083123513	0.001	0.05	hinge	elasticnet	{'alpha': 0.001, 'l1_ratio': 0.05, 'loss': 'hinge', 'penalty': 'elasticnet'}	0.0	0.0	0.0	0.002252252252252252	0.0	0.00045045045045045035	0.0009009009009009007	25	Learner_0
8.2896559715271	0.43813393681728785	0.06267523765563965	0.013568880959678892	0.001	0.05	log	elasticnet	{'alpha': 0.001, 'l1_ratio': 0.05, 'loss': 'log', 'penalty': 'elasticnet'}	0.0	0.0	0.0	0.0	0.0	0.0	0.0	26	Learner_0
4.543932962417602	0.03763504716596877	0.06097221374511719	0.007198129541680216	0.001	0.25	hinge	elasticnet	{'alpha': 0.001, 'l1_ratio': 0.25, 'loss': 'hinge', 'penalty': 'elasticnet'}	0.0	0.0	0.0	0.0	0.0	0.0	0.0	26	Learner_0
6.998418283462525	0.5018892291498722	0.055801105499267575	0.006841381527702505	0.001	0.25	log	elasticnet	{'alpha': 0.001, 'l1_ratio': 0.25, 'loss': 'log', 'penalty': 'elasticnet'}	0.0	0.0	0.0	0.0	0.0	0.0	0.0	26	Learner_0
4.648898649215698	0.03645891409355181	0.053194427490234376	0.0044731562801088726	0.001	0.3	hinge	elasticnet	{'alpha': 0.001, 'l1_ratio': 0.3, 'loss': 'hinge', 'penalty': 'elasticnet'}	0.0	0.0	0.0	0.0	0.0	0.0	0.0	26	Learner_0
7.139720821380616	0.0662422746530533	0.06285576820373535	0.00608869139916336	0.001	0.3	log	elasticnet	{'alpha': 0.001, 'l1_ratio': 0.3, 'loss': 'log', 'penalty': 'elasticnet'}	0.0	0.0	0.0	0.0	0.0	0.0	0.0	26	Learner_0
4.424764633178711	0.0557294484310487	0.054575347900390626	0.0037752878319843686	0.001	0.6	hinge	elasticnet	{'alpha': 0.001, 'l1_ratio': 0.6, 'loss': 'hinge', 'penalty': 'elasticnet'}	0.0	0.0	0.0	0.0	0.0	0.0	0.0	26	Learner_0
6.9805139064788815	0.051420810667958436	0.05483589172363281	0.005872374473263244	0.001	0.6	log	elasticnet	{'alpha': 0.001, 'l1_ratio': 0.6, 'loss': 'log', 'penalty': 'elasticnet'}	0.0	0.0	0.0	0.0	0.0	0.0	0.0	26	Learner_0
4.234748506546021	0.4055119417409126	0.052907896041870114	0.006605682641626437	0.001	0.8	hinge	elasticnet	{'alpha': 0.001, 'l1_ratio': 0.8, 'loss': 'hinge', 'penalty': 'elasticnet'}	0.0	0.0	0.0	0.0	0.0	0.0	0.0	26	Learner_0
6.917995357513428	0.3769838180736844	0.07397007942199707	0.03144945835021505	0.001	0.8	log	elasticnet	{'alpha': 0.001, 'l1_ratio': 0.8, 'loss': 'log', 'penalty': 'elasticnet'}	0.0	0.0	0.0	0.0	0.0	0.0	0.0	26	Learner_0
3.9807096481323243	0.3601339722767511	0.05164461135864258	0.007331821754077609	0.001	0.95	hinge	elasticnet	{'alpha': 0.001, 'l1_ratio': 0.95, 'loss': 'hinge', 'penalty': 'elasticnet'}	0.0	0.0	0.0	0.0	0.0	0.0	0.0	26	Learner_0
6.541500473022461	0.0186605938525624	0.05242900848388672	0.006290366857450561	0.001	0.95	log	elasticnet	{'alpha': 0.001, 'l1_ratio': 0.95, 'loss': 'log', 'penalty': 'elasticnet'}	0.0	0.0	0.0	0.0	0.0	0.0	0.0	26	Learner_0
4.084188985824585	0.026396041090702267	0.05706634521484375	0.009507193310413737	0.001	1	hinge	elasticnet	{'alpha': 0.001, 'l1_ratio': 1, 'loss': 'hinge', 'penalty': 'elasticnet'}	0.0	0.0	0.0	0.0	0.0	0.0	0.0	26	Learner_0
6.39732518196106	0.41179925814263385	0.05085797309875488	0.008628360500316287	0.001	1	log	elasticnet	{'alpha': 0.001, 'l1_ratio': 1, 'loss': 'log', 'penalty': 'elasticnet'}	0.0	0.0	0.0	0.0	0.0	0.0	0.0	26	Learner_0
13.362505292892456	0.8322475087204568	0.05707564353942871	0.011079083230190077	0.0001	0	hinge	elasticnet	{'alpha': 0.0001, 'l1_ratio': 0, 'loss': 'hinge', 'penalty': 'elasticnet'}	0.7920792079207921	0.7972805933250926	0.8100183262064753	0.7995124923826935	0.8103552077062011	0.801849165508251	0.007223183574240604	1	Learner_0
9.327506399154663	0.6718220945017663	0.04648118019104004	0.0011147601272136827	0.0001	0	log	elasticnet	{'alpha': 0.0001, 'l1_ratio': 0, 'loss': 'log', 'penalty': 'elasticnet'}	0.7204374572795625	0.7204884667571235	0.7363452461227243	0.7328447701532311	0.7405940594059406	0.7301419999437163	0.008275259854164331	9	Learner_0
14.657025337219238	0.10660624938596101	0.04677224159240723	0.0005542255336087404	0.0001	0.05	hinge	elasticnet	{'alpha': 0.0001, 'l1_ratio': 0.05, 'loss': 'hinge', 'penalty': 'elasticnet'}	0.7875389408099688	0.7814485387547648	0.7952261306532663	0.7906114885731933	0.7766367137355583	0.7862923625053503	0.006583543156576196	3	Learner_0
9.883951425552368	0.5897128891757444	0.059142112731933594	0.006926951369047716	0.0001	0.05	log	elasticnet	{'alpha': 0.0001, 'l1_ratio': 0.05, 'loss': 'log', 'penalty': 'elasticnet'}	0.7042449547668753	0.7142857142857143	0.7369844489519946	0.7282535401213757	0.685956245589273	0.7139449807430466	0.017961780900722892	11	Learner_0
8.325710248947143	0.3488458950116376	0.05105371475219726	0.004227079180903682	0.0001	0.25	hinge	elasticnet	{'alpha': 0.0001, 'l1_ratio': 0.25, 'loss': 'hinge', 'penalty': 'elasticnet'}	0.7786357786357786	0.7952559300873907	0.8010012515644556	0.7838689350976685	0.7873134328358209	0.7892150656442227	0.007994058475303403	2	Learner_0
8.225414752960205	0.7668767588395098	0.049381351470947264	0.00413341695219029	0.0001	0.25	log	elasticnet	{'alpha': 0.0001, 'l1_ratio': 0.25, 'loss': 'log', 'penalty': 'elasticnet'}	0.6970546984572231	0.6785714285714286	0.6963276836158192	0.7062068965517241	0.6835443037974683	0.6923410021987326	0.00997355150372748	15	Learner_0
7.663815307617187	0.5746049520333234	0.05152115821838379	0.009085785261336373	0.0001	0.3	hinge	elasticnet	{'alpha': 0.0001, 'l1_ratio': 0.3, 'loss': 'hinge', 'penalty': 'elasticnet'}	0.7760617760617761	0.7746478873239435	0.794920634920635	0.7881408276714021	0.785175879396985	0.7837894010749483	0.007590060138011819	4	Learner_0
7.727089929580688	0.46282103994618295	0.04918222427368164	0.005715080504839853	0.0001	0.3	log	elasticnet	{'alpha': 0.0001, 'l1_ratio': 0.3, 'loss': 'log', 'penalty': 'elasticnet'}	0.6828225231646471	0.6929577464788733	0.689507494646681	0.7075862068965516	0.7015851137146796	0.6948918169802865	0.008767521490428651	13	Learner_0
5.634535408020019	0.18770191948594092	0.05944633483886719	0.012571782325140297	0.0001	0.6	hinge	elasticnet	{'alpha': 0.0001, 'l1_ratio': 0.6, 'loss': 'hinge', 'penalty': 'elasticnet'}	0.7704180064308682	0.7683322517845554	0.7923566878980891	0.7849393746011487	0.7764407853071563	0.7784974212043635	0.00901571295553957	7	Learner_0
7.3842803001403805	0.35898551617800606	0.04965419769287109	0.0038873037911945265	0.0001	0.6	log	elasticnet	{'alpha': 0.0001, 'l1_ratio': 0.6, 'loss': 'log', 'penalty': 'elasticnet'}	0.6756564939673527	0.6888731396172928	0.6917080085046067	0.7013167013167013	0.6799148332150461	0.6874938353241999	0.009036562217382658	16	Learner_0
4.56345648765564	0.24758954978468875	0.06165318489074707	0.016104495542721628	0.0001	0.8	hinge	elasticnet	{'alpha': 0.0001, 'l1_ratio': 0.8, 'loss': 'hinge', 'penalty': 'elasticnet'}	0.759344262295082	0.773076923076923	0.7819935691318327	0.7910725356478612	0.7793840351979887	0.7769742650699376	0.01054293992277373	8	Learner_0
7.7556846141815186	0.4037369168126653	0.051799345016479495	0.00750109581847249	0.0001	0.8	log	elasticnet	{'alpha': 0.0001, 'l1_ratio': 0.8, 'loss': 'log', 'penalty': 'elasticnet'}	0.6831333803810868	0.6924157303370788	0.7072664359861591	0.7072503419972641	0.6779184247538679	0.6935968626910913	0.012082778513853165	14	Learner_0
4.476629400253296	0.31104304192848425	0.04603786468505859	0.0031635153211401782	0.0001	0.95	hinge	elasticnet	{'alpha': 0.0001, 'l1_ratio': 0.95, 'loss': 'hinge', 'penalty': 'elasticnet'}	0.7668789808917198	0.7793190416141237	0.7861715749039693	0.7868241143567434	0.7837837837837838	0.780595499110068	0.007346096161694729	5	Learner_0
9.00514326095581	0.5383462894790529	0.05294609069824219	0.010922361020570946	0.0001	0.95	log	elasticnet	{'alpha': 0.0001, 'l1_ratio': 0.95, 'loss': 'log', 'penalty': 'elasticnet'}	0.7002067539627843	0.7120274914089346	0.7209775967413442	0.722923588039867	0.7011572498298162	0.7114585359965493	0.009540468979087398	12	Learner_0
4.497032022476196	0.3203847817054528	0.04932451248168945	0.0014977307502604318	0.0001	1	hinge	elasticnet	{'alpha': 0.0001, 'l1_ratio': 1, 'loss': 'hinge', 'penalty': 'elasticnet'}	0.7756653992395436	0.7785488958990535	0.7823899371069183	0.7867001254705144	0.7757651467832605	0.7798139008998581	0.004225133487878327	6	Learner_0
9.955695390701294	0.34683430096645235	0.05796899795532227	0.0053232651051468155	0.0001	1	log	elasticnet	{'alpha': 0.0001, 'l1_ratio': 1, 'loss': 'log', 'penalty': 'elasticnet'}	0.7014413177762525	0.7149692412850308	0.7374749498997996	0.7297830374753453	0.7041299932295193	0.7175597079331896	0.014091819637032028	10	Learner_0
10.72662296295166	1.3869584523476983	0.06339483261108399	0.01667364497998326	0.0005	0	hinge	elasticnet	{'alpha': 0.0005, 'l1_ratio': 0, 'loss': 'hinge', 'penalty': 'elasticnet'}	0.6489283074648928	0.6294339622641509	0.674909090909091	0.6901004304160688	0.6583941605839416	0.6603531903276291	0.020914764854628187	17	Learner_0
8.457242107391357	0.660807115240969	0.055096769332885744	0.007993057330422569	0.0005	0	log	elasticnet	{'alpha': 0.0005, 'l1_ratio': 0, 'loss': 'log', 'penalty': 'elasticnet'}	0.24337585868498532	0.24086870681145114	0.25318940137389595	0.299618320610687	0.2465483234714004	0.25672012219048396	0.021842727139202052	19	Learner_0
9.5380784034729	0.39361668280318046	0.06478710174560547	0.010738130663704668	0.0005	0.05	hinge	elasticnet	{'alpha': 0.0005, 'l1_ratio': 0.05, 'loss': 'hinge', 'penalty': 'elasticnet'}	0.5524419535628502	0.5436893203883495	0.5918367346938775	0.5920125293657008	0.5542168674698795	0.5668394810961315	0.020789873310039498	18	Learner_0
8.72324833869934	0.0726935552408133	0.06802167892456054	0.017894587278104147	0.0005	0.05	log	elasticnet	{'alpha': 0.0005, 'l1_ratio': 0.05, 'loss': 'log', 'penalty': 'elasticnet'}	0.11839323467230443	0.10638297872340426	0.13249211356466875	0.16701030927835053	0.14807090719499477	0.13446990868674455	0.021424806121693046	21	Learner_0
4.9859153747558596	0.57944708221416	0.04912843704223633	0.0043233119609737735	0.0005	0.25	hinge	elasticnet	{'alpha': 0.0005, 'l1_ratio': 0.25, 'loss': 'hinge', 'penalty': 'elasticnet'}	0.008968609865470852	0.01785714285714286	0.00449438202247191	0.008978675645342313	0.020089285714285716	0.01207761922094273	0.005905329293568463	22	Learner_0
7.45154504776001	0.5433914271693339	0.051272916793823245	0.006349823743496342	0.0005	0.25	log	elasticnet	{'alpha': 0.0005, 'l1_ratio': 0.25, 'loss': 'log', 'penalty': 'elasticnet'}	0.002247191011235955	0.0	0.0	0.0	0.002252252252252252	0.0008998886526976413	0.001102135174330729	24	Learner_0
4.654163360595703	0.10059056949525765	0.05416240692138672	0.005223114824134922	0.0005	0.3	hinge	elasticnet	{'alpha': 0.0005, 'l1_ratio': 0.3, 'loss': 'hinge', 'penalty': 'elasticnet'}	0.0	0.0	0.0	0.0	0.0	0.0	0.0	26	Learner_0
8.464503765106201	0.5546208895389696	0.05425276756286621	0.006675124841094441	0.0005	0.3	log	elasticnet	{'alpha': 0.0005, 'l1_ratio': 0.3, 'loss': 'log', 'penalty': 'elasticnet'}	0.0	0.0	0.0	0.0	0.0	0.0	0.0	26	Learner_0
4.3314684391021725	0.30126644032148525	0.04891786575317383	0.002877489951301371	0.0005	0.6	hinge	elasticnet	{'alpha': 0.0005, 'l1_ratio': 0.6, 'loss': 'hinge', 'penalty': 'elasticnet'}	0.0	0.0	0.0	0.0	0.0	0.0	0.0	26	Learner_0
8.232530546188354	0.09826455451040247	0.048912668228149415	0.0007194953612808217	0.0005	0.6	log	elasticnet	{'alpha': 0.0005, 'l1_ratio': 0.6, 'loss': 'log', 'penalty': 'elasticnet'}	0.0	0.0	0.0	0.0	0.0	0.0	0.0	26	Learner_0
4.407623910903931	0.17165954695935481	0.06664481163024902	0.011169249760967892	0.0005	0.8	hinge	elasticnet	{'alpha': 0.0005, 'l1_ratio': 0.8, 'loss': 'hinge', 'penalty': 'elasticnet'}	0.0	0.0	0.0	0.0	0.0	0.0	0.0	26	Learner_0
9.069321823120116	0.509120450475597	0.04488563537597656	0.0019896338325024266	0.0005	0.8	log	elasticnet	{'alpha': 0.0005, 'l1_ratio': 0.8, 'loss': 'log', 'penalty': 'elasticnet'}	0.0	0.0	0.0	0.0	0.0	0.0	0.0	26	Learner_0
4.168212175369263	0.34571372671841255	0.04894928932189942	0.00299465985336129	0.0005	0.95	hinge	elasticnet	{'alpha': 0.0005, 'l1_ratio': 0.95, 'loss': 'hinge', 'penalty': 'elasticnet'}	0.0	0.0	0.0	0.0	0.0	0.0	0.0	26	Learner_0
9.599471855163575	0.6297738669053902	0.042820167541503903	0.0013306856255781378	0.0005	0.95	log	elasticnet	{'alpha': 0.0005, 'l1_ratio': 0.95, 'loss': 'log', 'penalty': 'elasticnet'}	0.0	0.0	0.0	0.0	0.0	0.0	0.0	26	Learner_0
4.254504871368408	0.0629662151911978	0.04441943168640137	0.0024709581665976186	0.0005	1	hinge	elasticnet	{'alpha': 0.0005, 'l1_ratio': 1, 'loss': 'hinge', 'penalty': 'elasticnet'}	0.0	0.0	0.0	0.0	0.0	0.0	0.0	26	Learner_0
10.280687475204468	0.4071676960177768	0.043109560012817384	0.001904047879183013	0.0005	1	log	elasticnet	{'alpha': 0.0005, 'l1_ratio': 1, 'loss': 'log', 'penalty': 'elasticnet'}	0.0	0.0	0.0	0.0	0.0	0.0	0.0	26	Learner_0
