mean_fit_time	std_fit_time	mean_score_time	std_score_time	param_alpha	param_l1_ratio	param_loss	param_penalty	params	split0_test_score	split1_test_score	split2_test_score	split3_test_score	split4_test_score	mean_test_score	std_test_score	rank_test_score	learner ID
0.22892870903015136	0.0393307816553206	0.0038789749145507813	0.0006568272981608906	0.01	0	hinge	elasticnet	{'alpha': 0.01, 'l1_ratio': 0, 'loss': 'hinge', 'penalty': 'elasticnet'}	0.0	0.0	0.0	0.0	0.0	0.0	0.0	9	Learner_0
0.2985424518585205	0.1174109074908481	0.004145765304565429	0.0010445487038300341	0.01	0	log	elasticnet	{'alpha': 0.01, 'l1_ratio': 0, 'loss': 'log', 'penalty': 'elasticnet'}	0.0	0.0	0.0	0.0	0.0	0.0	0.0	9	Learner_0
0.20845909118652345	0.044142530378362826	0.004275751113891601	0.0005345263595376483	0.01	0.05	hinge	elasticnet	{'alpha': 0.01, 'l1_ratio': 0.05, 'loss': 'hinge', 'penalty': 'elasticnet'}	0.0	0.0	0.0	0.0	0.0	0.0	0.0	9	Learner_0
0.6075469017028808	0.1287346793220254	0.005519056320190429	0.0005676815680601795	0.01	0.05	log	elasticnet	{'alpha': 0.01, 'l1_ratio': 0.05, 'loss': 'log', 'penalty': 'elasticnet'}	0.0	0.0	0.0	0.0	0.0	0.0	0.0	9	Learner_0
0.22890214920043944	0.04602919519347018	0.004965400695800782	0.0005868223876487792	0.01	0.25	hinge	elasticnet	{'alpha': 0.01, 'l1_ratio': 0.25, 'loss': 'hinge', 'penalty': 'elasticnet'}	0.0	0.0	0.0	0.0	0.0	0.0	0.0	9	Learner_0
1.021637773513794	0.16345699904144415	0.004918718338012695	0.0005560034665673757	0.01	0.25	log	elasticnet	{'alpha': 0.01, 'l1_ratio': 0.25, 'loss': 'log', 'penalty': 'elasticnet'}	0.0	0.0	0.0	0.0	0.0	0.0	0.0	9	Learner_0
0.2670501708984375	0.019370142262608095	0.005964469909667969	0.00021553194627794712	0.01	0.3	hinge	elasticnet	{'alpha': 0.01, 'l1_ratio': 0.3, 'loss': 'hinge', 'penalty': 'elasticnet'}	0.0	0.0	0.0	0.0	0.0	0.0	0.0	9	Learner_0
1.4465120315551758	0.02482836513723666	0.006001949310302734	0.00010485734761414331	0.01	0.3	log	elasticnet	{'alpha': 0.01, 'l1_ratio': 0.3, 'loss': 'log', 'penalty': 'elasticnet'}	0.0	0.0	0.0	0.0	0.0	0.0	0.0	9	Learner_0
0.2205655097961426	0.03147216732017496	0.005829954147338867	0.0006927033698954951	0.01	0.6	hinge	elasticnet	{'alpha': 0.01, 'l1_ratio': 0.6, 'loss': 'hinge', 'penalty': 'elasticnet'}	0.0	0.0	0.0	0.0	0.0	0.0	0.0	9	Learner_0
1.389549970626831	0.21895075367608782	0.0054302215576171875	0.0006109989912244376	0.01	0.6	log	elasticnet	{'alpha': 0.01, 'l1_ratio': 0.6, 'loss': 'log', 'penalty': 'elasticnet'}	0.0	0.0	0.0	0.0	0.0	0.0	0.0	9	Learner_0
0.21922059059143068	0.027543544752529334	0.005727577209472656	0.0004920281919882155	0.01	0.8	hinge	elasticnet	{'alpha': 0.01, 'l1_ratio': 0.8, 'loss': 'hinge', 'penalty': 'elasticnet'}	0.0	0.0	0.0	0.0	0.0	0.0	0.0	9	Learner_0
1.5268238544464112	0.18325984400749606	0.005721569061279297	0.0004919868679173012	0.01	0.8	log	elasticnet	{'alpha': 0.01, 'l1_ratio': 0.8, 'loss': 'log', 'penalty': 'elasticnet'}	0.0	0.0	0.0	0.0	0.0	0.0	0.0	9	Learner_0
0.201438570022583	0.03835904585580106	0.005443096160888672	0.0007192128550139693	0.01	0.95	hinge	elasticnet	{'alpha': 0.01, 'l1_ratio': 0.95, 'loss': 'hinge', 'penalty': 'elasticnet'}	0.0	0.0	0.0	0.0	0.0	0.0	0.0	9	Learner_0
1.3056555271148682	0.18479474699779216	0.004938507080078125	0.0005639023008825999	0.01	0.95	log	elasticnet	{'alpha': 0.01, 'l1_ratio': 0.95, 'loss': 'log', 'penalty': 'elasticnet'}	0.0	0.0	0.0	0.0	0.0	0.0	0.0	9	Learner_0
0.23085808753967285	0.003974172117607319	0.006110239028930664	0.00011055245077385988	0.01	1	hinge	elasticnet	{'alpha': 0.01, 'l1_ratio': 1, 'loss': 'hinge', 'penalty': 'elasticnet'}	0.0	0.0	0.0	0.0	0.0	0.0	0.0	9	Learner_0
1.5792040824890137	0.1907433607243492	0.006062984466552734	0.00042104494260563735	0.01	1	log	elasticnet	{'alpha': 0.01, 'l1_ratio': 1, 'loss': 'log', 'penalty': 'elasticnet'}	0.0	0.0	0.0	0.0	0.0	0.0	0.0	9	Learner_0
0.6733523845672608	0.10504527808250101	0.005840110778808594	0.0007392999833402053	0.001	0	hinge	elasticnet	{'alpha': 0.001, 'l1_ratio': 0, 'loss': 'hinge', 'penalty': 'elasticnet'}	0.0	0.0	0.0	0.0	0.0	0.0	0.0	9	Learner_0
0.5863099098205566	0.14404047127660596	0.0057547569274902345	0.0007059925650979215	0.001	0	log	elasticnet	{'alpha': 0.001, 'l1_ratio': 0, 'loss': 'log', 'penalty': 'elasticnet'}	0.0	0.0	0.0	0.0	0.0	0.0	0.0	9	Learner_0
0.47028822898864747	0.10005218695345842	0.005605077743530274	0.0005229934995645165	0.001	0.05	hinge	elasticnet	{'alpha': 0.001, 'l1_ratio': 0.05, 'loss': 'hinge', 'penalty': 'elasticnet'}	0.0	0.0	0.0	0.0	0.0	0.0	0.0	9	Learner_0
0.6201587677001953	0.11543209650114189	0.005772733688354492	0.00042908460276872067	0.001	0.05	log	elasticnet	{'alpha': 0.001, 'l1_ratio': 0.05, 'loss': 'log', 'penalty': 'elasticnet'}	0.0	0.0	0.0	0.0	0.0	0.0	0.0	9	Learner_0
0.26707067489624026	0.05756497846201397	0.005657339096069336	0.0008720306325499556	0.001	0.25	hinge	elasticnet	{'alpha': 0.001, 'l1_ratio': 0.25, 'loss': 'hinge', 'penalty': 'elasticnet'}	0.0	0.0	0.0	0.0	0.0	0.0	0.0	9	Learner_0
0.5444847106933594	0.07510254444675409	0.005830955505371094	0.0008487169029383677	0.001	0.25	log	elasticnet	{'alpha': 0.001, 'l1_ratio': 0.25, 'loss': 'log', 'penalty': 'elasticnet'}	0.0	0.0	0.0	0.0	0.0	0.0	0.0	9	Learner_0
0.2543331146240234	0.04720600838499599	0.006488275527954101	0.0014740257789546	0.001	0.3	hinge	elasticnet	{'alpha': 0.001, 'l1_ratio': 0.3, 'loss': 'hinge', 'penalty': 'elasticnet'}	0.0	0.0	0.0	0.0	0.0	0.0	0.0	9	Learner_0
0.532254695892334	0.09429824243631472	0.0057861328125	0.0007718588192765106	0.001	0.3	log	elasticnet	{'alpha': 0.001, 'l1_ratio': 0.3, 'loss': 'log', 'penalty': 'elasticnet'}	0.0	0.0	0.0	0.0	0.0	0.0	0.0	9	Learner_0
0.21280794143676757	0.0406157205066809	0.0056092262268066405	0.00048391417679628714	0.001	0.6	hinge	elasticnet	{'alpha': 0.001, 'l1_ratio': 0.6, 'loss': 'hinge', 'penalty': 'elasticnet'}	0.0	0.0	0.0	0.0	0.0	0.0	0.0	9	Learner_0
0.5162971973419189	0.09994756371769535	0.005619049072265625	0.0007265004468970565	0.001	0.6	log	elasticnet	{'alpha': 0.001, 'l1_ratio': 0.6, 'loss': 'log', 'penalty': 'elasticnet'}	0.0	0.0	0.0	0.0	0.0	0.0	0.0	9	Learner_0
0.20752320289611817	0.039198234929871394	0.006007337570190429	0.0006917019375539782	0.001	0.8	hinge	elasticnet	{'alpha': 0.001, 'l1_ratio': 0.8, 'loss': 'hinge', 'penalty': 'elasticnet'}	0.0	0.0	0.0	0.0	0.0	0.0	0.0	9	Learner_0
0.6255391120910645	0.15442549654461665	0.005620479583740234	0.0008467702664700246	0.001	0.8	log	elasticnet	{'alpha': 0.001, 'l1_ratio': 0.8, 'loss': 'log', 'penalty': 'elasticnet'}	0.0	0.0	0.0	0.0	0.0	0.0	0.0	9	Learner_0
0.18919196128845214	0.038768854770791075	0.0052852630615234375	0.0007618885849613153	0.001	0.95	hinge	elasticnet	{'alpha': 0.001, 'l1_ratio': 0.95, 'loss': 'hinge', 'penalty': 'elasticnet'}	0.0	0.0	0.0	0.0	0.0	0.0	0.0	9	Learner_0
0.5907839775085449	0.14077160063030472	0.005748462677001953	0.0008394042215107118	0.001	0.95	log	elasticnet	{'alpha': 0.001, 'l1_ratio': 0.95, 'loss': 'log', 'penalty': 'elasticnet'}	0.0	0.0	0.0	0.0	0.0	0.0	0.0	9	Learner_0
0.18826723098754883	0.03875384676384813	0.005246305465698242	0.0006760093601865518	0.001	1	hinge	elasticnet	{'alpha': 0.001, 'l1_ratio': 1, 'loss': 'hinge', 'penalty': 'elasticnet'}	0.0	0.0	0.0	0.0	0.0	0.0	0.0	9	Learner_0
0.6391680240631104	0.1778072747312023	0.005582141876220703	0.0007883118769609959	0.001	1	log	elasticnet	{'alpha': 0.001, 'l1_ratio': 1, 'loss': 'log', 'penalty': 'elasticnet'}	0.0	0.0	0.0	0.0	0.0	0.0	0.0	9	Learner_0
0.719394588470459	0.07524945334037207	0.006090688705444336	0.0002577194957878612	0.0001	0	hinge	elasticnet	{'alpha': 0.0001, 'l1_ratio': 0, 'loss': 'hinge', 'penalty': 'elasticnet'}	0.0	0.4	0.0	0.2	0.0	0.12000000000000002	0.16	7	Learner_0
0.613897180557251	0.11484902463623546	0.0054744243621826175	0.0006523596352530548	0.0001	0	log	elasticnet	{'alpha': 0.0001, 'l1_ratio': 0, 'loss': 'log', 'penalty': 'elasticnet'}	0.0	0.0	0.0	0.0	0.0	0.0	0.0	9	Learner_0
0.6647382736206054	0.12761079789658586	0.0051651477813720705	0.0005137040733392509	0.0001	0.05	hinge	elasticnet	{'alpha': 0.0001, 'l1_ratio': 0.05, 'loss': 'hinge', 'penalty': 'elasticnet'}	0.0	0.0	0.2	0.0	0.0	0.04	0.08	8	Learner_0
0.6595304012298584	0.16100184030552903	0.0061451435089111325	0.0017688593949607419	0.0001	0.05	log	elasticnet	{'alpha': 0.0001, 'l1_ratio': 0.05, 'loss': 'log', 'penalty': 'elasticnet'}	0.0	0.0	0.0	0.0	0.0	0.0	0.0	9	Learner_0
0.6253442764282227	0.09073196172093846	0.006180238723754883	0.0006344197055985314	0.0001	0.25	hinge	elasticnet	{'alpha': 0.0001, 'l1_ratio': 0.25, 'loss': 'hinge', 'penalty': 'elasticnet'}	0.22222222222222224	0.25	0.2	0.0	0.25	0.18444444444444447	0.09411052079048755	2	Learner_0
0.7661160945892334	0.10869598426569585	0.006512165069580078	0.0007548971835837819	0.0001	0.25	log	elasticnet	{'alpha': 0.0001, 'l1_ratio': 0.25, 'loss': 'log', 'penalty': 'elasticnet'}	0.0	0.0	0.0	0.0	0.0	0.0	0.0	9	Learner_0
0.6980193614959717	0.03805733709814833	0.006808137893676758	0.0007637481516163452	0.0001	0.3	hinge	elasticnet	{'alpha': 0.0001, 'l1_ratio': 0.3, 'loss': 'hinge', 'penalty': 'elasticnet'}	0.0	0.25	0.0	0.36363636363636365	0.0	0.12272727272727273	0.15454545454545454	6	Learner_0
0.8252828598022461	0.14328426516778714	0.0054491996765136715	0.0004683092380065046	0.0001	0.3	log	elasticnet	{'alpha': 0.0001, 'l1_ratio': 0.3, 'loss': 'log', 'penalty': 'elasticnet'}	0.0	0.0	0.0	0.0	0.0	0.0	0.0	9	Learner_0
0.529638147354126	0.10187012555164239	0.005855941772460937	0.000781465236832761	0.0001	0.6	hinge	elasticnet	{'alpha': 0.0001, 'l1_ratio': 0.6, 'loss': 'hinge', 'penalty': 'elasticnet'}	0.0	0.25	0.0	0.2	0.25	0.13999999999999999	0.11575836902790225	4	Learner_0
0.6798298358917236	0.13695488830895702	0.0055391788482666016	0.0005808586514121388	0.0001	0.6	log	elasticnet	{'alpha': 0.0001, 'l1_ratio': 0.6, 'loss': 'log', 'penalty': 'elasticnet'}	0.0	0.0	0.0	0.0	0.0	0.0	0.0	9	Learner_0
0.4092276096343994	0.08910304069306682	0.005571413040161133	0.0007267994355600049	0.0001	0.8	hinge	elasticnet	{'alpha': 0.0001, 'l1_ratio': 0.8, 'loss': 'hinge', 'penalty': 'elasticnet'}	0.0	0.25	0.0	0.2	0.25	0.13999999999999999	0.11575836902790225	4	Learner_0
0.757437801361084	0.10039362674752453	0.005507802963256836	0.0006617396823438387	0.0001	0.8	log	elasticnet	{'alpha': 0.0001, 'l1_ratio': 0.8, 'loss': 'log', 'penalty': 'elasticnet'}	0.0	0.0	0.0	0.0	0.0	0.0	0.0	9	Learner_0
0.46147899627685546	0.14887935145861825	0.005795192718505859	0.0006470082739650189	0.0001	0.95	hinge	elasticnet	{'alpha': 0.0001, 'l1_ratio': 0.95, 'loss': 'hinge', 'penalty': 'elasticnet'}	0.0	0.25	0.0	0.36363636363636365	0.4444444444444445	0.21161616161616165	0.18349674104485963	1	Learner_0
0.7627769470214844	0.12739986738904785	0.005525398254394531	0.000699511812703032	0.0001	0.95	log	elasticnet	{'alpha': 0.0001, 'l1_ratio': 0.95, 'loss': 'log', 'penalty': 'elasticnet'}	0.0	0.0	0.0	0.0	0.0	0.0	0.0	9	Learner_0
0.4339291572570801	0.08776765929067938	0.005575704574584961	0.0005642686596475454	0.0001	1	hinge	elasticnet	{'alpha': 0.0001, 'l1_ratio': 1, 'loss': 'hinge', 'penalty': 'elasticnet'}	0.0	0.25	0.0	0.36363636363636365	0.25	0.17272727272727273	0.14700874207996573	3	Learner_0
0.7701606750488281	0.12338803033024719	0.005603170394897461	0.0005561303266326622	0.0001	1	log	elasticnet	{'alpha': 0.0001, 'l1_ratio': 1, 'loss': 'log', 'penalty': 'elasticnet'}	0.0	0.0	0.0	0.0	0.0	0.0	0.0	9	Learner_0
0.8216864109039307	0.17018102962103604	0.005668544769287109	0.0007673150977243652	0.0005	0	hinge	elasticnet	{'alpha': 0.0005, 'l1_ratio': 0, 'loss': 'hinge', 'penalty': 'elasticnet'}	0.0	0.0	0.0	0.0	0.0	0.0	0.0	9	Learner_0
0.5772106170654296	0.1470542371202746	0.005133581161499023	0.0005348995163377339	0.0005	0	log	elasticnet	{'alpha': 0.0005, 'l1_ratio': 0, 'loss': 'log', 'penalty': 'elasticnet'}	0.0	0.0	0.0	0.0	0.0	0.0	0.0	9	Learner_0
0.9283098220825196	0.1543975508354178	0.005496358871459961	0.000575754925240123	0.0005	0.05	hinge	elasticnet	{'alpha': 0.0005, 'l1_ratio': 0.05, 'loss': 'hinge', 'penalty': 'elasticnet'}	0.0	0.0	0.0	0.0	0.0	0.0	0.0	9	Learner_0
0.6433951377868652	0.1581221484512049	0.005095863342285156	0.0006770577142839829	0.0005	0.05	log	elasticnet	{'alpha': 0.0005, 'l1_ratio': 0.05, 'loss': 'log', 'penalty': 'elasticnet'}	0.0	0.0	0.0	0.0	0.0	0.0	0.0	9	Learner_0
0.2905912399291992	0.05284198514971924	0.0055066108703613285	0.0005855889691646884	0.0005	0.25	hinge	elasticnet	{'alpha': 0.0005, 'l1_ratio': 0.25, 'loss': 'hinge', 'penalty': 'elasticnet'}	0.0	0.0	0.0	0.0	0.0	0.0	0.0	9	Learner_0
0.5596135139465332	0.0975471703910671	0.005805206298828125	0.0006973217006930612	0.0005	0.25	log	elasticnet	{'alpha': 0.0005, 'l1_ratio': 0.25, 'loss': 'log', 'penalty': 'elasticnet'}	0.0	0.0	0.0	0.0	0.0	0.0	0.0	9	Learner_0
0.30412907600402833	0.058935744565245925	0.005562925338745117	0.0005704827349864273	0.0005	0.3	hinge	elasticnet	{'alpha': 0.0005, 'l1_ratio': 0.3, 'loss': 'hinge', 'penalty': 'elasticnet'}	0.0	0.0	0.0	0.0	0.0	0.0	0.0	9	Learner_0
0.6012054443359375	0.12760401223884138	0.0061645030975341795	0.0007754243031121371	0.0005	0.3	log	elasticnet	{'alpha': 0.0005, 'l1_ratio': 0.3, 'loss': 'log', 'penalty': 'elasticnet'}	0.0	0.0	0.0	0.0	0.0	0.0	0.0	9	Learner_0
0.20080671310424805	0.038858644257769456	0.005549383163452148	0.0007146863801154739	0.0005	0.6	hinge	elasticnet	{'alpha': 0.0005, 'l1_ratio': 0.6, 'loss': 'hinge', 'penalty': 'elasticnet'}	0.0	0.0	0.0	0.0	0.0	0.0	0.0	9	Learner_0
0.5546940803527832	0.024689601414470373	0.0060173988342285155	0.0007226566542442261	0.0005	0.6	log	elasticnet	{'alpha': 0.0005, 'l1_ratio': 0.6, 'loss': 'log', 'penalty': 'elasticnet'}	0.0	0.0	0.0	0.0	0.0	0.0	0.0	9	Learner_0
0.1814276695251465	0.030784846808265345	0.005013751983642578	0.000499209732218803	0.0005	0.8	hinge	elasticnet	{'alpha': 0.0005, 'l1_ratio': 0.8, 'loss': 'hinge', 'penalty': 'elasticnet'}	0.0	0.0	0.0	0.0	0.0	0.0	0.0	9	Learner_0
0.5012510299682618	0.09488458047089263	0.005795907974243164	0.0005020137751716947	0.0005	0.8	log	elasticnet	{'alpha': 0.0005, 'l1_ratio': 0.8, 'loss': 'log', 'penalty': 'elasticnet'}	0.0	0.0	0.0	0.0	0.0	0.0	0.0	9	Learner_0
0.2084425926208496	0.03689511080155274	0.0054683685302734375	0.0006506094166624494	0.0005	0.95	hinge	elasticnet	{'alpha': 0.0005, 'l1_ratio': 0.95, 'loss': 'hinge', 'penalty': 'elasticnet'}	0.0	0.0	0.0	0.0	0.0	0.0	0.0	9	Learner_0
0.48490090370178224	0.05107034383450175	0.006147241592407227	0.0017237424822433632	0.0005	0.95	log	elasticnet	{'alpha': 0.0005, 'l1_ratio': 0.95, 'loss': 'log', 'penalty': 'elasticnet'}	0.0	0.0	0.0	0.0	0.0	0.0	0.0	9	Learner_0
0.2063272476196289	0.03950284069675485	0.0055656909942626955	0.0005168406568858284	0.0005	1	hinge	elasticnet	{'alpha': 0.0005, 'l1_ratio': 1, 'loss': 'hinge', 'penalty': 'elasticnet'}	0.0	0.0	0.0	0.0	0.0	0.0	0.0	9	Learner_0
0.47367081642150877	0.032421526995215985	0.004461336135864258	0.0005304662488012784	0.0005	1	log	elasticnet	{'alpha': 0.0005, 'l1_ratio': 1, 'loss': 'log', 'penalty': 'elasticnet'}	0.0	0.0	0.0	0.0	0.0	0.0	0.0	9	Learner_0
0.20807409286499023	0.05214993287971665	0.0036849498748779295	0.0004825445830727306	0.01	0	hinge	elasticnet	{'alpha': 0.01, 'l1_ratio': 0, 'loss': 'hinge', 'penalty': 'elasticnet'}	0.0	0.0	0.0	0.0	0.0	0.0	0.0	4	Learner_1
0.37384562492370604	0.15280480450702688	0.004340648651123047	0.0007941537701438729	0.01	0	log	elasticnet	{'alpha': 0.01, 'l1_ratio': 0, 'loss': 'log', 'penalty': 'elasticnet'}	0.0	0.0	0.0	0.0	0.0	0.0	0.0	4	Learner_1
0.18994550704956054	0.028353018144760163	0.004433584213256836	0.000676836415710507	0.01	0.05	hinge	elasticnet	{'alpha': 0.01, 'l1_ratio': 0.05, 'loss': 'hinge', 'penalty': 'elasticnet'}	0.0	0.0	0.0	0.0	0.0	0.0	0.0	4	Learner_1
0.716618824005127	0.12711901693015407	0.005650997161865234	0.0005482097702643577	0.01	0.05	log	elasticnet	{'alpha': 0.01, 'l1_ratio': 0.05, 'loss': 'log', 'penalty': 'elasticnet'}	0.0	0.0	0.0	0.0	0.0	0.0	0.0	4	Learner_1
0.2259984016418457	0.04243528265463868	0.005059385299682617	0.0006806736208596996	0.01	0.25	hinge	elasticnet	{'alpha': 0.01, 'l1_ratio': 0.25, 'loss': 'hinge', 'penalty': 'elasticnet'}	0.0	0.0	0.0	0.0	0.0	0.0	0.0	4	Learner_1
1.211635208129883	0.17261251100682404	0.004882621765136719	0.0005804835346959692	0.01	0.25	log	elasticnet	{'alpha': 0.01, 'l1_ratio': 0.25, 'loss': 'log', 'penalty': 'elasticnet'}	0.0	0.0	0.0	0.0	0.0	0.0	0.0	4	Learner_1
0.2700371742248535	0.0025370853947814893	0.006005477905273437	0.0001468579797992069	0.01	0.3	hinge	elasticnet	{'alpha': 0.01, 'l1_ratio': 0.3, 'loss': 'hinge', 'penalty': 'elasticnet'}	0.0	0.0	0.0	0.0	0.0	0.0	0.0	4	Learner_1
1.8098035335540772	0.011048398475897765	0.005972766876220703	7.591280505813333e-05	0.01	0.3	log	elasticnet	{'alpha': 0.01, 'l1_ratio': 0.3, 'loss': 'log', 'penalty': 'elasticnet'}	0.0	0.0	0.0	0.0	0.0	0.0	0.0	4	Learner_1
0.2114124298095703	0.030440777414239933	0.005629301071166992	0.0007160192070706517	0.01	0.6	hinge	elasticnet	{'alpha': 0.01, 'l1_ratio': 0.6, 'loss': 'hinge', 'penalty': 'elasticnet'}	0.0	0.0	0.0	0.0	0.0	0.0	0.0	4	Learner_1
1.4095681190490723	0.23487336551252258	0.005202198028564453	0.0005371911769923715	0.01	0.6	log	elasticnet	{'alpha': 0.01, 'l1_ratio': 0.6, 'loss': 'log', 'penalty': 'elasticnet'}	0.0	0.0	0.0	0.0	0.0	0.0	0.0	4	Learner_1
0.21833539009094238	0.02559781832138182	0.00574789047241211	0.0005645154787713367	0.01	0.8	hinge	elasticnet	{'alpha': 0.01, 'l1_ratio': 0.8, 'loss': 'hinge', 'penalty': 'elasticnet'}	0.0	0.0	0.0	0.0	0.0	0.0	0.0	4	Learner_1
1.604497528076172	0.21495968660224155	0.005829286575317383	0.0005996895917768178	0.01	0.8	log	elasticnet	{'alpha': 0.01, 'l1_ratio': 0.8, 'loss': 'log', 'penalty': 'elasticnet'}	0.0	0.0	0.0	0.0	0.0	0.0	0.0	4	Learner_1
0.18799352645874023	0.03436758031980063	0.005360698699951172	0.0004719573332488194	0.01	0.95	hinge	elasticnet	{'alpha': 0.01, 'l1_ratio': 0.95, 'loss': 'hinge', 'penalty': 'elasticnet'}	0.0	0.0	0.0	0.0	0.0	0.0	0.0	4	Learner_1
1.4377506256103516	0.2593744141506712	0.005677175521850586	0.0008861914660522039	0.01	0.95	log	elasticnet	{'alpha': 0.01, 'l1_ratio': 0.95, 'loss': 'log', 'penalty': 'elasticnet'}	0.0	0.0	0.0	0.0	0.0	0.0	0.0	4	Learner_1
0.1879129409790039	0.030791310183768898	0.005539083480834961	0.0006513814552446766	0.01	1	hinge	elasticnet	{'alpha': 0.01, 'l1_ratio': 1, 'loss': 'hinge', 'penalty': 'elasticnet'}	0.0	0.0	0.0	0.0	0.0	0.0	0.0	4	Learner_1
1.5302992820739747	0.23921071545212008	0.0056190967559814455	0.0007119191451422304	0.01	1	log	elasticnet	{'alpha': 0.01, 'l1_ratio': 1, 'loss': 'log', 'penalty': 'elasticnet'}	0.0	0.0	0.0	0.0	0.0	0.0	0.0	4	Learner_1
0.5849345684051513	0.13476706265884378	0.005272960662841797	0.0005634601236064968	0.001	0	hinge	elasticnet	{'alpha': 0.001, 'l1_ratio': 0, 'loss': 'hinge', 'penalty': 'elasticnet'}	0.0	0.0	0.0	0.0	0.0	0.0	0.0	4	Learner_1
0.633388090133667	0.1449195638722827	0.005888795852661133	0.0012358423549757947	0.001	0	log	elasticnet	{'alpha': 0.001, 'l1_ratio': 0, 'loss': 'log', 'penalty': 'elasticnet'}	0.0	0.0	0.0	0.0	0.0	0.0	0.0	4	Learner_1
0.35754709243774413	0.06449072669792222	0.005524349212646484	0.000591009667448549	0.001	0.05	hinge	elasticnet	{'alpha': 0.001, 'l1_ratio': 0.05, 'loss': 'hinge', 'penalty': 'elasticnet'}	0.0	0.0	0.0	0.0	0.0	0.0	0.0	4	Learner_1
0.689464521408081	0.17153125585570303	0.005539035797119141	0.0006310118123468644	0.001	0.05	log	elasticnet	{'alpha': 0.001, 'l1_ratio': 0.05, 'loss': 'log', 'penalty': 'elasticnet'}	0.0	0.0	0.0	0.0	0.0	0.0	0.0	4	Learner_1
0.26347503662109373	0.04891737950246521	0.005442428588867188	0.0005972204738633007	0.001	0.25	hinge	elasticnet	{'alpha': 0.001, 'l1_ratio': 0.25, 'loss': 'hinge', 'penalty': 'elasticnet'}	0.0	0.0	0.0	0.0	0.0	0.0	0.0	4	Learner_1
0.5879812717437745	0.11526453514207191	0.005762624740600586	0.0006266813262749288	0.001	0.25	log	elasticnet	{'alpha': 0.001, 'l1_ratio': 0.25, 'loss': 'log', 'penalty': 'elasticnet'}	0.0	0.0	0.0	0.0	0.0	0.0	0.0	4	Learner_1
0.2274083137512207	0.04508752210436152	0.005286359786987304	0.0006250238358736633	0.001	0.3	hinge	elasticnet	{'alpha': 0.001, 'l1_ratio': 0.3, 'loss': 'hinge', 'penalty': 'elasticnet'}	0.0	0.0	0.0	0.0	0.0	0.0	0.0	4	Learner_1
0.6078813552856446	0.10118221175349813	0.0055179595947265625	0.0007206773636624839	0.001	0.3	log	elasticnet	{'alpha': 0.001, 'l1_ratio': 0.3, 'loss': 'log', 'penalty': 'elasticnet'}	0.0	0.0	0.0	0.0	0.0	0.0	0.0	4	Learner_1
0.22240834236145018	0.05273387791617635	0.00581827163696289	0.0007790398575499139	0.001	0.6	hinge	elasticnet	{'alpha': 0.001, 'l1_ratio': 0.6, 'loss': 'hinge', 'penalty': 'elasticnet'}	0.0	0.0	0.0	0.0	0.0	0.0	0.0	4	Learner_1
0.5114630222320556	0.08047681215486258	0.005602121353149414	0.0007367460465840569	0.001	0.6	log	elasticnet	{'alpha': 0.001, 'l1_ratio': 0.6, 'loss': 'log', 'penalty': 'elasticnet'}	0.0	0.0	0.0	0.0	0.0	0.0	0.0	4	Learner_1
0.20229058265686034	0.03717205505616335	0.0055103302001953125	0.0005523326059482704	0.001	0.8	hinge	elasticnet	{'alpha': 0.001, 'l1_ratio': 0.8, 'loss': 'hinge', 'penalty': 'elasticnet'}	0.0	0.0	0.0	0.0	0.0	0.0	0.0	4	Learner_1
0.6160843849182129	0.1483946632856529	0.005501174926757812	0.000641674319315965	0.001	0.8	log	elasticnet	{'alpha': 0.001, 'l1_ratio': 0.8, 'loss': 'log', 'penalty': 'elasticnet'}	0.0	0.0	0.0	0.0	0.0	0.0	0.0	4	Learner_1
0.18536777496337892	0.035235571403486154	0.005606603622436523	0.000664399602925184	0.001	0.95	hinge	elasticnet	{'alpha': 0.001, 'l1_ratio': 0.95, 'loss': 'hinge', 'penalty': 'elasticnet'}	0.0	0.0	0.0	0.0	0.0	0.0	0.0	4	Learner_1
0.5972354412078857	0.10124511763815952	0.005496311187744141	0.0006697212329828897	0.001	0.95	log	elasticnet	{'alpha': 0.001, 'l1_ratio': 0.95, 'loss': 'log', 'penalty': 'elasticnet'}	0.0	0.0	0.0	0.0	0.0	0.0	0.0	4	Learner_1
0.20174245834350585	0.03977462478641638	0.005573892593383789	0.0005808206331197357	0.001	1	hinge	elasticnet	{'alpha': 0.001, 'l1_ratio': 1, 'loss': 'hinge', 'penalty': 'elasticnet'}	0.0	0.0	0.0	0.0	0.0	0.0	0.0	4	Learner_1
0.6789319038391113	0.13819146396737353	0.005477285385131836	0.000725861964967249	0.001	1	log	elasticnet	{'alpha': 0.001, 'l1_ratio': 1, 'loss': 'log', 'penalty': 'elasticnet'}	0.0	0.0	0.0	0.0	0.0	0.0	0.0	4	Learner_1
0.8141117095947266	0.1825884393099455	0.005324888229370117	0.0006379716660331749	0.0001	0	hinge	elasticnet	{'alpha': 0.0001, 'l1_ratio': 0, 'loss': 'hinge', 'penalty': 'elasticnet'}	0.0	0.0	0.0	0.0	0.0	0.0	0.0	4	Learner_1
0.6900116920471191	0.14111922525637355	0.005119800567626953	0.0005759882405421532	0.0001	0	log	elasticnet	{'alpha': 0.0001, 'l1_ratio': 0, 'loss': 'log', 'penalty': 'elasticnet'}	0.0	0.0	0.0	0.0	0.0	0.0	0.0	4	Learner_1
0.8210914611816407	0.09474960146409916	0.00578012466430664	0.0004911647393356565	0.0001	0.05	hinge	elasticnet	{'alpha': 0.0001, 'l1_ratio': 0.05, 'loss': 'hinge', 'penalty': 'elasticnet'}	0.0	0.0	0.0	0.0	0.0	0.0	0.0	4	Learner_1
0.7958816528320313	0.18462817836828982	0.005401802062988281	0.0008071737302448475	0.0001	0.05	log	elasticnet	{'alpha': 0.0001, 'l1_ratio': 0.05, 'loss': 'log', 'penalty': 'elasticnet'}	0.0	0.0	0.0	0.0	0.0	0.0	0.0	4	Learner_1
0.5099674224853515	0.13224319088234793	0.005208301544189453	0.0007377111043291104	0.0001	0.25	hinge	elasticnet	{'alpha': 0.0001, 'l1_ratio': 0.25, 'loss': 'hinge', 'penalty': 'elasticnet'}	0.0	0.0	0.0	0.2222222222222222	0.0	0.04444444444444444	0.08888888888888888	1	Learner_1
0.8096940517425537	0.14481393103652934	0.005538558959960938	0.0008528596773228098	0.0001	0.25	log	elasticnet	{'alpha': 0.0001, 'l1_ratio': 0.25, 'loss': 'log', 'penalty': 'elasticnet'}	0.0	0.0	0.0	0.0	0.0	0.0	0.0	4	Learner_1
0.5138349056243896	0.09079352178525185	0.0055065155029296875	0.0006557323578843283	0.0001	0.3	hinge	elasticnet	{'alpha': 0.0001, 'l1_ratio': 0.3, 'loss': 'hinge', 'penalty': 'elasticnet'}	0.0	0.0	0.0	0.2222222222222222	0.0	0.04444444444444444	0.08888888888888888	1	Learner_1
0.7513553142547608	0.1396187158442536	0.00556650161743164	0.000688657818663884	0.0001	0.3	log	elasticnet	{'alpha': 0.0001, 'l1_ratio': 0.3, 'loss': 'log', 'penalty': 'elasticnet'}	0.0	0.0	0.0	0.0	0.0	0.0	0.0	4	Learner_1
0.5386941432952881	0.08779795907565989	0.005599069595336914	0.0005877250469476052	0.0001	0.6	hinge	elasticnet	{'alpha': 0.0001, 'l1_ratio': 0.6, 'loss': 'hinge', 'penalty': 'elasticnet'}	0.0	0.0	0.0	0.0	0.0	0.0	0.0	4	Learner_1
0.8473774909973144	0.1694041639945162	0.005609273910522461	0.0006100945192231957	0.0001	0.6	log	elasticnet	{'alpha': 0.0001, 'l1_ratio': 0.6, 'loss': 'log', 'penalty': 'elasticnet'}	0.0	0.0	0.0	0.0	0.0	0.0	0.0	4	Learner_1
0.4881554126739502	0.11340833013868877	0.005493307113647461	0.00048282023011953445	0.0001	0.8	hinge	elasticnet	{'alpha': 0.0001, 'l1_ratio': 0.8, 'loss': 'hinge', 'penalty': 'elasticnet'}	0.0	0.0	0.0	0.0	0.0	0.0	0.0	4	Learner_1
0.8371940612792969	0.13753051009522296	0.005504751205444336	0.0007179802280998305	0.0001	0.8	log	elasticnet	{'alpha': 0.0001, 'l1_ratio': 0.8, 'loss': 'log', 'penalty': 'elasticnet'}	0.0	0.0	0.0	0.0	0.0	0.0	0.0	4	Learner_1
0.49780979156494143	0.0476567566196117	0.005641269683837891	0.0008271348718650876	0.0001	0.95	hinge	elasticnet	{'alpha': 0.0001, 'l1_ratio': 0.95, 'loss': 'hinge', 'penalty': 'elasticnet'}	0.0	0.0	0.0	0.0	0.0	0.0	0.0	4	Learner_1
0.8909333229064942	0.15167109022431347	0.005481910705566406	0.0008457791396296145	0.0001	0.95	log	elasticnet	{'alpha': 0.0001, 'l1_ratio': 0.95, 'loss': 'log', 'penalty': 'elasticnet'}	0.0	0.0	0.0	0.0	0.0	0.0	0.0	4	Learner_1
0.46443929672241213	0.09382249675351378	0.005486249923706055	0.0006485361375846258	0.0001	1	hinge	elasticnet	{'alpha': 0.0001, 'l1_ratio': 1, 'loss': 'hinge', 'penalty': 'elasticnet'}	0.0	0.0	0.0	0.2	0.0	0.04	0.08	3	Learner_1
0.9216211795806885	0.11109580577551004	0.005250263214111328	0.0005506967835500218	0.0001	1	log	elasticnet	{'alpha': 0.0001, 'l1_ratio': 1, 'loss': 'log', 'penalty': 'elasticnet'}	0.0	0.0	0.0	0.0	0.0	0.0	0.0	4	Learner_1
0.7482123851776123	0.20132084707458572	0.005307340621948242	0.0006743724969268671	0.0005	0	hinge	elasticnet	{'alpha': 0.0005, 'l1_ratio': 0, 'loss': 'hinge', 'penalty': 'elasticnet'}	0.0	0.0	0.0	0.0	0.0	0.0	0.0	4	Learner_1
0.5832942962646485	0.14483422724702144	0.005087566375732422	0.0007998444858602276	0.0005	0	log	elasticnet	{'alpha': 0.0005, 'l1_ratio': 0, 'loss': 'log', 'penalty': 'elasticnet'}	0.0	0.0	0.0	0.0	0.0	0.0	0.0	4	Learner_1
0.6475893497467041	0.07875751547987118	0.005832147598266601	0.0005823521924550768	0.0005	0.05	hinge	elasticnet	{'alpha': 0.0005, 'l1_ratio': 0.05, 'loss': 'hinge', 'penalty': 'elasticnet'}	0.0	0.0	0.0	0.0	0.0	0.0	0.0	4	Learner_1
0.6798311233520508	0.10911032698721013	0.00552678108215332	0.0005876579326330977	0.0005	0.05	log	elasticnet	{'alpha': 0.0005, 'l1_ratio': 0.05, 'loss': 'log', 'penalty': 'elasticnet'}	0.0	0.0	0.0	0.0	0.0	0.0	0.0	4	Learner_1
0.29752554893493655	0.0717177606033002	0.005211877822875977	0.0006252301001115046	0.0005	0.25	hinge	elasticnet	{'alpha': 0.0005, 'l1_ratio': 0.25, 'loss': 'hinge', 'penalty': 'elasticnet'}	0.0	0.0	0.0	0.0	0.0	0.0	0.0	4	Learner_1
0.621092414855957	0.10559124922740633	0.005447864532470703	0.0006510379976334351	0.0005	0.25	log	elasticnet	{'alpha': 0.0005, 'l1_ratio': 0.25, 'loss': 'log', 'penalty': 'elasticnet'}	0.0	0.0	0.0	0.0	0.0	0.0	0.0	4	Learner_1
0.30249438285827634	0.04713499189444902	0.005404758453369141	0.0005298259393987744	0.0005	0.3	hinge	elasticnet	{'alpha': 0.0005, 'l1_ratio': 0.3, 'loss': 'hinge', 'penalty': 'elasticnet'}	0.0	0.0	0.0	0.0	0.0	0.0	0.0	4	Learner_1
0.6148612022399902	0.11571952835471097	0.005505514144897461	0.0007379603773798479	0.0005	0.3	log	elasticnet	{'alpha': 0.0005, 'l1_ratio': 0.3, 'loss': 'log', 'penalty': 'elasticnet'}	0.0	0.0	0.0	0.0	0.0	0.0	0.0	4	Learner_1
0.2157468318939209	0.041596305927854044	0.005438995361328125	0.0008083035069144292	0.0005	0.6	hinge	elasticnet	{'alpha': 0.0005, 'l1_ratio': 0.6, 'loss': 'hinge', 'penalty': 'elasticnet'}	0.0	0.0	0.0	0.0	0.0	0.0	0.0	4	Learner_1
0.5722002506256103	0.08722009915814263	0.005622482299804688	0.0006737197868734297	0.0005	0.6	log	elasticnet	{'alpha': 0.0005, 'l1_ratio': 0.6, 'loss': 'log', 'penalty': 'elasticnet'}	0.0	0.0	0.0	0.0	0.0	0.0	0.0	4	Learner_1
0.22761068344116211	0.03886866858911251	0.005564355850219726	0.0006444002231608036	0.0005	0.8	hinge	elasticnet	{'alpha': 0.0005, 'l1_ratio': 0.8, 'loss': 'hinge', 'penalty': 'elasticnet'}	0.0	0.0	0.0	0.0	0.0	0.0	0.0	4	Learner_1
0.5523566246032715	0.1106081303423337	0.006188011169433594	0.0015189364166739519	0.0005	0.8	log	elasticnet	{'alpha': 0.0005, 'l1_ratio': 0.8, 'loss': 'log', 'penalty': 'elasticnet'}	0.0	0.0	0.0	0.0	0.0	0.0	0.0	4	Learner_1
0.2160884380340576	0.038613702493139584	0.00569310188293457	0.000774482658460783	0.0005	0.95	hinge	elasticnet	{'alpha': 0.0005, 'l1_ratio': 0.95, 'loss': 'hinge', 'penalty': 'elasticnet'}	0.0	0.0	0.0	0.0	0.0	0.0	0.0	4	Learner_1
0.555403757095337	0.12130702517805589	0.006074285507202149	0.0013569230987851234	0.0005	0.95	log	elasticnet	{'alpha': 0.0005, 'l1_ratio': 0.95, 'loss': 'log', 'penalty': 'elasticnet'}	0.0	0.0	0.0	0.0	0.0	0.0	0.0	4	Learner_1
0.20632696151733398	0.04753054407899296	0.005267667770385742	0.0006694690521510207	0.0005	1	hinge	elasticnet	{'alpha': 0.0005, 'l1_ratio': 1, 'loss': 'hinge', 'penalty': 'elasticnet'}	0.0	0.0	0.0	0.0	0.0	0.0	0.0	4	Learner_1
0.4890385627746582	0.033821893884012556	0.004259443283081055	0.0001805583803432828	0.0005	1	log	elasticnet	{'alpha': 0.0005, 'l1_ratio': 1, 'loss': 'log', 'penalty': 'elasticnet'}	0.0	0.0	0.0	0.0	0.0	0.0	0.0	4	Learner_1
0.20440773963928222	0.04689874250987822	0.0036745548248291017	0.0005239793496302511	0.01	0	hinge	elasticnet	{'alpha': 0.01, 'l1_ratio': 0, 'loss': 'hinge', 'penalty': 'elasticnet'}	0.0	0.0	0.0	0.0	0.0	0.0	0.0	7	Learner_2
0.327543830871582	0.13599649337187233	0.004434442520141602	0.0008749946079707676	0.01	0	log	elasticnet	{'alpha': 0.01, 'l1_ratio': 0, 'loss': 'log', 'penalty': 'elasticnet'}	0.0	0.0	0.0	0.0	0.0	0.0	0.0	7	Learner_2
0.19935755729675292	0.037558656430710255	0.004551744461059571	0.0004595797149310886	0.01	0.05	hinge	elasticnet	{'alpha': 0.01, 'l1_ratio': 0.05, 'loss': 'hinge', 'penalty': 'elasticnet'}	0.0	0.0	0.0	0.0	0.0	0.0	0.0	7	Learner_2
0.6165921211242675	0.1420738842258548	0.005319118499755859	0.0007406372676402894	0.01	0.05	log	elasticnet	{'alpha': 0.01, 'l1_ratio': 0.05, 'loss': 'log', 'penalty': 'elasticnet'}	0.0	0.0	0.0	0.0	0.0	0.0	0.0	7	Learner_2
0.2512983798980713	0.03079288748662522	0.0052530765533447266	0.00039536446241623333	0.01	0.25	hinge	elasticnet	{'alpha': 0.01, 'l1_ratio': 0.25, 'loss': 'hinge', 'penalty': 'elasticnet'}	0.0	0.0	0.0	0.0	0.0	0.0	0.0	7	Learner_2
1.2048329353332519	0.23161299353571305	0.005936527252197265	0.0006381670721045368	0.01	0.25	log	elasticnet	{'alpha': 0.01, 'l1_ratio': 0.25, 'loss': 'log', 'penalty': 'elasticnet'}	0.0	0.0	0.0	0.0	0.0	0.0	0.0	7	Learner_2
0.23082618713378905	0.04777724304633856	0.005233287811279297	0.0006550443269201428	0.01	0.3	hinge	elasticnet	{'alpha': 0.01, 'l1_ratio': 0.3, 'loss': 'hinge', 'penalty': 'elasticnet'}	0.0	0.0	0.0	0.0	0.0	0.0	0.0	7	Learner_2
1.421180295944214	0.2308475987141645	0.005666589736938477	0.0006449990588164692	0.01	0.3	log	elasticnet	{'alpha': 0.01, 'l1_ratio': 0.3, 'loss': 'log', 'penalty': 'elasticnet'}	0.0	0.0	0.0	0.0	0.0	0.0	0.0	7	Learner_2
0.23251719474792482	0.007616706153404705	0.006352710723876953	0.00030990612823816356	0.01	0.6	hinge	elasticnet	{'alpha': 0.01, 'l1_ratio': 0.6, 'loss': 'hinge', 'penalty': 'elasticnet'}	0.0	0.0	0.0	0.0	0.0	0.0	0.0	7	Learner_2
1.5671899795532227	0.2228736298129276	0.00537872314453125	0.0006037767756785039	0.01	0.6	log	elasticnet	{'alpha': 0.01, 'l1_ratio': 0.6, 'loss': 'log', 'penalty': 'elasticnet'}	0.0	0.0	0.0	0.0	0.0	0.0	0.0	7	Learner_2
0.2029430389404297	0.03942154355395092	0.005549240112304688	0.000805848355803618	0.01	0.8	hinge	elasticnet	{'alpha': 0.01, 'l1_ratio': 0.8, 'loss': 'hinge', 'penalty': 'elasticnet'}	0.0	0.0	0.0	0.0	0.0	0.0	0.0	7	Learner_2
1.4988313674926759	0.23443836803061618	0.005709362030029297	0.0005565298499864468	0.01	0.8	log	elasticnet	{'alpha': 0.01, 'l1_ratio': 0.8, 'loss': 'log', 'penalty': 'elasticnet'}	0.0	0.0	0.0	0.0	0.0	0.0	0.0	7	Learner_2
0.1979292392730713	0.036142255512418786	0.005509519577026367	0.0006009354281092298	0.01	0.95	hinge	elasticnet	{'alpha': 0.01, 'l1_ratio': 0.95, 'loss': 'hinge', 'penalty': 'elasticnet'}	0.0	0.0	0.0	0.0	0.0	0.0	0.0	7	Learner_2
1.4693624019622802	0.24377219280810045	0.005344390869140625	0.0007897624267717134	0.01	0.95	log	elasticnet	{'alpha': 0.01, 'l1_ratio': 0.95, 'loss': 'log', 'penalty': 'elasticnet'}	0.0	0.0	0.0	0.0	0.0	0.0	0.0	7	Learner_2
0.16548008918762208	0.027775953346805386	0.004844188690185547	0.0005500370876109146	0.01	1	hinge	elasticnet	{'alpha': 0.01, 'l1_ratio': 1, 'loss': 'hinge', 'penalty': 'elasticnet'}	0.0	0.0	0.0	0.0	0.0	0.0	0.0	7	Learner_2
1.4640640258789062	0.22667363975437513	0.005316638946533203	0.0005348459794155426	0.01	1	log	elasticnet	{'alpha': 0.01, 'l1_ratio': 1, 'loss': 'log', 'penalty': 'elasticnet'}	0.0	0.0	0.0	0.0	0.0	0.0	0.0	7	Learner_2
0.7013725757598877	0.15077919160721126	0.005373811721801758	0.0007235527824189633	0.001	0	hinge	elasticnet	{'alpha': 0.001, 'l1_ratio': 0, 'loss': 'hinge', 'penalty': 'elasticnet'}	0.0	0.0	0.0	0.0	0.0	0.0	0.0	7	Learner_2
0.5907626628875733	0.13245533190959316	0.005241250991821289	0.0006485170403813472	0.001	0	log	elasticnet	{'alpha': 0.001, 'l1_ratio': 0, 'loss': 'log', 'penalty': 'elasticnet'}	0.0	0.0	0.0	0.0	0.0	0.0	0.0	7	Learner_2
0.41219491958618165	0.06799483578894407	0.005482196807861328	0.000611303842010335	0.001	0.05	hinge	elasticnet	{'alpha': 0.001, 'l1_ratio': 0.05, 'loss': 'hinge', 'penalty': 'elasticnet'}	0.0	0.0	0.0	0.0	0.0	0.0	0.0	7	Learner_2
0.6732317924499511	0.10879872382384105	0.005712032318115234	0.0004936070077004365	0.001	0.05	log	elasticnet	{'alpha': 0.001, 'l1_ratio': 0.05, 'loss': 'log', 'penalty': 'elasticnet'}	0.0	0.0	0.0	0.0	0.0	0.0	0.0	7	Learner_2
0.26633076667785643	0.03609684271894249	0.005559444427490234	0.0007316753344095265	0.001	0.25	hinge	elasticnet	{'alpha': 0.001, 'l1_ratio': 0.25, 'loss': 'hinge', 'penalty': 'elasticnet'}	0.0	0.0	0.0	0.0	0.0	0.0	0.0	7	Learner_2
0.5632269859313965	0.07803198250348446	0.005595684051513672	0.0006011030852859729	0.001	0.25	log	elasticnet	{'alpha': 0.001, 'l1_ratio': 0.25, 'loss': 'log', 'penalty': 'elasticnet'}	0.0	0.0	0.0	0.0	0.0	0.0	0.0	7	Learner_2
0.26098270416259767	0.055466981084389	0.0057124137878417965	0.0006121169502056624	0.001	0.3	hinge	elasticnet	{'alpha': 0.001, 'l1_ratio': 0.3, 'loss': 'hinge', 'penalty': 'elasticnet'}	0.0	0.0	0.0	0.0	0.0	0.0	0.0	7	Learner_2
0.5945733547210693	0.1192730177716586	0.006058263778686524	0.0006140469167098601	0.001	0.3	log	elasticnet	{'alpha': 0.001, 'l1_ratio': 0.3, 'loss': 'log', 'penalty': 'elasticnet'}	0.0	0.0	0.0	0.0	0.0	0.0	0.0	7	Learner_2
0.2464724063873291	0.03186995671926611	0.005949783325195313	0.000758342639538635	0.001	0.6	hinge	elasticnet	{'alpha': 0.001, 'l1_ratio': 0.6, 'loss': 'hinge', 'penalty': 'elasticnet'}	0.0	0.0	0.0	0.0	0.0	0.0	0.0	7	Learner_2
0.5919030189514161	0.1009373689519233	0.00581207275390625	0.0010992036952994252	0.001	0.6	log	elasticnet	{'alpha': 0.001, 'l1_ratio': 0.6, 'loss': 'log', 'penalty': 'elasticnet'}	0.0	0.0	0.0	0.0	0.0	0.0	0.0	7	Learner_2
0.21143045425415039	0.04313784396279935	0.0052448749542236325	0.0007359697637961505	0.001	0.8	hinge	elasticnet	{'alpha': 0.001, 'l1_ratio': 0.8, 'loss': 'hinge', 'penalty': 'elasticnet'}	0.0	0.0	0.0	0.0	0.0	0.0	0.0	7	Learner_2
0.5886166095733643	0.10039948581511755	0.006076526641845703	0.0007922721260357771	0.001	0.8	log	elasticnet	{'alpha': 0.001, 'l1_ratio': 0.8, 'loss': 'log', 'penalty': 'elasticnet'}	0.0	0.0	0.0	0.0	0.0	0.0	0.0	7	Learner_2
0.16734957695007324	0.01553868990119737	0.004967212677001953	0.0005738953208665183	0.001	0.95	hinge	elasticnet	{'alpha': 0.001, 'l1_ratio': 0.95, 'loss': 'hinge', 'penalty': 'elasticnet'}	0.0	0.0	0.0	0.0	0.0	0.0	0.0	7	Learner_2
0.6003855705261231	0.08043392391373225	0.005991363525390625	0.0007916589110052165	0.001	0.95	log	elasticnet	{'alpha': 0.001, 'l1_ratio': 0.95, 'loss': 'log', 'penalty': 'elasticnet'}	0.0	0.0	0.0	0.0	0.0	0.0	0.0	7	Learner_2
0.17532753944396973	0.0294366758049513	0.0049302101135253905	0.0005207071243179699	0.001	1	hinge	elasticnet	{'alpha': 0.001, 'l1_ratio': 1, 'loss': 'hinge', 'penalty': 'elasticnet'}	0.0	0.0	0.0	0.0	0.0	0.0	0.0	7	Learner_2
0.6145246505737305	0.10760869543277064	0.005444765090942383	0.0006902544725416816	0.001	1	log	elasticnet	{'alpha': 0.001, 'l1_ratio': 1, 'loss': 'log', 'penalty': 'elasticnet'}	0.0	0.0	0.0	0.0	0.0	0.0	0.0	7	Learner_2
0.7701128959655762	0.23599935806991998	0.0053771018981933595	0.0004838445379944129	0.0001	0	hinge	elasticnet	{'alpha': 0.0001, 'l1_ratio': 0, 'loss': 'hinge', 'penalty': 'elasticnet'}	0.0	0.25	0.0	0.2222222222222222	0.0	0.09444444444444444	0.11600340565456166	2	Learner_2
0.7710128784179687	0.24387704211047198	0.005404281616210938	0.0006687860247308827	0.0001	0	log	elasticnet	{'alpha': 0.0001, 'l1_ratio': 0, 'loss': 'log', 'penalty': 'elasticnet'}	0.0	0.0	0.0	0.0	0.0	0.0	0.0	7	Learner_2
0.5948206901550293	0.10105959998722815	0.004938650131225586	0.000557382160378093	0.0001	0.05	hinge	elasticnet	{'alpha': 0.0001, 'l1_ratio': 0.05, 'loss': 'hinge', 'penalty': 'elasticnet'}	0.0	0.25	0.0	0.0	0.0	0.05	0.10000000000000002	3	Learner_2
0.7782230377197266	0.15107091024852598	0.00552210807800293	0.00047227122079719977	0.0001	0.05	log	elasticnet	{'alpha': 0.0001, 'l1_ratio': 0.05, 'loss': 'log', 'penalty': 'elasticnet'}	0.0	0.0	0.0	0.0	0.0	0.0	0.0	7	Learner_2
0.47170486450195315	0.13285451916678462	0.004842567443847656	0.0005805884216841512	0.0001	0.25	hinge	elasticnet	{'alpha': 0.0001, 'l1_ratio': 0.25, 'loss': 'hinge', 'penalty': 'elasticnet'}	0.0	0.0	0.0	0.0	0.0	0.0	0.0	7	Learner_2
0.7874891281127929	0.1138607820652614	0.005177116394042969	0.0006477052661278627	0.0001	0.25	log	elasticnet	{'alpha': 0.0001, 'l1_ratio': 0.25, 'loss': 'log', 'penalty': 'elasticnet'}	0.0	0.0	0.0	0.0	0.0	0.0	0.0	7	Learner_2
0.48762941360473633	0.13173623229493994	0.005948257446289062	0.0013342127225501536	0.0001	0.3	hinge	elasticnet	{'alpha': 0.0001, 'l1_ratio': 0.3, 'loss': 'hinge', 'penalty': 'elasticnet'}	0.0	0.25	0.0	0.0	0.0	0.05	0.10000000000000002	3	Learner_2
0.8315564632415772	0.18372753820185206	0.005576801300048828	0.0010890486497292867	0.0001	0.3	log	elasticnet	{'alpha': 0.0001, 'l1_ratio': 0.3, 'loss': 'log', 'penalty': 'elasticnet'}	0.0	0.0	0.0	0.0	0.0	0.0	0.0	7	Learner_2
0.39072561264038086	0.0985706263253209	0.005136919021606445	0.0006693986935110122	0.0001	0.6	hinge	elasticnet	{'alpha': 0.0001, 'l1_ratio': 0.6, 'loss': 'hinge', 'penalty': 'elasticnet'}	0.0	0.0	0.0	0.2222222222222222	0.0	0.04444444444444444	0.08888888888888888	5	Learner_2
0.7467727184295654	0.09642201817521893	0.005686664581298828	0.0005613666294744935	0.0001	0.6	log	elasticnet	{'alpha': 0.0001, 'l1_ratio': 0.6, 'loss': 'log', 'penalty': 'elasticnet'}	0.0	0.0	0.0	0.0	0.0	0.0	0.0	7	Learner_2
0.43269963264465333	0.08958116399403851	0.005756998062133789	0.000492479176041692	0.0001	0.8	hinge	elasticnet	{'alpha': 0.0001, 'l1_ratio': 0.8, 'loss': 'hinge', 'penalty': 'elasticnet'}	0.0	0.2	0.0	0.2	0.2	0.12000000000000002	0.09797958971132713	1	Learner_2
0.7699241161346435	0.07359246704723604	0.005357265472412109	0.0006888540169386237	0.0001	0.8	log	elasticnet	{'alpha': 0.0001, 'l1_ratio': 0.8, 'loss': 'log', 'penalty': 'elasticnet'}	0.0	0.0	0.0	0.0	0.0	0.0	0.0	7	Learner_2
0.394573450088501	0.04221299659169391	0.005519437789916992	0.0004460587054971291	0.0001	0.95	hinge	elasticnet	{'alpha': 0.0001, 'l1_ratio': 0.95, 'loss': 'hinge', 'penalty': 'elasticnet'}	0.0	0.0	0.0	0.2	0.0	0.04	0.08	6	Learner_2
0.7885817527770996	0.15799405096119948	0.00548405647277832	0.0006725469468096079	0.0001	0.95	log	elasticnet	{'alpha': 0.0001, 'l1_ratio': 0.95, 'loss': 'log', 'penalty': 'elasticnet'}	0.0	0.0	0.0	0.0	0.0	0.0	0.0	7	Learner_2
0.4203958511352539	0.11035135436002563	0.005716943740844726	0.0006043889179228038	0.0001	1	hinge	elasticnet	{'alpha': 0.0001, 'l1_ratio': 1, 'loss': 'hinge', 'penalty': 'elasticnet'}	0.0	0.0	0.0	0.0	0.0	0.0	0.0	7	Learner_2
0.9002227306365966	0.17856244962434414	0.005188894271850586	0.0006861867531149394	0.0001	1	log	elasticnet	{'alpha': 0.0001, 'l1_ratio': 1, 'loss': 'log', 'penalty': 'elasticnet'}	0.0	0.0	0.0	0.0	0.0	0.0	0.0	7	Learner_2
1.0364068031311036	0.2573675112052426	0.005143499374389649	0.0006215272035794964	0.0005	0	hinge	elasticnet	{'alpha': 0.0005, 'l1_ratio': 0, 'loss': 'hinge', 'penalty': 'elasticnet'}	0.0	0.0	0.0	0.0	0.0	0.0	0.0	7	Learner_2
0.6644681453704834	0.171199679823332	0.005435419082641601	0.001266007229424957	0.0005	0	log	elasticnet	{'alpha': 0.0005, 'l1_ratio': 0, 'loss': 'log', 'penalty': 'elasticnet'}	0.0	0.0	0.0	0.0	0.0	0.0	0.0	7	Learner_2
0.6437368392944336	0.09083765416829227	0.0053070068359375	0.0006213937488787921	0.0005	0.05	hinge	elasticnet	{'alpha': 0.0005, 'l1_ratio': 0.05, 'loss': 'hinge', 'penalty': 'elasticnet'}	0.0	0.0	0.0	0.0	0.0	0.0	0.0	7	Learner_2
0.7037925243377685	0.12267736521348309	0.005633878707885742	0.0008590710920075501	0.0005	0.05	log	elasticnet	{'alpha': 0.0005, 'l1_ratio': 0.05, 'loss': 'log', 'penalty': 'elasticnet'}	0.0	0.0	0.0	0.0	0.0	0.0	0.0	7	Learner_2
0.3508638381958008	0.03612974892062706	0.005440425872802734	0.0006198934848275603	0.0005	0.25	hinge	elasticnet	{'alpha': 0.0005, 'l1_ratio': 0.25, 'loss': 'hinge', 'penalty': 'elasticnet'}	0.0	0.0	0.0	0.0	0.0	0.0	0.0	7	Learner_2
0.715174388885498	0.11357413930074926	0.005720949172973633	0.0005240047820212869	0.0005	0.25	log	elasticnet	{'alpha': 0.0005, 'l1_ratio': 0.25, 'loss': 'log', 'penalty': 'elasticnet'}	0.0	0.0	0.0	0.0	0.0	0.0	0.0	7	Learner_2
0.2503817558288574	0.030522847736297216	0.004661846160888672	7.52136216209682e-05	0.0005	0.3	hinge	elasticnet	{'alpha': 0.0005, 'l1_ratio': 0.3, 'loss': 'hinge', 'penalty': 'elasticnet'}	0.0	0.0	0.0	0.0	0.0	0.0	0.0	7	Learner_2
0.6913152217864991	0.16029928878237784	0.006015348434448242	0.0005992560829901944	0.0005	0.3	log	elasticnet	{'alpha': 0.0005, 'l1_ratio': 0.3, 'loss': 'log', 'penalty': 'elasticnet'}	0.0	0.0	0.0	0.0	0.0	0.0	0.0	7	Learner_2
0.21154513359069824	0.03160287960040224	0.004849147796630859	0.0005330896844816698	0.0005	0.6	hinge	elasticnet	{'alpha': 0.0005, 'l1_ratio': 0.6, 'loss': 'hinge', 'penalty': 'elasticnet'}	0.0	0.0	0.0	0.0	0.0	0.0	0.0	7	Learner_2
0.5720280647277832	0.10443923628503889	0.005555915832519531	0.0006420410636824613	0.0005	0.6	log	elasticnet	{'alpha': 0.0005, 'l1_ratio': 0.6, 'loss': 'log', 'penalty': 'elasticnet'}	0.0	0.0	0.0	0.0	0.0	0.0	0.0	7	Learner_2
0.23381657600402833	0.04054291938558371	0.005705738067626953	0.0009482668708640148	0.0005	0.8	hinge	elasticnet	{'alpha': 0.0005, 'l1_ratio': 0.8, 'loss': 'hinge', 'penalty': 'elasticnet'}	0.0	0.0	0.0	0.0	0.0	0.0	0.0	7	Learner_2
0.5428915023803711	0.06031884397195838	0.006075620651245117	0.00029988443932577486	0.0005	0.8	log	elasticnet	{'alpha': 0.0005, 'l1_ratio': 0.8, 'loss': 'log', 'penalty': 'elasticnet'}	0.0	0.0	0.0	0.0	0.0	0.0	0.0	7	Learner_2
0.21309814453125	0.04080045591682526	0.0052052497863769535	0.0005921454105619835	0.0005	0.95	hinge	elasticnet	{'alpha': 0.0005, 'l1_ratio': 0.95, 'loss': 'hinge', 'penalty': 'elasticnet'}	0.0	0.0	0.0	0.0	0.0	0.0	0.0	7	Learner_2
0.5600234031677246	0.078896157238526	0.005803251266479492	0.0005938686563593641	0.0005	0.95	log	elasticnet	{'alpha': 0.0005, 'l1_ratio': 0.95, 'loss': 'log', 'penalty': 'elasticnet'}	0.0	0.0	0.0	0.0	0.0	0.0	0.0	7	Learner_2
0.19142789840698243	0.03694708408466287	0.00490117073059082	0.0005581600037358438	0.0005	1	hinge	elasticnet	{'alpha': 0.0005, 'l1_ratio': 1, 'loss': 'hinge', 'penalty': 'elasticnet'}	0.0	0.0	0.0	0.0	0.0	0.0	0.0	7	Learner_2
0.5020036697387695	0.07735660525117904	0.004324817657470703	0.00023346039788991555	0.0005	1	log	elasticnet	{'alpha': 0.0005, 'l1_ratio': 1, 'loss': 'log', 'penalty': 'elasticnet'}	0.0	0.0	0.0	0.0	0.0	0.0	0.0	7	Learner_2
